%!PS-Adobe-2.0 EPSF-2.0
%%BoundingBox:      0          0        399        289
 /m {moveto} def /d {lineto} def /s {stroke newpath} def gsave newpath 1 setlinecap 1 setlinejoin
 s 0.0 0.0 0.0 setrgbcolor s 0.80  setlinewidth s 11.99 127.82 m 2.82 131.31 d 11.99 134.80 d 11.99 127.82 d s 11.99 143.96 m 11.99 143.54 d 11.56 143.08 d 10.68 142.66 d 7.19 141.78 d 6.31 141.35 d 5.89 140.89 d 5.89 140.05 d 6.31 139.17 d
 7.19 138.29 d 8.07 137.86 d 9.38 137.40 d 10.68 137.40 d 11.56 137.86 d 11.99 138.74 d 11.99 139.59 d 11.56 140.47 d 10.22 141.78 d 8.92 142.66 d 7.19 143.54 d 5.89 143.96 d s 9.59 145.72 m 15.55 145.72 d 11.60 145.72 d 11.60 147.70 d
 12.58 148.68 d 15.55 148.68 d s 13.57 153.16 m 13.57 150.69 d 14.06 150.17 d 15.05 150.17 d 15.55 150.69 d 15.55 153.16 d 12.09 153.16 d 11.60 152.67 d 11.60 150.69 d s 11.60 157.64 m 11.60 155.63 d 12.58 154.64 d 14.56 154.64 d
 15.55 155.63 d 15.55 157.64 d 9.59 157.64 d s 1.0 0.0 0.0 setrgbcolor s 0.47  setlinewidth s 308.08 237.94 m 313.74 237.94 d s 319.38 237.94 m 325.02 237.94 d s 330.66 237.94 m 336.29 237.94 d s 0.0 0.0 0.0 setrgbcolor s 0.80  setlinewidth
 s 57.11 37.72 m 68.84 37.72 d 68.84 34.90 d s 49.00 25.73 m 52.06 25.73 d s 56.65 27.25 m 58.94 30.32 d 58.94 21.15 d s 61.97 28.80 m 63.52 30.32 d 65.04 30.32 d 66.55 28.80 d 66.55 27.25 d 65.81 25.73 d 61.97 21.15 d 66.55 21.15 d
 s 71.13 21.15 m 72.69 21.93 d 73.43 24.22 d 73.43 27.25 d 72.69 29.54 d 71.13 30.32 d 69.62 29.54 d 68.84 27.25 d 68.84 24.22 d 69.62 21.93 d 71.13 21.15 d s 78.01 21.15 m 77.27 21.15 d 77.27 21.93 d 78.01 21.93 d 78.01 21.15 d
 s 84.88 21.15 m 86.43 21.93 d 87.17 24.22 d 87.17 27.25 d 86.43 29.54 d 84.88 30.32 d 83.37 29.54 d 82.59 27.25 d 82.59 24.22 d 83.37 21.93 d 84.88 21.15 d s 68.84 34.90 m 68.84 37.72 d 93.27 37.72 d 93.27 34.90 d 93.27 37.72 d
 117.70 37.72 d 117.70 34.90 d s 117.70 34.90 m 117.70 37.72 d 142.13 37.72 d 142.13 34.90 d 142.13 37.72 d 166.56 37.72 d 166.56 34.90 d s 150.13 25.73 m 153.20 25.73 d s 157.78 25.73 m 156.23 27.25 d 156.23 28.80 d 157.78 30.32 d
 159.29 30.32 d 160.81 28.80 d 160.81 27.25 d 159.29 25.73 d 157.78 25.73 d 156.23 24.22 d 156.23 22.67 d 157.78 21.15 d 159.29 21.15 d 160.81 22.67 d 160.81 24.22 d 159.29 25.73 d s 165.39 21.15 m 166.94 21.93 d 167.68 24.22 d
 167.68 27.25 d 166.94 29.54 d 165.39 30.32 d 163.88 29.54 d 163.10 27.25 d 163.10 24.22 d 163.88 21.93 d 165.39 21.15 d s 172.27 21.15 m 171.53 21.15 d 171.53 21.93 d 172.27 21.93 d 172.27 21.15 d s 179.14 21.15 m 180.69 21.93 d
 181.43 24.22 d 181.43 27.25 d 180.69 29.54 d 179.14 30.32 d 177.62 29.54 d 176.85 27.25 d 176.85 24.22 d 177.62 21.93 d 179.14 21.15 d s 166.56 34.90 m 166.56 37.72 d 190.98 37.72 d 190.98 34.90 d 190.98 37.72 d 215.38 37.72 d
 215.38 34.90 d s 198.99 25.73 m 202.02 25.73 d s 205.86 25.73 m 208.15 25.73 d 209.67 24.22 d 209.67 22.67 d 208.15 21.15 d 206.60 21.15 d 205.08 22.67 d 205.08 24.22 d 205.86 25.73 d 208.89 30.32 d s 214.25 21.15 m 215.77 21.93 d
 216.54 24.22 d 216.54 27.25 d 215.77 29.54 d 214.25 30.32 d 212.73 29.54 d 211.96 27.25 d 211.96 24.22 d 212.73 21.93 d 214.25 21.15 d s 221.12 21.15 m 220.35 21.15 d 220.35 21.93 d 221.12 21.93 d 221.12 21.15 d s 228.00 21.15 m
 229.51 21.93 d 230.29 24.22 d 230.29 27.25 d 229.51 29.54 d 228.00 30.32 d 226.48 29.54 d 225.71 27.25 d 225.71 24.22 d 226.48 21.93 d 228.00 21.15 d s 215.38 34.90 m 215.38 37.72 d 239.81 37.72 d 239.81 34.90 d 239.81 37.72 d
 264.23 37.72 d 264.23 34.90 d s 247.81 25.73 m 250.87 25.73 d s 256.23 30.32 m 253.94 23.44 d 258.52 23.44 d 256.97 23.44 d 256.97 25.73 d 256.97 21.15 d s 263.11 21.15 m 264.62 21.93 d 265.40 24.22 d 265.40 27.25 d 264.62 29.54 d
 263.11 30.32 d 261.56 29.54 d 260.81 27.25 d 260.81 24.22 d 261.56 21.93 d 263.11 21.15 d s 269.98 21.15 m 269.20 21.15 d 269.20 21.93 d 269.98 21.93 d 269.98 21.15 d s 276.85 21.15 m 278.37 21.93 d 279.14 24.22 d 279.14 27.25 d
 278.37 29.54 d 276.85 30.32 d 275.30 29.54 d 274.56 27.25 d 274.56 24.22 d 275.30 21.93 d 276.85 21.15 d s 264.23 34.90 m 264.23 37.72 d 288.66 37.72 d 288.66 34.90 d 288.66 37.72 d 313.09 37.72 d 313.09 34.90 d s 296.66 25.73 m
 299.73 25.73 d s 302.76 28.80 m 304.31 30.32 d 305.83 30.32 d 307.34 28.80 d 307.34 27.25 d 306.60 25.73 d 302.76 21.15 d 307.34 21.15 d s 311.93 21.15 m 313.48 21.93 d 314.22 24.22 d 314.22 27.25 d 313.48 29.54 d 311.93 30.32 d
 310.41 29.54 d 309.64 27.25 d 309.64 24.22 d 310.41 21.93 d 311.93 21.15 d s 318.80 21.15 m 318.06 21.15 d 318.06 21.93 d 318.80 21.93 d 318.80 21.15 d s 325.67 21.15 m 327.23 21.93 d 327.97 24.22 d 327.97 27.25 d 327.23 29.54 d
 325.67 30.32 d 324.16 29.54 d 323.38 27.25 d 323.38 24.22 d 324.16 21.93 d 325.67 21.15 d s 313.09 34.90 m 313.09 37.72 d 337.52 37.72 d 337.52 34.90 d 337.52 37.72 d 361.91 37.72 d 361.91 34.90 d s 353.91 21.15 m 355.43 21.93 d
 356.20 24.22 d 356.20 27.25 d 355.43 29.54 d 353.91 30.32 d 352.39 29.54 d 351.62 27.25 d 351.62 24.22 d 352.39 21.93 d 353.91 21.15 d s 360.78 21.15 m 360.01 21.15 d 360.01 21.93 d 360.78 21.93 d 360.78 21.15 d s 367.66 21.15 m
 369.17 21.93 d 369.95 24.22 d 369.95 27.25 d 369.17 29.54 d 367.66 30.32 d 366.14 29.54 d 365.37 27.25 d 365.37 24.22 d 366.14 21.93 d 367.66 21.15 d s 361.91 34.90 m 361.91 37.72 d 374.36 37.72 d s 195.11 2.82 m 190.53 2.82 d
 190.53 11.99 d 195.11 11.99 d 190.53 11.99 d 190.53 7.40 d 192.82 7.40 d s 208.08 11.99 m 207.34 11.21 d 206.57 8.92 d 206.57 5.89 d 207.34 3.60 d 208.08 2.82 d s 216.51 11.99 m 212.66 11.99 d 211.15 10.47 d 211.15 4.34 d 212.66 2.82 d
 216.51 2.82 d 216.51 7.40 d 214.21 7.40 d s 218.80 5.89 m 223.38 5.89 d 223.38 7.40 d 221.83 8.92 d 220.31 8.92 d 218.80 7.40 d 218.80 4.34 d 220.31 2.82 d 223.38 2.82 d s 225.67 11.99 m 228.70 2.82 d 231.77 11.99 d s 235.58 11.99 m
 236.35 11.21 d 237.13 8.92 d 237.13 5.89 d 236.35 3.60 d 235.58 2.82 d s 57.11 249.22 m 68.84 249.22 d 68.84 252.04 d s 68.84 252.04 m 68.84 249.22 d 93.27 249.22 d 93.27 252.04 d 93.27 249.22 d 117.70 249.22 d 117.70 252.04 d
 s 117.70 252.04 m 117.70 249.22 d 142.13 249.22 d 142.13 252.04 d 142.13 249.22 d 166.56 249.22 d 166.56 252.04 d s 166.56 252.04 m 166.56 249.22 d 190.98 249.22 d 190.98 252.04 d 190.98 249.22 d 215.38 249.22 d 215.38 252.04 d
 s 215.38 252.04 m 215.38 249.22 d 239.81 249.22 d 239.81 252.04 d 239.81 249.22 d 264.23 249.22 d 264.23 252.04 d s 264.23 252.04 m 264.23 249.22 d 288.66 249.22 d 288.66 252.04 d 288.66 249.22 d 313.09 249.22 d 313.09 252.04 d
 s 313.09 252.04 m 313.09 249.22 d 337.52 249.22 d 337.52 252.04 d 337.52 249.22 d 361.91 249.22 d 361.91 252.04 d s 361.91 252.04 m 361.91 249.22 d 374.36 249.22 d s 57.11 37.72 m 57.11 40.50 d 55.55 40.50 d 57.11 40.50 d 57.11 45.08 d
 55.55 45.08 d 57.11 45.08 d 57.11 49.67 d 55.55 49.67 d 54.29 49.67 d s 27.67 45.08 m 29.19 45.86 d 29.96 48.15 d 29.96 51.22 d 29.19 53.51 d 27.67 54.25 d 26.16 53.51 d 25.38 51.22 d 25.38 48.15 d 26.16 45.86 d 27.67 45.08 d
 s 34.55 45.08 m 33.77 45.08 d 33.77 45.86 d 34.55 45.86 d 34.55 45.08 d s 41.42 45.08 m 42.93 45.86 d 43.71 48.15 d 43.71 51.22 d 42.93 53.51 d 41.42 54.25 d 39.90 53.51 d 39.13 51.22 d 39.13 48.15 d 39.90 45.86 d 41.42 45.08 d
 s 48.29 45.08 m 49.81 45.86 d 50.58 48.15 d 50.58 51.22 d 49.81 53.51 d 48.29 54.25 d 46.78 53.51 d 46.00 51.22 d 46.00 48.15 d 46.78 45.86 d 48.29 45.08 d s 54.29 49.67 m 57.11 49.67 d 57.11 54.25 d 55.55 54.25 d 57.11 54.25 d
 57.11 58.83 d 55.55 58.83 d 57.11 58.83 d 57.11 63.41 d 55.55 63.41 d 57.11 63.41 d 57.11 68.00 d 55.55 68.00 d 54.29 68.00 d s 27.67 63.41 m 29.19 64.19 d 29.96 66.48 d 29.96 69.55 d 29.19 71.84 d 27.67 72.58 d 26.16 71.84 d 25.38 69.55 d
 25.38 66.48 d 26.16 64.19 d 27.67 63.41 d s 34.55 63.41 m 33.77 63.41 d 33.77 64.19 d 34.55 64.19 d 34.55 63.41 d s 39.13 72.58 m 42.19 72.58 d 43.71 71.06 d 43.71 69.55 d 42.19 68.00 d 40.64 68.00 d 42.19 68.00 d 43.71 66.48 d
 43.71 64.97 d 42.19 63.41 d 39.13 63.41 d s 46.78 63.41 m 49.81 68.00 d 50.58 69.55 d 50.58 71.06 d 49.07 72.58 d 47.52 72.58 d 46.00 71.06 d 46.00 69.55 d 47.52 68.00 d 49.81 68.00 d s 54.29 68.00 m 57.11 68.00 d 57.11 72.58 d
 55.55 72.58 d 57.11 72.58 d 57.11 77.16 d 55.55 77.16 d 57.11 77.16 d 57.11 81.74 d 55.55 81.74 d 57.11 81.74 d 57.11 86.33 d 55.55 86.33 d 54.29 86.33 d s 27.67 81.74 m 29.19 82.52 d 29.96 84.81 d 29.96 87.88 d 29.19 90.17 d 27.67 90.91 d
 26.16 90.17 d 25.38 87.88 d 25.38 84.81 d 26.16 82.52 d 27.67 81.74 d s 34.55 81.74 m 33.77 81.74 d 33.77 82.52 d 34.55 82.52 d 34.55 81.74 d s 39.13 90.91 m 43.71 90.91 d 39.13 81.74 d 41.42 86.33 d 40.64 86.33 d 42.19 86.33 d
 s 46.78 81.74 m 49.81 86.33 d 50.58 87.88 d 50.58 89.39 d 49.07 90.91 d 47.52 90.91 d 46.00 89.39 d 46.00 87.88 d 47.52 86.33 d 49.81 86.33 d s 54.29 86.33 m 57.11 86.33 d 57.11 90.91 d 55.55 90.91 d 57.11 90.91 d 57.11 95.49 d
 55.55 95.49 d 57.11 95.49 d 57.11 100.07 d 55.55 100.07 d 57.11 100.07 d 57.11 104.66 d 55.55 104.66 d 54.29 104.66 d s 26.90 106.21 m 29.19 109.24 d 29.19 100.07 d s 34.55 100.07 m 33.77 100.07 d 33.77 100.85 d 34.55 100.85 d
 34.55 100.07 d s 40.64 106.21 m 42.93 109.24 d 42.93 100.07 d s 47.52 104.66 m 46.00 106.21 d 46.00 107.72 d 47.52 109.24 d 49.07 109.24 d 50.58 107.72 d 50.58 106.21 d 49.07 104.66 d 47.52 104.66 d 46.00 103.14 d 46.00 101.63 d
 47.52 100.07 d 49.07 100.07 d 50.58 101.63 d 50.58 103.14 d 49.07 104.66 d s 54.29 104.66 m 57.11 104.66 d 57.11 109.24 d 55.55 109.24 d 57.11 109.24 d 57.11 113.82 d 55.55 113.82 d 57.11 113.82 d 57.11 118.40 d 55.55 118.40 d
 57.11 118.40 d 57.11 122.99 d 55.55 122.99 d 54.29 122.99 d s 26.90 124.54 m 29.19 127.57 d 29.19 118.40 d s 34.55 118.40 m 33.77 118.40 d 33.77 119.18 d 34.55 119.18 d 34.55 118.40 d s 39.13 118.40 m 42.19 118.40 d 43.71 119.96 d
 43.71 121.47 d 42.19 122.99 d 39.13 122.99 d 39.13 127.57 d 43.71 127.57 d s 46.00 127.57 m 50.58 127.57 d 46.00 118.40 d 48.29 122.99 d 47.52 122.99 d 49.07 122.99 d s 54.29 122.99 m 57.11 122.99 d 57.11 127.57 d 55.55 127.57 d
 57.11 127.57 d 57.11 132.15 d 55.55 132.15 d 57.11 132.15 d 57.11 136.73 d 55.55 136.73 d 57.11 136.73 d 57.11 141.32 d 55.55 141.32 d 54.29 141.32 d s 26.90 142.87 m 29.19 145.90 d 29.19 136.73 d s 34.55 136.73 m 33.77 136.73 d
 33.77 137.51 d 34.55 137.51 d 34.55 136.73 d s 39.90 136.73 m 42.93 141.32 d 43.71 142.87 d 43.71 144.38 d 42.19 145.90 d 40.64 145.90 d 39.13 144.38 d 39.13 142.87 d 40.64 141.32 d 42.93 141.32 d s 46.78 141.32 m 49.07 141.32 d
 50.58 139.80 d 50.58 138.29 d 49.07 136.73 d 47.52 136.73 d 46.00 138.29 d 46.00 139.80 d 46.78 141.32 d 49.81 145.90 d s 54.29 141.32 m 57.11 141.32 d 57.11 145.90 d 55.55 145.90 d 57.11 145.90 d 57.11 150.48 d 55.55 150.48 d
 57.11 150.48 d 57.11 155.06 d 55.55 155.06 d 57.11 155.06 d 57.11 159.65 d 55.55 159.65 d 54.29 159.65 d s 25.38 162.71 m 26.90 164.23 d 28.45 164.23 d 29.96 162.71 d 29.96 161.20 d 29.19 159.65 d 25.38 155.06 d 29.96 155.06 d
 s 34.55 155.06 m 33.77 155.06 d 33.77 155.84 d 34.55 155.84 d 34.55 155.06 d s 39.13 164.23 m 42.19 164.23 d 43.71 162.71 d 43.71 161.20 d 42.19 159.65 d 40.64 159.65 d 42.19 159.65 d 43.71 158.13 d 43.71 156.62 d 42.19 155.06 d
 39.13 155.06 d s 46.78 159.65 m 49.07 159.65 d 50.58 158.13 d 50.58 156.62 d 49.07 155.06 d 47.52 155.06 d 46.00 156.62 d 46.00 158.13 d 46.78 159.65 d 49.81 164.23 d s 54.29 159.65 m 57.11 159.65 d 57.11 164.23 d 55.55 164.23 d
 57.11 164.23 d 57.11 168.81 d 55.55 168.81 d 57.11 168.81 d 57.11 173.39 d 55.55 173.39 d 57.11 173.39 d 57.11 177.98 d 55.55 177.98 d 54.29 177.98 d s 25.38 181.04 m 26.90 182.56 d 28.45 182.56 d 29.96 181.04 d 29.96 179.53 d
 29.19 177.98 d 25.38 173.39 d 29.96 173.39 d s 34.55 173.39 m 33.77 173.39 d 33.77 174.17 d 34.55 174.17 d 34.55 173.39 d s 39.13 182.56 m 43.71 182.56 d 39.13 173.39 d 41.42 177.98 d 40.64 177.98 d 42.19 177.98 d s 46.00 173.39 m
 49.07 173.39 d 50.58 174.95 d 50.58 176.46 d 49.07 177.98 d 46.00 177.98 d 46.00 182.56 d 50.58 182.56 d s 54.29 177.98 m 57.11 177.98 d 57.11 182.56 d 55.55 182.56 d 57.11 182.56 d 57.11 187.14 d 55.55 187.14 d 57.11 187.14 d
 57.11 191.72 d 55.55 191.72 d 57.11 191.72 d 57.11 196.31 d 55.55 196.31 d 54.29 196.31 d s 25.38 200.89 m 28.45 200.89 d 29.96 199.37 d 29.96 197.86 d 28.45 196.31 d 26.90 196.31 d 28.45 196.31 d 29.96 194.79 d 29.96 193.28 d
 28.45 191.72 d 25.38 191.72 d s 34.55 191.72 m 33.77 191.72 d 33.77 192.50 d 34.55 192.50 d 34.55 191.72 d s 40.64 197.86 m 42.93 200.89 d 42.93 191.72 d s 48.29 200.89 m 46.00 194.02 d 50.58 194.02 d 49.07 194.02 d 49.07 196.31 d
 49.07 191.72 d s 54.29 196.31 m 57.11 196.31 d 57.11 200.89 d 55.55 200.89 d 57.11 200.89 d 57.11 205.47 d 55.55 205.47 d 57.11 205.47 d 57.11 210.05 d 55.55 210.05 d 57.11 210.05 d 57.11 214.64 d 55.55 214.64 d 54.29 214.64 d
 s 25.38 219.22 m 28.45 219.22 d 29.96 217.70 d 29.96 216.19 d 28.45 214.64 d 26.90 214.64 d 28.45 214.64 d 29.96 213.12 d 29.96 211.61 d 28.45 210.05 d 25.38 210.05 d s 34.55 210.05 m 33.77 210.05 d 33.77 210.83 d 34.55 210.83 d
 34.55 210.05 d s 39.13 210.05 m 42.19 210.05 d 43.71 211.61 d 43.71 213.12 d 42.19 214.64 d 39.13 214.64 d 39.13 219.22 d 43.71 219.22 d s 46.00 219.22 m 49.07 219.22 d 50.58 217.70 d 50.58 216.19 d 49.07 214.64 d 47.52 214.64 d
 49.07 214.64 d 50.58 213.12 d 50.58 211.61 d 49.07 210.05 d 46.00 210.05 d s 46.00 210.05 m s 54.29 214.64 m 57.11 214.64 d 57.11 219.22 d 55.55 219.22 d 57.11 219.22 d 57.11 223.80 d 55.55 223.80 d 57.11 223.80 d 57.11 228.38 d
 55.55 228.38 d 57.11 228.38 d 57.11 232.97 d 55.55 232.97 d 54.29 232.97 d s 25.38 237.55 m 28.45 237.55 d 29.96 236.03 d 29.96 234.52 d 28.45 232.97 d 26.90 232.97 d 28.45 232.97 d 29.96 231.45 d 29.96 229.94 d 28.45 228.38 d
 25.38 228.38 d s 34.55 228.38 m 33.77 228.38 d 33.77 229.16 d 34.55 229.16 d 34.55 228.38 d s 39.90 228.38 m 42.93 232.97 d 43.71 234.52 d 43.71 236.03 d 42.19 237.55 d 40.64 237.55 d 39.13 236.03 d 39.13 234.52 d 40.64 232.97 d
 42.93 232.97 d s 46.00 237.55 m 49.07 237.55 d 50.58 236.03 d 50.58 234.52 d 49.07 232.97 d 47.52 232.97 d 49.07 232.97 d 50.58 231.45 d 50.58 229.94 d 49.07 228.38 d 46.00 228.38 d s 54.29 232.97 m 57.11 232.97 d 57.11 237.55 d
 55.55 237.55 d 57.11 237.55 d 57.11 242.13 d 55.55 242.13 d 57.11 242.13 d 57.11 246.71 d 55.55 246.71 d 57.11 246.71 d 57.11 249.22 d s 33.03 276.71 m 36.06 276.71 d 34.55 276.71 d 34.55 275.20 d 34.55 278.23 d 34.55 276.71 d
 33.03 278.23 d 36.06 275.20 d 34.55 276.71 d 33.03 275.20 d 36.06 278.23 d s 40.64 278.23 m 42.93 281.30 d 42.93 272.13 d s 48.29 272.13 m 49.81 272.91 d 50.58 275.20 d 50.58 278.23 d 49.81 280.52 d 48.29 281.30 d 46.78 280.52 d
 46.00 278.23 d 46.00 275.20 d 46.78 272.91 d 48.29 272.13 d s 53.33 281.30 m 55.17 281.30 d s 57.00 283.13 m 57.92 284.04 d 58.83 284.04 d 59.75 283.13 d 59.75 282.21 d 59.29 281.30 d 57.00 278.55 d 59.75 278.55 d s 374.36 37.72 m
 374.36 40.50 d 375.91 40.50 d 374.36 40.50 d 374.36 45.08 d 375.91 45.08 d 374.36 45.08 d 374.36 49.67 d 375.91 49.67 d 377.18 49.67 d s 377.18 49.67 m 374.36 49.67 d 374.36 54.25 d 375.91 54.25 d 374.36 54.25 d 374.36 58.83 d
 375.91 58.83 d 374.36 58.83 d 374.36 63.41 d 375.91 63.41 d 374.36 63.41 d 374.36 68.00 d 375.91 68.00 d 377.18 68.00 d s 377.18 68.00 m 374.36 68.00 d 374.36 72.58 d 375.91 72.58 d 374.36 72.58 d 374.36 77.16 d 375.91 77.16 d
 374.36 77.16 d 374.36 81.74 d 375.91 81.74 d 374.36 81.74 d 374.36 86.33 d 375.91 86.33 d 377.18 86.33 d s 377.18 86.33 m 374.36 86.33 d 374.36 90.91 d 375.91 90.91 d 374.36 90.91 d 374.36 95.49 d 375.91 95.49 d 374.36 95.49 d
 374.36 100.07 d 375.91 100.07 d 374.36 100.07 d 374.36 104.66 d 375.91 104.66 d 377.18 104.66 d s 377.18 104.66 m 374.36 104.66 d 374.36 109.24 d 375.91 109.24 d 374.36 109.24 d 374.36 113.82 d 375.91 113.82 d 374.36 113.82 d
 374.36 118.40 d 375.91 118.40 d 374.36 118.40 d 374.36 122.99 d 375.91 122.99 d 377.18 122.99 d s 377.18 122.99 m 374.36 122.99 d 374.36 127.57 d 375.91 127.57 d 374.36 127.57 d 374.36 132.15 d 375.91 132.15 d 374.36 132.15 d
 374.36 136.73 d 375.91 136.73 d 374.36 136.73 d 374.36 141.32 d 375.91 141.32 d 377.18 141.32 d s 377.18 141.32 m 374.36 141.32 d 374.36 145.90 d 375.91 145.90 d 374.36 145.90 d 374.36 150.48 d 375.91 150.48 d 374.36 150.48 d
 374.36 155.06 d 375.91 155.06 d 374.36 155.06 d 374.36 159.65 d 375.91 159.65 d 377.18 159.65 d s 377.18 159.65 m 374.36 159.65 d 374.36 164.23 d 375.91 164.23 d 374.36 164.23 d 374.36 168.81 d 375.91 168.81 d 374.36 168.81 d
 374.36 173.39 d 375.91 173.39 d 374.36 173.39 d 374.36 177.98 d 375.91 177.98 d 377.18 177.98 d s 377.18 177.98 m 374.36 177.98 d 374.36 182.56 d 375.91 182.56 d 374.36 182.56 d 374.36 187.14 d 375.91 187.14 d 374.36 187.14 d
 374.36 191.72 d 375.91 191.72 d 374.36 191.72 d 374.36 196.31 d 375.91 196.31 d 377.18 196.31 d s 377.18 196.31 m 374.36 196.31 d 374.36 200.89 d 375.91 200.89 d 374.36 200.89 d 374.36 205.47 d 375.91 205.47 d 374.36 205.47 d
 374.36 210.05 d 375.91 210.05 d 374.36 210.05 d 374.36 214.64 d 375.91 214.64 d 377.18 214.64 d s 377.18 214.64 m 374.36 214.64 d 374.36 219.22 d 375.91 219.22 d 374.36 219.22 d 374.36 223.80 d 375.91 223.80 d 374.36 223.80 d
 374.36 228.38 d 375.91 228.38 d 374.36 228.38 d 374.36 232.97 d 375.91 232.97 d 377.18 232.97 d s 377.18 232.97 m 374.36 232.97 d 374.36 237.55 d 375.91 237.55 d 374.36 237.55 d 374.36 242.13 d 375.91 242.13 d 374.36 242.13 d
 374.36 246.71 d 375.91 246.71 d 374.36 246.71 d 374.36 249.22 d s 1.0 0.0 0.0 setrgbcolor s 0.47  setlinewidth s 350.39 235.12 m 350.39 238.89 d 352.25 238.89 d 353.21 237.94 d 353.21 235.12 d s 356.03 240.76 m 355.57 240.76 d
 355.07 240.30 d 355.07 235.12 d 355.07 238.89 d 354.62 238.89 d 356.03 238.89 d s 357.44 237.48 m 360.26 237.48 d s 360.26 238.40 m 357.44 238.40 d s 361.67 239.81 m 362.62 240.76 d 363.53 240.76 d 364.49 239.81 d 364.49 238.89 d
 364.03 237.94 d 361.67 235.12 d 364.49 235.12 d s 68.84 117.24 m 74.49 117.01 d s 80.13 116.79 m 85.76 116.56 d s 91.40 116.33 m 93.27 116.25 d 97.03 116.09 d s 102.67 115.85 m 108.30 115.60 d s 113.94 115.36 m 117.70 115.20 d
 119.57 115.12 d s 125.21 114.84 m 127.46 114.74 d 129.90 114.60 d 130.84 114.56 d s 136.47 114.29 m 137.23 114.25 d 139.70 114.14 d 142.10 114.00 d s 147.74 113.71 m 149.46 113.61 d 151.89 113.51 d 153.37 113.42 d s 159.00 113.10 m
 159.22 113.08 d 161.66 112.94 d 164.09 112.84 d 164.63 112.80 d s 170.26 112.46 m 171.42 112.38 d 173.89 112.24 d 175.89 112.12 d s 181.52 111.79 m 183.65 111.64 d 186.08 111.50 d 187.15 111.42 d s 192.78 111.05 m 193.42 111.00 d
 195.85 110.86 d 198.28 110.69 d 198.40 110.68 d s 204.03 110.27 m 205.61 110.16 d 208.08 109.98 d 209.66 109.87 d s 215.28 109.42 m 215.38 109.42 d 217.85 109.24 d 220.28 109.06 d 220.90 109.01 d s 226.52 108.54 m 227.61 108.46 d
 230.04 108.25 d 232.14 108.07 d s 237.76 107.55 m 239.81 107.37 d 242.27 107.12 d 243.37 107.03 d s 248.99 106.48 m 249.57 106.42 d 252.04 106.17 d 254.47 105.93 d 254.60 105.91 d s 260.21 105.30 m 261.80 105.12 d 264.23 104.83 d
 265.81 104.65 d s 271.41 103.97 m 271.57 103.95 d 274.00 103.64 d 276.47 103.32 d 277.00 103.25 d s 282.59 102.47 m 283.76 102.30 d 286.23 101.94 d 288.17 101.66 d s 293.73 100.75 m 295.99 100.39 d 298.43 99.93 d 299.29 99.78 d
 s 304.83 98.73 m 305.76 98.56 d 308.19 98.03 d 310.35 97.57 d s 315.84 96.29 m 317.96 95.74 d 320.42 95.10 d 321.29 94.85 d s 326.69 93.21 m 327.72 92.88 d 330.19 92.04 d 332.01 91.35 d s 337.22 89.18 m 337.52 89.04 d 337.73 88.94 d
 337.94 88.83 d 338.15 88.72 d 338.40 88.62 d 338.61 88.51 d 338.82 88.41 d 339.03 88.27 d 339.28 88.16 d 339.49 88.05 d 339.70 87.95 d 339.92 87.84 d 340.13 87.70 d 340.37 87.60 d 340.59 87.49 d 340.80 87.35 d 341.01 87.24 d 341.26 87.14 d
 341.47 87.00 d 341.68 86.89 d 341.89 86.75 d 342.14 86.61 d 342.21 86.57 d s 346.90 83.46 m 346.97 83.40 d 347.18 83.26 d 347.39 83.08 d 347.60 82.91 d 347.85 82.73 d 348.06 82.56 d 348.27 82.34 d 348.48 82.17 d 348.73 81.99 d
 348.94 81.78 d 349.15 81.60 d 349.36 81.39 d 349.61 81.18 d 349.82 80.97 d 350.03 80.76 d 350.24 80.55 d 350.49 80.33 d 350.70 80.12 d 350.91 79.88 d 351.09 79.70 d s 354.57 75.29 m 354.65 75.15 d 354.86 74.80 d 355.07 74.45 d
 355.32 74.06 d 355.53 73.67 d 355.74 73.28 d 355.95 72.86 d 356.20 72.44 d 356.41 71.98 d 356.62 71.52 d 356.84 71.03 d 357.08 70.54 d 357.18 70.29 d s 358.93 64.94 m 359.06 64.51 d 359.27 63.59 d 359.48 62.60 d 359.51 62.50 d
 359.51 62.39 d 359.55 62.29 d 359.59 62.18 d 359.59 62.08 d 359.62 61.97 d 359.66 61.86 d 359.66 61.76 d 359.69 61.65 d 359.69 61.55 d 359.73 61.44 d 359.76 61.34 d 359.76 61.23 d 359.80 61.09 d 359.83 60.98 d 359.83 60.88 d 359.87 60.74 d
 359.87 60.63 d 359.90 60.52 d 359.94 60.38 d 359.94 60.28 d 359.97 60.17 d 360.01 60.03 d 360.01 59.92 d 360.04 59.78 d 360.04 59.64 d 360.08 59.54 d 360.10 59.46 d s 360.95 53.92 m 360.96 53.90 d 361.00 53.72 d 361.00 53.58 d
 361.03 53.44 d 361.03 53.30 d 361.07 53.16 d 361.10 53.02 d 361.10 52.87 d 361.14 52.73 d 361.17 52.59 d 361.17 52.45 d 361.21 52.31 d 361.21 52.17 d 361.24 52.06 d 361.28 51.92 d 361.28 51.78 d 361.31 51.68 d 361.35 51.54 d 361.35 51.43 d
 361.38 51.29 d 361.38 51.18 d 361.42 51.08 d 361.45 50.97 d 361.45 50.87 d 361.49 50.76 d 361.52 50.65 d 361.52 50.55 d 361.56 50.48 d 361.56 50.37 d 361.59 50.30 d 361.63 50.23 d 361.63 50.16 d 361.67 50.09 d 361.70 50.02 d 361.70 49.98 d
 361.70 49.95 d 361.74 49.91 d 361.74 49.88 d 361.74 49.84 d 361.77 49.84 d 361.77 49.81 d 361.81 49.77 d 361.81 49.74 d 361.84 49.74 d 361.84 49.70 d 361.88 49.70 d 361.88 49.67 d 361.91 49.67 d 361.95 49.67 d 361.98 49.67 d 361.98 49.63 d
 362.02 49.63 d 362.02 49.60 d 362.05 49.60 d 362.05 49.56 d 362.09 49.56 d 362.09 49.53 d 362.09 49.49 d 362.12 49.46 d 362.12 49.42 d 362.16 49.39 d 362.16 49.35 d 362.16 49.31 d 362.19 49.31 d 362.19 49.28 d 362.19 49.24 d 362.19 49.21 d
 362.23 49.17 d 362.23 49.14 d 362.23 49.10 d 362.23 49.07 d 362.26 49.03 d 362.26 49.00 d 362.26 48.96 d 362.26 48.93 d 362.26 48.89 d 362.30 48.86 d s 0.0 0.0 1.0 setrgbcolor s 308.08 221.02 m 309.51 221.02 d s 313.74 221.02 m
 315.15 221.02 d s 319.38 221.02 m 320.79 221.02 d s 325.02 221.02 m 326.43 221.02 d s 330.66 221.02 m 332.07 221.02 d s 350.39 218.20 m 350.39 221.97 d 352.25 221.97 d 353.21 221.02 d 353.21 218.20 d s 356.03 223.84 m 355.57 223.84 d
 355.07 223.38 d 355.07 218.20 d 355.07 221.97 d 354.62 221.97 d 356.03 221.97 d s 357.44 220.56 m 360.26 220.56 d s 360.26 221.48 m 357.44 221.48 d s 361.67 223.84 m 363.53 223.84 d 364.49 222.89 d 364.49 221.97 d 363.53 221.02 d
 362.62 221.02 d 363.53 221.02 d 364.49 220.07 d 364.49 219.15 d 363.53 218.20 d 361.67 218.20 d s 68.84 139.55 m 70.27 139.48 d s 74.49 139.25 m 75.90 139.18 d s 80.12 138.95 m 81.53 138.88 d s 85.75 138.65 m 87.16 138.58 d
 s 91.39 138.35 m 92.79 138.28 d s 97.02 138.03 m 98.42 137.95 d s 102.65 137.70 m 104.05 137.61 d s 108.28 137.36 m 109.68 137.28 d s 113.91 137.03 m 115.31 136.95 d s 119.54 136.70 m 120.13 136.66 d 120.94 136.62 d s 125.17 136.34 m
 126.57 136.26 d s 130.79 135.98 m 132.20 135.90 d s 136.42 135.62 m 137.23 135.57 d 137.83 135.53 d s 142.05 135.22 m 142.13 135.22 d 143.46 135.14 d s 147.68 134.85 m 149.08 134.75 d s 153.30 134.45 m 154.32 134.37 d 154.71 134.35 d
 s 158.93 134.04 m 159.22 134.02 d 160.33 133.94 d s 164.55 133.60 m 165.96 133.50 d s 170.17 133.18 m 171.42 133.07 d 171.58 133.06 d s 175.79 132.73 m 176.32 132.68 d 177.20 132.62 d s 181.42 132.27 m 182.82 132.15 d s 187.04 131.79 m
 188.44 131.67 d s 192.65 131.30 m 193.42 131.24 d 194.06 131.18 d s 198.27 130.81 m 198.28 130.81 d 199.68 130.67 d s 203.89 130.28 m 205.29 130.14 d s 209.50 129.72 m 210.51 129.61 d 210.90 129.57 d s 215.11 129.15 m 215.38 129.12 d
 216.51 129.01 d s 220.72 128.58 m 222.12 128.41 d s 226.33 127.97 m 227.61 127.82 d 227.73 127.80 d s 231.93 127.32 m 232.47 127.25 d 233.33 127.15 d s 237.53 126.67 m 238.93 126.49 d s 243.13 125.98 m 244.53 125.80 d s 248.72 125.25 m
 249.57 125.14 d 250.12 125.06 d s 254.31 124.49 m 254.47 124.47 d 255.71 124.29 d s 259.89 123.68 m 261.29 123.46 d s 265.47 122.83 m 266.67 122.63 d 266.86 122.60 d s 271.03 121.92 m 271.57 121.82 d 272.42 121.67 d s 276.59 120.96 m
 277.98 120.71 d s 282.14 119.94 m 283.53 119.68 d s 287.67 118.85 m 288.66 118.65 d 289.05 118.57 d s 293.19 117.67 m 293.56 117.59 d 294.57 117.38 d s 298.68 116.41 m 300.06 116.09 d s 304.16 115.05 m 305.52 114.69 d s 309.59 113.53 m
 310.66 113.22 d 310.94 113.14 d s 314.98 111.88 m 315.52 111.71 d 316.32 111.44 d s 320.32 110.05 m 320.42 110.02 d 321.64 109.56 d s 325.57 107.99 m 326.86 107.43 d s 330.70 105.66 m 331.96 105.03 d s 335.66 102.99 m 336.87 102.26 d
 s 340.41 99.95 m 340.59 99.83 d 340.80 99.65 d 341.01 99.51 d 341.26 99.33 d 341.47 99.16 d 341.54 99.11 d s 344.79 96.41 m 344.99 96.27 d 345.20 96.06 d 345.41 95.84 d 345.63 95.63 d 345.83 95.46 d s 348.73 92.39 m 348.73 92.39 d
 348.94 92.14 d 349.15 91.86 d 349.36 91.61 d 349.61 91.33 d 349.63 91.31 d s 352.05 87.85 m 352.22 87.60 d 352.46 87.21 d 352.68 86.86 d 352.79 86.65 d s 354.73 82.89 m 354.86 82.59 d 355.07 82.10 d 355.32 81.61 d s 356.76 77.64 m
 356.84 77.41 d 357.08 76.70 d 357.20 76.30 d s 358.27 72.21 m 358.39 71.70 d 358.57 70.83 d s 359.36 66.67 m 359.48 65.95 d 359.51 65.81 d 359.51 65.67 d 359.55 65.53 d 359.59 65.39 d 359.59 65.29 d s 360.18 61.12 m 360.18 61.09 d
 360.22 60.91 d 360.22 60.74 d 360.26 60.56 d 360.29 60.38 d 360.29 60.21 d 360.33 60.03 d 360.36 59.85 d 360.36 59.73 d s 360.85 55.55 m 360.85 55.48 d 360.89 55.31 d 360.92 55.13 d 360.92 54.95 d 360.96 54.78 d 361.00 54.57 d
 361.00 54.39 d 361.03 54.21 d 361.03 54.15 d s 361.70 50.02 m 361.70 49.98 d 361.74 49.98 d 361.74 49.95 d 361.74 49.91 d 361.74 49.88 d 361.77 49.88 d 361.77 49.84 d 361.77 49.81 d 361.81 49.81 d 361.81 49.77 d 361.81 49.74 d
 361.84 49.74 d 361.84 49.70 d 361.88 49.70 d 361.88 49.67 d 361.91 49.67 d 361.95 49.67 d 361.98 49.67 d 361.98 49.63 d 362.02 49.63 d 362.02 49.60 d 362.05 49.60 d 362.05 49.56 d 362.05 49.53 d 362.09 49.53 d 362.09 49.49 d 362.09 49.46 d
 362.12 49.42 d 362.12 49.39 d 362.16 49.35 d 362.16 49.31 d 362.16 49.28 d 362.16 49.24 d 362.19 49.24 d 362.19 49.21 d 362.19 49.17 d 362.19 49.14 d 362.19 49.10 d 362.22 49.07 d s 1.0 0.0 1.0 setrgbcolor s 0.16  setlinewidth
 s 308.08 204.10 m 313.74 204.10 d s 319.38 204.10 m 325.02 204.10 d s 330.66 204.10 m 336.29 204.10 d s 350.39 201.28 m 350.39 205.05 d 352.25 205.05 d 353.21 204.10 d 353.21 201.28 d s 356.03 206.92 m 355.57 206.92 d 355.07 206.46 d
 355.07 201.28 d 355.07 205.05 d 354.62 205.05 d 356.03 205.05 d s 357.44 203.64 m 360.26 203.64 d s 360.26 204.56 m 357.44 204.56 d s 363.08 206.92 m 361.67 202.69 d 364.49 202.69 d 363.53 202.69 d 363.53 204.10 d 363.53 201.28 d
 s 68.84 179.21 m 74.48 178.72 d s 80.09 178.22 m 85.71 177.73 d s 91.33 177.23 m 93.27 177.06 d 96.95 176.70 d s 102.56 176.15 m 108.17 175.60 d s 113.78 175.05 m 117.70 174.66 d 119.40 174.49 d s 125.01 173.93 m 125.03 173.92 d
 127.46 173.64 d 129.90 173.39 d 130.61 173.31 d s 136.22 172.70 m 137.23 172.58 d 139.70 172.30 d 141.82 172.06 d s 147.43 171.41 m 149.46 171.17 d 151.89 170.89 d 153.03 170.76 d s 158.63 170.08 m 159.22 170.01 d 161.66 169.69 d
 164.09 169.41 d 164.23 169.39 d s 169.82 168.67 m 171.42 168.46 d 173.89 168.14 d 175.41 167.92 d s 181.00 167.15 m 181.19 167.12 d 183.65 166.80 d 186.08 166.45 d 186.58 166.38 d s 192.17 165.57 m 193.42 165.39 d 195.85 165.01 d
 197.74 164.73 d s 203.31 163.86 m 205.61 163.49 d 208.08 163.10 d 208.88 162.97 d s 214.44 162.03 m 215.38 161.87 d 217.85 161.45 d 220.00 161.07 d s 225.55 160.07 m 227.61 159.68 d 230.04 159.22 d 231.10 159.03 d s 236.63 157.93 m
 237.37 157.78 d 239.81 157.29 d 242.16 156.82 d s 247.67 155.62 m 249.57 155.21 d 252.04 154.64 d 253.17 154.38 d s 258.66 153.09 m 259.37 152.91 d 261.80 152.32 d 264.13 151.71 d s 269.58 150.25 m 271.57 149.71 d 274.00 149.04 d
 275.01 148.73 d s 280.41 147.11 m 281.33 146.82 d 283.76 146.04 d 285.79 145.40 d s 291.12 143.57 m 293.56 142.69 d 295.99 141.78 d 296.41 141.61 d s 301.63 139.48 m 303.33 138.78 d 305.76 137.72 d 306.80 137.24 d s 311.88 134.78 m
 313.09 134.16 d 315.52 132.86 d 316.85 132.12 d s 321.71 129.25 m 322.85 128.52 d 325.29 126.90 d 326.39 126.10 d s 330.88 122.70 m 332.62 121.26 d 335.05 119.04 d 335.12 118.98 d s 339.08 114.97 m 339.28 114.77 d 339.49 114.53 d
 339.70 114.28 d 339.92 114.03 d 340.13 113.75 d 340.37 113.51 d 340.59 113.26 d 340.80 113.01 d 341.01 112.73 d 341.26 112.48 d 341.47 112.20 d 341.68 111.92 d 341.89 111.67 d 342.14 111.39 d 342.35 111.11 d 342.56 110.83 d 342.69 110.65 d
 s 345.95 106.05 m 346.08 105.86 d 346.30 105.50 d 346.51 105.15 d 346.75 104.80 d 346.97 104.45 d 347.18 104.09 d 347.39 103.71 d 347.60 103.35 d 347.85 102.97 d 348.06 102.58 d 348.27 102.19 d 348.48 101.80 d 348.73 101.41 d
 348.83 101.21 d s 351.31 96.15 m 351.34 96.09 d 351.58 95.60 d 351.80 95.07 d 352.01 94.58 d 352.22 94.05 d 352.46 93.52 d 352.68 92.99 d 352.89 92.43 d 353.10 91.86 d 353.35 91.30 d 353.47 90.94 d s 355.30 85.61 m 355.32 85.55 d
 355.53 84.81 d 355.74 84.07 d 355.95 83.33 d 356.20 82.52 d 356.41 81.74 d 356.62 80.90 d 356.81 80.17 d s 358.09 74.68 m 358.18 74.27 d 358.39 73.14 d 358.60 71.98 d 358.81 70.78 d 359.06 69.48 d 359.11 69.14 d s 359.93 63.57 m
 359.94 63.52 d 359.94 63.34 d 359.97 63.20 d 360.01 63.03 d 360.01 62.85 d 360.04 62.67 d 360.04 62.50 d 360.08 62.32 d 360.11 62.15 d 360.11 61.97 d 360.15 61.79 d 360.18 61.62 d 360.18 61.44 d 360.22 61.26 d 360.22 61.09 d 360.26 60.91 d
 360.29 60.74 d 360.29 60.56 d 360.33 60.38 d 360.36 60.17 d 360.36 60.00 d 360.40 59.82 d 360.40 59.64 d 360.43 59.43 d 360.47 59.26 d 360.47 59.08 d 360.50 58.87 d 360.50 58.69 d 360.54 58.52 d 360.57 58.30 d 360.57 58.13 d 360.60 58.00 d
 s 361.28 52.42 m 361.28 52.42 d 361.28 52.28 d 361.31 52.10 d 361.35 51.96 d 361.35 51.82 d 361.38 51.64 d 361.38 51.50 d 361.42 51.39 d 361.45 51.25 d 361.45 51.11 d 361.49 50.97 d 361.52 50.87 d 361.52 50.76 d 361.56 50.65 d
 361.56 50.55 d 361.59 50.44 d 361.63 50.34 d 361.63 50.27 d 361.67 50.16 d 361.70 50.09 d 361.70 50.06 d 361.70 50.02 d 361.70 49.98 d 361.74 49.98 d 361.74 49.95 d 361.74 49.91 d 361.74 49.88 d 361.77 49.88 d 361.77 49.84 d 361.77 49.81 d
 361.81 49.81 d 361.81 49.77 d 361.81 49.74 d 361.84 49.74 d 361.84 49.70 d 361.88 49.70 d 361.88 49.67 d 361.91 49.67 d 361.95 49.67 d 361.98 49.67 d 361.98 49.63 d 362.02 49.63 d 362.02 49.60 d 362.05 49.60 d 362.05 49.56 d 362.05 49.53 d
 362.09 49.53 d 362.09 49.49 d 362.09 49.46 d 362.12 49.42 d 362.12 49.39 d 362.16 49.35 d 362.16 49.31 d 362.16 49.28 d 362.16 49.24 d 362.19 49.21 d 362.19 49.17 d 362.19 49.14 d 362.19 49.10 d 362.23 49.07 d 362.23 49.03 d 362.23 49.00 d
 362.23 48.96 d 362.23 48.93 d 362.26 48.89 d 362.26 48.86 d 362.26 48.82 d 362.26 48.79 d 362.26 48.75 d 362.30 48.72 d 362.30 48.68 d 362.30 48.61 d 362.30 48.57 d 362.30 48.54 d 362.33 48.47 d 362.33 48.43 d 362.33 48.40 d 362.33 48.33 d
 362.37 48.29 d 362.37 48.22 d 362.37 48.19 d 362.37 48.12 d 362.37 48.08 d 362.41 48.01 d 362.41 47.94 d 362.41 47.90 d 362.41 47.83 d 362.41 47.76 d 362.44 47.69 d 362.44 47.66 d 362.44 47.59 d 362.44 47.52 d 362.44 47.45 d 362.48 47.38 d
 s 1.0 1.0 0.0 setrgbcolor s 308.08 187.18 m 319.38 187.18 d s 322.20 187.18 m 323.61 187.18 d s 326.43 187.18 m 336.29 187.18 d s 350.39 184.36 m 350.39 188.13 d 352.25 188.13 d 353.21 187.18 d 353.21 184.36 d s 356.03 190.00 m
 355.57 190.00 d 355.07 189.54 d 355.07 184.36 d 355.07 188.13 d 354.62 188.13 d 356.03 188.13 d s 357.44 186.72 m 360.26 186.72 d s 360.26 187.64 m 357.44 187.64 d s 361.67 184.36 m 363.53 184.36 d 364.49 185.31 d 364.49 186.23 d
 363.53 187.18 d 361.67 187.18 d 361.67 190.00 d 364.49 190.00 d s 68.84 185.87 m 80.08 184.77 d s 82.89 184.49 m 84.29 184.36 d s 87.10 184.08 m 93.27 183.48 d 98.32 182.94 d s 101.13 182.64 m 102.53 182.49 d s 105.33 182.19 m
 116.55 180.99 d s 119.35 180.68 m 120.13 180.59 d 120.75 180.52 d s 123.55 180.19 m 125.03 180.02 d 127.46 179.74 d 129.90 179.46 d 132.36 179.18 d 134.75 178.86 d s 137.55 178.53 m 138.95 178.35 d s 141.75 178.02 m 142.13 177.98 d
 144.56 177.66 d 146.99 177.34 d 149.46 177.03 d 151.89 176.71 d 152.94 176.57 d s 155.74 176.21 m 156.79 176.07 d 157.13 176.02 d s 159.93 175.63 m 161.66 175.40 d 164.09 175.05 d 166.56 174.73 d 168.99 174.38 d 171.10 174.08 d
 s 173.89 173.68 m 175.29 173.47 d s 178.07 173.05 m 178.75 172.94 d 181.19 172.58 d 183.65 172.20 d 186.08 171.81 d 188.52 171.46 d 189.22 171.34 d s 192.00 170.87 m 193.40 170.65 d s 196.18 170.20 m 198.28 169.83 d 200.75 169.41 d
 203.18 169.02 d 205.61 168.57 d 207.29 168.28 d s 210.07 167.80 m 210.51 167.72 d 211.46 167.54 d s 214.23 167.02 m 215.38 166.80 d 217.85 166.34 d 220.28 165.85 d 222.71 165.39 d 225.18 164.90 d 225.30 164.87 d s 228.07 164.31 m
 229.44 164.01 d s 232.21 163.44 m 232.47 163.38 d 234.94 162.86 d 237.37 162.33 d 239.81 161.76 d 242.27 161.20 d 243.21 160.98 d s 245.96 160.34 m 247.14 160.07 d 247.33 160.02 d s 250.07 159.35 m 252.04 158.87 d 254.47 158.24 d
 256.90 157.60 d 259.37 156.97 d 260.99 156.52 d s 263.70 155.75 m 264.23 155.59 d 265.06 155.37 d s 267.77 154.59 m 269.13 154.18 d 271.57 153.44 d 274.00 152.70 d 276.47 151.93 d 278.54 151.24 d s 281.22 150.34 m 281.33 150.31 d
 282.55 149.88 d s 285.21 148.94 m 286.23 148.58 d 288.66 147.66 d 291.09 146.75 d 293.56 145.76 d 295.73 144.88 d s 298.32 143.76 m 298.43 143.71 d 299.61 143.18 d s 302.18 142.04 m 303.33 141.53 d 305.76 140.33 d 308.19 139.13 d
 310.66 137.83 d 312.25 136.95 d s 314.70 135.56 m 315.52 135.08 d 315.91 134.84 d s 318.32 133.37 m 320.42 132.05 d 322.85 130.39 d 325.29 128.63 d 327.54 126.89 d s 329.74 125.12 m 330.19 124.75 d 330.81 124.20 d s 332.91 122.32 m
 335.05 120.24 d 337.52 117.70 d 337.73 117.45 d 337.94 117.21 d 338.15 116.96 d 338.40 116.71 d 338.61 116.47 d 338.82 116.22 d 339.03 115.97 d 339.28 115.73 d 339.49 115.44 d 339.70 115.20 d 339.92 114.95 d 340.13 114.67 d 340.37 114.39 d
 340.59 114.14 d 340.61 114.10 d s 342.35 111.88 m 342.56 111.57 d 342.77 111.28 d 343.02 110.97 d 343.18 110.74 d s 344.78 108.42 m 344.99 108.11 d 345.20 107.79 d 345.41 107.44 d 345.63 107.09 d 345.87 106.74 d 346.08 106.38 d
 346.30 106.03 d 346.51 105.68 d 346.75 105.33 d 346.97 104.94 d 347.18 104.59 d 347.39 104.20 d 347.60 103.81 d 347.85 103.42 d 348.06 103.04 d 348.27 102.61 d 348.48 102.23 d 348.73 101.80 d 348.94 101.38 d 349.15 100.96 d 349.36 100.53 d
 349.61 100.11 d 349.82 99.65 d 350.03 99.19 d 350.24 98.74 d 350.31 98.61 d s 351.48 96.04 m 351.58 95.84 d 351.80 95.35 d 352.01 94.82 d 352.04 94.75 d s 353.08 92.13 m 353.10 92.07 d 353.35 91.47 d 353.56 90.87 d 353.77 90.28 d
 353.98 89.68 d 354.23 89.04 d 354.44 88.37 d 354.65 87.74 d 354.86 87.07 d 355.07 86.36 d 355.32 85.66 d 355.53 84.92 d 355.74 84.18 d 355.95 83.44 d 356.20 82.63 d 356.41 81.82 d 356.52 81.39 d s 357.22 78.66 m 357.29 78.33 d
 357.51 77.37 d 357.52 77.29 d s 358.13 74.53 m 358.18 74.31 d 358.39 73.18 d 358.60 72.02 d 358.81 70.78 d 359.06 69.51 d 359.27 68.14 d 359.48 66.69 d 359.51 66.55 d 359.51 66.41 d 359.55 66.23 d 359.59 66.09 d 359.59 65.95 d
 359.62 65.78 d 359.66 65.64 d 359.66 65.46 d 359.69 65.32 d 359.69 65.18 d 359.73 65.00 d 359.76 64.86 d 359.76 64.68 d 359.80 64.51 d 359.83 64.37 d 359.83 64.19 d 359.87 64.05 d 359.87 63.87 d 359.90 63.70 d 359.94 63.52 d 359.94 63.42 d
 s 360.29 60.64 m 360.29 60.56 d 360.33 60.38 d 360.36 60.21 d 360.36 60.00 d 360.40 59.82 d 360.40 59.64 d 360.43 59.47 d 360.47 59.26 d s 360.78 56.45 m 360.78 56.40 d 360.82 56.22 d 360.82 56.01 d 360.85 55.84 d 360.85 55.66 d
 360.89 55.45 d 360.92 55.27 d 360.92 55.06 d 360.96 54.88 d 361.00 54.71 d 361.00 54.53 d 361.03 54.32 d 361.03 54.14 d 361.07 53.97 d 361.10 53.79 d 361.10 53.62 d 361.14 53.44 d 361.17 53.26 d 361.17 53.09 d 361.21 52.91 d 361.21 52.73 d
 361.24 52.59 d 361.28 52.42 d 361.28 52.28 d 361.31 52.10 d 361.35 51.96 d 361.35 51.82 d 361.38 51.64 d 361.38 51.50 d 361.42 51.39 d 361.45 51.25 d 361.45 51.11 d 361.49 51.01 d 361.52 50.87 d 361.52 50.76 d 361.56 50.65 d 361.56 50.55 d
 361.59 50.44 d 361.63 50.34 d 361.63 50.27 d 361.67 50.16 d 361.70 50.09 d 361.70 50.06 d 361.70 50.02 d 361.70 49.98 d 361.74 49.98 d 361.74 49.95 d 361.74 49.91 d 361.74 49.88 d 361.77 49.88 d 361.77 49.84 d 361.77 49.81 d 361.81 49.81 d
 361.81 49.77 d 361.81 49.74 d 361.84 49.74 d 361.84 49.70 d 361.88 49.70 d 361.88 49.67 d 361.91 49.67 d 361.95 49.67 d 361.98 49.67 d 361.98 49.63 d 362.02 49.63 d 362.02 49.60 d 362.05 49.60 d 362.05 49.56 d 362.05 49.53 d 362.09 49.53 d
 362.09 49.49 d 362.09 49.46 d 362.12 49.42 d 362.12 49.39 d 362.16 49.35 d 362.16 49.31 d 362.16 49.28 d 362.16 49.24 d 362.19 49.21 d 362.19 49.17 d 362.19 49.14 d 362.19 49.10 d 362.23 49.07 d 362.23 49.03 d 362.23 49.00 d 362.23 48.96 d
 362.23 48.93 d 362.26 48.89 d 362.26 48.86 d 362.26 48.82 d 362.26 48.79 d 362.26 48.75 d 362.30 48.72 d 362.30 48.68 d 362.30 48.61 d 362.30 48.57 d 362.30 48.54 d 362.33 48.47 d 362.33 48.43 d 362.33 48.40 d 362.33 48.33 d 362.37 48.29 d
 362.37 48.22 d 362.37 48.19 d 362.37 48.12 d 362.37 48.08 d 362.41 48.01 d 362.41 47.94 d 362.41 47.90 d 362.41 47.83 d 362.41 47.76 d 362.44 47.69 d 362.44 47.66 d 362.44 47.59 d 362.44 47.52 d 362.44 47.45 d 362.48 47.38 d 362.48 47.31 d
 362.48 47.24 d 362.48 47.13 d 362.48 47.06 d 362.51 46.99 d 362.51 46.92 d 362.51 46.81 d 362.51 46.74 d 362.55 46.64 d 362.55 46.57 d 362.55 46.46 d 362.55 46.35 d 362.55 46.28 d 362.58 46.18 d 362.58 46.07 d 362.58 45.97 d 362.58 45.83 d
 s  0.00  0.80  0.00 setrgbcolor s 308.08 170.26 m 313.74 170.26 d s 319.38 170.26 m 325.02 170.26 d s 330.66 170.26 m 336.29 170.26 d s 353.21 171.21 m 351.34 171.21 d 350.39 170.26 d 350.39 168.39 d 351.34 167.44 d 353.21 167.44 d
 353.21 173.08 d s 354.62 169.31 m 357.44 169.31 d 357.44 170.26 d 356.48 171.21 d 355.57 171.21 d 354.62 170.26 d 354.62 168.39 d 355.57 167.44 d 357.44 167.44 d s 358.85 167.44 m 358.85 171.21 d 360.71 171.21 d 361.21 170.72 d
 361.21 170.26 d s 369.17 167.44 m 368.26 167.44 d 368.26 173.08 d 369.17 173.08 d s 371.08 173.08 m 371.08 167.44 d 371.08 171.21 d 372.95 171.21 d 373.90 170.26 d 373.90 167.44 d s 378.13 169.31 m 375.77 169.31 d 375.31 168.85 d
 375.31 167.90 d 375.77 167.44 d 378.13 167.44 d 378.13 170.72 d 377.63 171.21 d 375.77 171.21 d s 382.36 171.21 m 380.45 171.21 d 379.54 170.26 d 379.54 168.39 d 380.45 167.44 d 382.36 167.44 d 382.36 173.08 d s 383.77 167.44 m
 383.77 171.21 d 385.64 171.21 d 386.09 170.72 d 386.09 170.26 d s 387.50 167.44 m 389.41 167.44 d 390.32 168.39 d 390.32 169.31 d 389.41 170.26 d 387.50 170.26 d 387.50 173.08 d 390.32 173.08 d s 392.69 167.44 m 393.64 167.44 d
 393.64 173.08 d 392.69 173.08 d s 68.84 185.80 m 74.47 185.25 d s 80.08 184.70 m 85.70 184.15 d s 91.31 183.60 m 93.27 183.41 d 96.92 183.02 d s 102.53 182.42 m 108.14 181.82 d s 113.74 181.22 m 117.70 180.80 d 119.35 180.61 d
 s 124.95 179.96 m 125.03 179.95 d 127.46 179.67 d 129.90 179.39 d 130.56 179.31 d s 136.16 178.65 m 137.23 178.51 d 139.70 178.22 d 141.75 177.96 d s 147.35 177.23 m 149.46 176.99 d 151.89 176.67 d 152.94 176.52 d s 158.53 175.78 m
 159.22 175.69 d 161.66 175.33 d 164.09 175.02 d 164.12 175.01 d s 169.70 174.21 m 171.42 173.96 d 173.89 173.61 d 175.28 173.40 d s 180.86 172.57 m 181.19 172.51 d 183.65 172.16 d 186.08 171.77 d 186.44 171.72 d s 192.01 170.83 m
 193.42 170.61 d 195.85 170.19 d 197.57 169.91 d s 203.13 168.96 m 203.18 168.95 d 205.61 168.53 d 208.08 168.07 d 208.68 167.97 d s 214.23 166.95 m 215.38 166.73 d 217.85 166.27 d 219.77 165.91 d s 225.30 164.80 m 227.61 164.34 d
 230.04 163.84 d 230.83 163.67 d s 236.34 162.48 m 237.37 162.26 d 239.81 161.73 d 241.85 161.26 d s 247.33 159.95 m 249.57 159.40 d 252.04 158.80 d 252.81 158.61 d s 258.27 157.18 m 259.37 156.90 d 261.80 156.23 d 263.71 155.70 d
 s 269.13 154.15 m 269.13 154.15 d 271.57 153.41 d 274.00 152.63 d 274.52 152.47 d s 279.88 150.74 m 281.33 150.24 d 283.76 149.39 d 285.21 148.87 d s 290.49 146.91 m 291.09 146.68 d 293.56 145.72 d 295.73 144.81 d s 300.90 142.57 m
 303.33 141.46 d 305.76 140.29 d 306.01 140.17 d s 311.02 137.59 m 313.09 136.45 d 315.52 135.04 d 315.92 134.80 d s 320.69 131.79 m 322.85 130.32 d 325.29 128.59 d 325.32 128.57 d s 329.73 125.05 m 330.19 124.68 d 332.62 122.53 d
 333.92 121.28 d s 337.87 117.26 m 337.94 117.17 d 338.15 116.92 d 338.40 116.68 d 338.61 116.43 d 338.82 116.18 d 339.03 115.90 d 339.28 115.66 d 339.49 115.41 d 339.70 115.13 d 339.92 114.88 d 340.13 114.63 d 340.37 114.35 d
 340.59 114.07 d 340.80 113.79 d 341.01 113.54 d 341.26 113.26 d 341.47 112.98 d 341.49 112.94 d s 344.77 108.36 m 344.99 108.08 d 345.20 107.72 d 345.41 107.41 d 345.63 107.05 d 345.87 106.70 d 346.08 106.35 d 346.30 106.00 d
 346.51 105.64 d 346.75 105.26 d 346.97 104.90 d 347.18 104.52 d 347.39 104.13 d 347.60 103.74 d 347.72 103.56 d s 350.32 98.56 m 350.49 98.24 d 350.70 97.75 d 350.91 97.29 d 351.13 96.80 d 351.34 96.30 d 351.58 95.81 d 351.80 95.28 d
 352.01 94.75 d 352.22 94.22 d 352.46 93.69 d 352.58 93.39 d s 354.51 88.10 m 354.65 87.67 d 354.86 87.00 d 355.07 86.29 d 355.32 85.59 d 355.53 84.88 d 355.74 84.14 d 355.95 83.37 d 356.16 82.70 d s 357.53 77.23 m 357.72 76.35 d
 357.96 75.33 d 358.18 74.24 d 358.39 73.14 d 358.60 71.98 d 358.65 71.71 d s 359.56 66.15 m 359.59 66.06 d 359.59 65.88 d 359.62 65.74 d 359.66 65.60 d 359.66 65.42 d 359.69 65.28 d 359.69 65.11 d 359.73 64.97 d 359.76 64.79 d
 359.76 64.65 d 359.80 64.47 d 359.83 64.33 d 359.83 64.16 d 359.87 63.98 d 359.87 63.84 d 359.90 63.66 d 359.94 63.49 d 359.94 63.34 d 359.97 63.17 d 360.01 62.99 d 360.01 62.82 d 360.04 62.64 d 360.04 62.50 d 360.08 62.32 d 360.11 62.15 d
 360.11 61.97 d 360.15 61.79 d 360.18 61.62 d 360.18 61.44 d 360.22 61.26 d 360.22 61.09 d 360.26 60.88 d 360.29 60.70 d 360.29 60.58 d s 360.94 55.00 m 360.96 54.88 d 361.00 54.67 d 361.00 54.50 d 361.03 54.32 d 361.03 54.14 d
 361.07 53.97 d 361.10 53.79 d 361.10 53.58 d 361.14 53.40 d 361.17 53.26 d 361.17 53.09 d 361.21 52.91 d 361.21 52.73 d 361.24 52.56 d 361.28 52.42 d 361.28 52.24 d 361.31 52.10 d 361.35 51.96 d 361.35 51.78 d 361.38 51.64 d 361.38 51.50 d
 361.42 51.36 d 361.45 51.25 d 361.45 51.11 d 361.49 50.97 d 361.52 50.87 d 361.52 50.76 d 361.56 50.65 d 361.56 50.55 d 361.59 50.44 d 361.63 50.34 d 361.63 50.27 d 361.67 50.16 d 361.70 50.09 d 361.70 50.06 d 361.70 50.02 d 361.70 49.98 d
 361.74 49.98 d 361.74 49.95 d 361.74 49.91 d 361.74 49.88 d 361.77 49.88 d 361.77 49.84 d 361.77 49.81 d 361.81 49.81 d 361.81 49.77 d 361.81 49.74 d 361.84 49.74 d 361.84 49.70 d 361.88 49.70 d 361.88 49.67 d 361.90 49.67 d
 s  1.00  1.00  0.60 setrgbcolor s 308.08 153.34 m 319.38 153.34 d s 322.20 153.34 m 323.61 153.34 d s 326.43 153.34 m 336.29 153.34 d s 350.84 149.11 m 352.75 149.11 d 353.21 149.57 d 353.21 154.29 d 351.34 154.29 d 350.39 153.34 d
 350.39 151.47 d 351.34 150.52 d 353.21 150.52 d s 355.07 149.11 m 356.98 149.11 d 357.44 149.57 d 357.44 154.29 d 355.57 154.29 d 354.62 153.34 d 354.62 151.47 d 355.57 150.52 d 357.44 150.52 d s 68.84 185.80 m 80.08 184.70 d
 s 82.89 184.42 m 84.29 184.29 d s 87.10 184.01 m 93.27 183.41 d 98.32 182.87 d s 101.13 182.57 m 102.53 182.42 d s 105.33 182.12 m 116.55 180.92 d s 119.35 180.61 m 120.13 180.52 d 120.75 180.44 d s 123.55 180.12 m 125.03 179.95 d
 127.46 179.67 d 129.90 179.39 d 132.36 179.11 d 134.76 178.83 d s 137.55 178.47 m 138.96 178.31 d s 141.75 177.96 m 142.13 177.91 d 144.56 177.59 d 146.99 177.31 d 149.46 176.99 d 151.89 176.67 d 152.94 176.52 d s 155.74 176.14 m
 156.79 176.00 d 157.13 175.96 d s 159.93 175.58 m 161.66 175.33 d 164.09 175.02 d 166.56 174.66 d 168.99 174.31 d 171.10 174.01 d s 173.89 173.61 m 175.28 173.40 d s 178.08 173.00 m 178.75 172.90 d 181.19 172.51 d 183.65 172.16 d
 186.08 171.77 d 188.52 171.39 d 189.22 171.27 d s 192.01 170.83 m 193.40 170.61 d s 196.18 170.13 m 198.28 169.80 d 200.75 169.38 d 203.18 168.95 d 205.61 168.53 d 207.30 168.22 d s 210.07 167.73 m 210.51 167.65 d 211.46 167.47 d
 s 214.23 166.95 m 215.38 166.73 d 217.85 166.27 d 220.28 165.82 d 222.71 165.32 d 225.18 164.83 d 225.30 164.80 d s 228.07 164.24 m 229.45 163.96 d s 232.21 163.37 m 232.47 163.31 d 234.94 162.78 d 237.37 162.26 d 239.81 161.73 d
 242.27 161.16 d 243.22 160.94 d s 245.96 160.29 m 247.14 160.00 d 247.33 159.95 d s 250.07 159.28 m 252.04 158.80 d 254.47 158.20 d 256.90 157.57 d 259.37 156.90 d 260.99 156.45 d s 263.71 155.70 m 264.23 155.56 d 265.07 155.32 d
 s 267.78 154.54 m 269.13 154.15 d 271.57 153.41 d 274.00 152.63 d 276.47 151.86 d 278.55 151.19 d s 281.22 150.28 m 281.33 150.24 d 282.55 149.81 d s 285.21 148.87 m 286.23 148.51 d 288.66 147.63 d 291.09 146.68 d 293.56 145.72 d
 295.73 144.81 d s 298.33 143.72 m 298.43 143.68 d 299.62 143.15 d s 302.18 141.98 m 303.33 141.46 d 305.76 140.29 d 308.19 139.06 d 310.66 137.79 d 312.26 136.91 d s 314.71 135.52 m 315.52 135.04 d 315.92 134.80 d s 318.32 133.32 m
 320.42 131.98 d 322.85 130.32 d 325.29 128.59 d 327.54 126.83 d s 329.73 125.05 m 330.19 124.68 d 330.80 124.14 d s 332.90 122.26 m 335.05 120.20 d 337.52 117.63 d 337.73 117.42 d 337.94 117.17 d 338.15 116.92 d 338.40 116.68 d
 338.61 116.43 d 338.82 116.18 d 339.03 115.90 d 339.28 115.66 d 339.49 115.41 d 339.70 115.13 d 339.92 114.88 d 340.13 114.60 d 340.37 114.35 d 340.59 114.07 d 340.61 114.04 d s 342.34 111.82 m 342.35 111.81 d 342.56 111.53 d
 342.77 111.21 d 343.02 110.93 d 343.18 110.69 d s 344.77 108.36 m 344.99 108.08 d 345.20 107.72 d 345.41 107.41 d 345.63 107.05 d 345.87 106.70 d 346.08 106.35 d 346.30 106.00 d 346.51 105.64 d 346.75 105.26 d 346.97 104.90 d
 347.18 104.52 d 347.39 104.13 d 347.60 103.74 d 347.85 103.35 d 348.06 102.97 d 348.27 102.58 d 348.48 102.15 d 348.73 101.77 d 348.94 101.34 d 349.15 100.92 d 349.36 100.46 d 349.61 100.04 d 349.82 99.62 d 350.03 99.16 d 350.24 98.70 d
 350.32 98.56 d s 351.49 96.00 m 351.58 95.81 d 351.80 95.28 d 352.01 94.75 d 352.03 94.69 d s 353.07 92.07 m 353.10 92.00 d 353.35 91.44 d 353.56 90.84 d 353.77 90.24 d 353.98 89.61 d 354.23 88.97 d 354.44 88.34 d 354.65 87.67 d
 354.86 87.00 d 355.07 86.29 d 355.32 85.59 d 355.53 84.88 d 355.74 84.14 d 355.95 83.37 d 356.20 82.56 d 356.41 81.74 d 356.52 81.34 d s 357.21 78.61 m 357.29 78.26 d 357.51 77.34 d 357.53 77.24 d s 358.13 74.48 m 358.18 74.24 d
 358.39 73.14 d 358.60 71.98 d 358.81 70.75 d 359.06 69.44 d 359.27 68.10 d 359.48 66.66 d 359.51 66.52 d 359.51 66.34 d 359.55 66.20 d 359.59 66.06 d 359.59 65.88 d 359.62 65.74 d 359.66 65.60 d 359.66 65.42 d 359.69 65.28 d 359.69 65.11 d
 359.73 64.97 d 359.76 64.79 d 359.76 64.65 d 359.80 64.47 d 359.83 64.33 d 359.83 64.16 d 359.87 63.98 d 359.87 63.84 d 359.90 63.66 d 359.94 63.49 d 359.94 63.37 d s 360.29 60.58 m 360.29 60.52 d 360.33 60.35 d 360.36 60.17 d
 360.36 60.00 d 360.40 59.78 d 360.40 59.61 d 360.43 59.43 d 360.47 59.22 d 360.47 59.19 d s 360.78 56.40 m 360.78 56.40 d 360.82 56.19 d 360.82 56.01 d 360.85 55.80 d 360.85 55.62 d 360.89 55.45 d 360.92 55.24 d 360.92 55.06 d
 360.96 54.88 d 361.00 54.67 d 361.00 54.50 d 361.03 54.32 d 361.03 54.14 d 361.07 53.97 d 361.10 53.79 d 361.10 53.58 d 361.14 53.40 d 361.17 53.26 d 361.17 53.09 d 361.21 52.91 d 361.21 52.73 d 361.24 52.56 d 361.28 52.42 d 361.28 52.24 d
 361.31 52.10 d 361.35 51.96 d 361.35 51.78 d 361.38 51.64 d 361.38 51.50 d 361.42 51.36 d 361.45 51.25 d 361.45 51.11 d 361.49 50.97 d 361.52 50.87 d 361.52 50.76 d 361.56 50.65 d 361.56 50.55 d 361.59 50.44 d 361.63 50.34 d 361.63 50.27 d
 361.67 50.16 d 361.70 50.09 d 361.70 50.06 d 361.70 50.02 d 361.70 49.98 d 361.74 49.98 d 361.74 49.95 d 361.74 49.91 d 361.74 49.88 d 361.77 49.88 d 361.77 49.84 d 361.77 49.81 d 361.81 49.81 d 361.81 49.77 d 361.81 49.74 d 361.84 49.74 d
 361.84 49.70 d 361.88 49.70 d 361.88 49.67 d 361.91 49.67 d 361.95 49.67 d 361.98 49.67 d 361.98 49.63 d 362.02 49.63 d 362.02 49.60 d 362.05 49.60 d 362.05 49.56 d 362.05 49.53 d 362.09 49.53 d 362.09 49.49 d 362.09 49.46 d 362.12 49.42 d
 362.12 49.39 d 362.16 49.35 d 362.16 49.31 d 362.16 49.28 d 362.16 49.24 d 362.19 49.21 d 362.19 49.17 d 362.19 49.14 d 362.19 49.10 d 362.23 49.07 d 362.23 49.03 d 362.23 49.00 d 362.23 48.96 d 362.23 48.93 d 362.26 48.89 d 362.26 48.86 d
 362.26 48.82 d 362.26 48.79 d 362.26 48.75 d 362.30 48.72 d 362.30 48.68 d 362.30 48.61 d 362.30 48.57 d 362.30 48.54 d 362.33 48.50 d 362.33 48.43 d 362.33 48.40 d 362.33 48.33 d 362.37 48.29 d 362.37 48.22 d 362.37 48.19 d 362.37 48.12 d
 362.37 48.08 d 362.41 48.01 d 362.41 47.98 d 362.41 47.90 d 362.41 47.83 d 362.41 47.76 d 362.44 47.73 d 362.44 47.66 d 362.44 47.59 d 362.44 47.52 d 362.44 47.45 d 362.48 47.38 d 362.48 47.31 d 362.48 47.24 d 362.48 47.16 d 362.48 47.06 d
 362.51 46.99 d 362.51 46.92 d 362.51 46.85 d 362.51 46.74 d 362.55 46.67 d 362.55 46.57 d 362.55 46.46 d 362.55 46.39 d 362.55 46.28 d 362.58 46.18 d 362.58 46.07 d 362.58 45.97 d 362.58 45.86 d 362.58 45.82 d 362.58 45.79 d
 s 1.0 1.0 1.0 setrgbcolor s 0.00 0.00 m 399.28 0.00 d 399.28 289.68 d 0.00 289.68 d 0.00 0.00 d
 s grestore
