%!PS-Adobe-2.0 EPSF-2.0
%%BoundingBox:      0          0        399        289
 /m {moveto} def /d {lineto} def /s {stroke newpath} def gsave newpath 1 setlinecap 1 setlinejoin
 s 0.0 0.0 0.0 setrgbcolor s 0.80  setlinewidth s 11.99 123.34 m 2.82 126.83 d 11.99 130.32 d 11.99 123.34 d s 11.99 139.48 m 11.99 139.06 d 11.56 138.64 d 10.68 138.18 d 7.19 137.33 d 6.31 136.88 d 5.89 136.45 d 5.89 135.57 d 6.31 134.69 d
 7.19 133.81 d 8.07 133.39 d 9.38 132.96 d 10.68 132.96 d 11.56 133.39 d 11.99 134.27 d 11.99 135.15 d 11.56 135.99 d 10.22 137.33 d 8.92 138.18 d 7.19 139.06 d 5.89 139.48 d s 10.61 141.25 m 9.59 142.23 d 9.59 143.22 d 10.61 144.21 d
 11.60 144.21 d 12.58 143.71 d 15.55 141.25 d 15.55 144.21 d s 9.59 150.17 m 15.55 150.17 d 11.60 150.17 d 11.60 152.17 d 12.58 153.16 d 15.55 153.16 d s 13.57 157.64 m 13.57 155.14 d 14.06 154.64 d 15.05 154.64 d 15.55 155.14 d
 15.55 157.64 d 12.09 157.64 d 11.60 157.14 d 11.60 155.14 d s 11.60 162.08 m 11.60 160.11 d 12.58 159.12 d 14.56 159.12 d 15.55 160.11 d 15.55 162.08 d 9.59 162.08 d s 1.0 0.0 0.0 setrgbcolor s 0.47  setlinewidth s 308.08 237.94 m
 313.74 237.94 d s 319.38 237.94 m 325.02 237.94 d s 330.66 237.94 m 336.29 237.94 d s 0.0 0.0 0.0 setrgbcolor s 0.80  setlinewidth s 57.11 37.72 m 68.84 37.72 d 68.84 34.90 d s 49.00 25.73 m 52.06 25.73 d s 56.65 27.25 m 58.94 30.32 d
 58.94 21.15 d s 61.97 28.80 m 63.52 30.32 d 65.04 30.32 d 66.55 28.80 d 66.55 27.25 d 65.81 25.73 d 61.97 21.15 d 66.55 21.15 d s 71.13 21.15 m 72.69 21.93 d 73.43 24.22 d 73.43 27.25 d 72.69 29.54 d 71.13 30.32 d 69.62 29.54 d
 68.84 27.25 d 68.84 24.22 d 69.62 21.93 d 71.13 21.15 d s 78.01 21.15 m 77.27 21.15 d 77.27 21.93 d 78.01 21.93 d 78.01 21.15 d s 84.88 21.15 m 86.43 21.93 d 87.17 24.22 d 87.17 27.25 d 86.43 29.54 d 84.88 30.32 d 83.37 29.54 d
 82.59 27.25 d 82.59 24.22 d 83.37 21.93 d 84.88 21.15 d s 68.84 34.90 m 68.84 37.72 d 93.27 37.72 d 93.27 34.90 d 93.27 37.72 d 117.70 37.72 d 117.70 34.90 d s 117.70 34.90 m 117.70 37.72 d 142.13 37.72 d 142.13 34.90 d 142.13 37.72 d
 166.56 37.72 d 166.56 34.90 d s 150.13 25.73 m 153.20 25.73 d s 157.78 25.73 m 156.23 27.25 d 156.23 28.80 d 157.78 30.32 d 159.29 30.32 d 160.81 28.80 d 160.81 27.25 d 159.29 25.73 d 157.78 25.73 d 156.23 24.22 d 156.23 22.67 d
 157.78 21.15 d 159.29 21.15 d 160.81 22.67 d 160.81 24.22 d 159.29 25.73 d s 165.39 21.15 m 166.94 21.93 d 167.68 24.22 d 167.68 27.25 d 166.94 29.54 d 165.39 30.32 d 163.88 29.54 d 163.10 27.25 d 163.10 24.22 d 163.88 21.93 d
 165.39 21.15 d s 172.27 21.15 m 171.53 21.15 d 171.53 21.93 d 172.27 21.93 d 172.27 21.15 d s 179.14 21.15 m 180.69 21.93 d 181.43 24.22 d 181.43 27.25 d 180.69 29.54 d 179.14 30.32 d 177.62 29.54 d 176.85 27.25 d 176.85 24.22 d
 177.62 21.93 d 179.14 21.15 d s 166.56 34.90 m 166.56 37.72 d 190.98 37.72 d 190.98 34.90 d 190.98 37.72 d 215.38 37.72 d 215.38 34.90 d s 198.99 25.73 m 202.02 25.73 d s 205.86 25.73 m 208.15 25.73 d 209.67 24.22 d 209.67 22.67 d
 208.15 21.15 d 206.60 21.15 d 205.08 22.67 d 205.08 24.22 d 205.86 25.73 d 208.89 30.32 d s 214.25 21.15 m 215.77 21.93 d 216.54 24.22 d 216.54 27.25 d 215.77 29.54 d 214.25 30.32 d 212.73 29.54 d 211.96 27.25 d 211.96 24.22 d
 212.73 21.93 d 214.25 21.15 d s 221.12 21.15 m 220.35 21.15 d 220.35 21.93 d 221.12 21.93 d 221.12 21.15 d s 228.00 21.15 m 229.51 21.93 d 230.29 24.22 d 230.29 27.25 d 229.51 29.54 d 228.00 30.32 d 226.48 29.54 d 225.71 27.25 d
 225.71 24.22 d 226.48 21.93 d 228.00 21.15 d s 215.38 34.90 m 215.38 37.72 d 239.81 37.72 d 239.81 34.90 d 239.81 37.72 d 264.23 37.72 d 264.23 34.90 d s 247.81 25.73 m 250.87 25.73 d s 256.23 30.32 m 253.94 23.44 d 258.52 23.44 d
 256.97 23.44 d 256.97 25.73 d 256.97 21.15 d s 263.11 21.15 m 264.62 21.93 d 265.40 24.22 d 265.40 27.25 d 264.62 29.54 d 263.11 30.32 d 261.56 29.54 d 260.81 27.25 d 260.81 24.22 d 261.56 21.93 d 263.11 21.15 d s 269.98 21.15 m
 269.20 21.15 d 269.20 21.93 d 269.98 21.93 d 269.98 21.15 d s 276.85 21.15 m 278.37 21.93 d 279.14 24.22 d 279.14 27.25 d 278.37 29.54 d 276.85 30.32 d 275.30 29.54 d 274.56 27.25 d 274.56 24.22 d 275.30 21.93 d 276.85 21.15 d
 s 264.23 34.90 m 264.23 37.72 d 288.66 37.72 d 288.66 34.90 d 288.66 37.72 d 313.09 37.72 d 313.09 34.90 d s 296.66 25.73 m 299.73 25.73 d s 302.76 28.80 m 304.31 30.32 d 305.83 30.32 d 307.34 28.80 d 307.34 27.25 d 306.60 25.73 d
 302.76 21.15 d 307.34 21.15 d s 311.93 21.15 m 313.48 21.93 d 314.22 24.22 d 314.22 27.25 d 313.48 29.54 d 311.93 30.32 d 310.41 29.54 d 309.64 27.25 d 309.64 24.22 d 310.41 21.93 d 311.93 21.15 d s 318.80 21.15 m 318.06 21.15 d
 318.06 21.93 d 318.80 21.93 d 318.80 21.15 d s 325.67 21.15 m 327.23 21.93 d 327.97 24.22 d 327.97 27.25 d 327.23 29.54 d 325.67 30.32 d 324.16 29.54 d 323.38 27.25 d 323.38 24.22 d 324.16 21.93 d 325.67 21.15 d s 313.09 34.90 m
 313.09 37.72 d 337.52 37.72 d 337.52 34.90 d 337.52 37.72 d 361.91 37.72 d 361.91 34.90 d s 353.91 21.15 m 355.43 21.93 d 356.20 24.22 d 356.20 27.25 d 355.43 29.54 d 353.91 30.32 d 352.39 29.54 d 351.62 27.25 d 351.62 24.22 d
 352.39 21.93 d 353.91 21.15 d s 360.78 21.15 m 360.01 21.15 d 360.01 21.93 d 360.78 21.93 d 360.78 21.15 d s 367.66 21.15 m 369.17 21.93 d 369.95 24.22 d 369.95 27.25 d 369.17 29.54 d 367.66 30.32 d 366.14 29.54 d 365.37 27.25 d
 365.37 24.22 d 366.14 21.93 d 367.66 21.15 d s 361.91 34.90 m 361.91 37.72 d 374.36 37.72 d s 195.11 2.82 m 190.53 2.82 d 190.53 11.99 d 195.11 11.99 d 190.53 11.99 d 190.53 7.40 d 192.82 7.40 d s 208.08 11.99 m 207.34 11.21 d
 206.57 8.92 d 206.57 5.89 d 207.34 3.60 d 208.08 2.82 d s 216.51 11.99 m 212.66 11.99 d 211.15 10.47 d 211.15 4.34 d 212.66 2.82 d 216.51 2.82 d 216.51 7.40 d 214.21 7.40 d s 218.80 5.89 m 223.38 5.89 d 223.38 7.40 d 221.83 8.92 d
 220.31 8.92 d 218.80 7.40 d 218.80 4.34 d 220.31 2.82 d 223.38 2.82 d s 225.67 11.99 m 228.70 2.82 d 231.77 11.99 d s 235.58 11.99 m 236.35 11.21 d 237.13 8.92 d 237.13 5.89 d 236.35 3.60 d 235.58 2.82 d s 57.11 249.22 m 68.84 249.22 d
 68.84 252.04 d s 68.84 252.04 m 68.84 249.22 d 93.27 249.22 d 93.27 252.04 d 93.27 249.22 d 117.70 249.22 d 117.70 252.04 d s 117.70 252.04 m 117.70 249.22 d 142.13 249.22 d 142.13 252.04 d 142.13 249.22 d 166.56 249.22 d 166.56 252.04 d
 s 166.56 252.04 m 166.56 249.22 d 190.98 249.22 d 190.98 252.04 d 190.98 249.22 d 215.38 249.22 d 215.38 252.04 d s 215.38 252.04 m 215.38 249.22 d 239.81 249.22 d 239.81 252.04 d 239.81 249.22 d 264.23 249.22 d 264.23 252.04 d
 s 264.23 252.04 m 264.23 249.22 d 288.66 249.22 d 288.66 252.04 d 288.66 249.22 d 313.09 249.22 d 313.09 252.04 d s 313.09 252.04 m 313.09 249.22 d 337.52 249.22 d 337.52 252.04 d 337.52 249.22 d 361.91 249.22 d 361.91 252.04 d
 s 361.91 252.04 m 361.91 249.22 d 374.36 249.22 d s 57.11 37.72 m 57.11 40.54 d 55.55 40.54 d 57.11 40.54 d 57.11 45.12 d 55.55 45.12 d 57.11 45.12 d 57.11 49.70 d 55.55 49.70 d 54.29 49.70 d s 27.67 45.12 m 29.19 45.90 d 29.96 48.19 d
 29.96 51.22 d 29.19 53.51 d 27.67 54.29 d 26.16 53.51 d 25.38 51.22 d 25.38 48.19 d 26.16 45.90 d 27.67 45.12 d s 34.55 45.12 m 33.77 45.12 d 33.77 45.90 d 34.55 45.90 d 34.55 45.12 d s 41.42 45.12 m 42.93 45.90 d 43.71 48.19 d
 43.71 51.22 d 42.93 53.51 d 41.42 54.29 d 39.90 53.51 d 39.13 51.22 d 39.13 48.19 d 39.90 45.90 d 41.42 45.12 d s 48.29 45.12 m 49.81 45.90 d 50.58 48.19 d 50.58 51.22 d 49.81 53.51 d 48.29 54.29 d 46.78 53.51 d 46.00 51.22 d 46.00 48.19 d
 46.78 45.90 d 48.29 45.12 d s 54.29 49.70 m 57.11 49.70 d 57.11 54.29 d 55.55 54.29 d 57.11 54.29 d 57.11 58.87 d 55.55 58.87 d 57.11 58.87 d 57.11 63.45 d 55.55 63.45 d 57.11 63.45 d 57.11 68.03 d 55.55 68.03 d 54.29 68.03 d
 s 27.67 63.45 m 29.19 64.23 d 29.96 66.52 d 29.96 69.55 d 29.19 71.84 d 27.67 72.62 d 26.16 71.84 d 25.38 69.55 d 25.38 66.52 d 26.16 64.23 d 27.67 63.45 d s 34.55 63.45 m 33.77 63.45 d 33.77 64.23 d 34.55 64.23 d 34.55 63.45 d
 s 39.13 72.62 m 43.71 72.62 d 39.13 63.45 d 41.42 68.03 d 40.64 68.03 d 42.19 68.03 d s 46.78 63.45 m 49.81 68.03 d 50.58 69.55 d 50.58 71.10 d 49.07 72.62 d 47.52 72.62 d 46.00 71.10 d 46.00 69.55 d 47.52 68.03 d 49.81 68.03 d
 s 54.29 68.03 m 57.11 68.03 d 57.11 72.62 d 55.55 72.62 d 57.11 72.62 d 57.11 77.20 d 55.55 77.20 d 57.11 77.20 d 57.11 81.78 d 55.55 81.78 d 57.11 81.78 d 57.11 86.36 d 55.55 86.36 d 54.29 86.36 d s 26.90 87.88 m 29.19 90.95 d
 29.19 81.78 d s 34.55 81.78 m 33.77 81.78 d 33.77 82.56 d 34.55 82.56 d 34.55 81.78 d s 39.13 81.78 m 42.19 81.78 d 43.71 83.30 d 43.71 84.85 d 42.19 86.36 d 39.13 86.36 d 39.13 90.95 d 43.71 90.95 d s 47.52 86.36 m 46.00 87.88 d
 46.00 89.43 d 47.52 90.95 d 49.07 90.95 d 50.58 89.43 d 50.58 87.88 d 49.07 86.36 d 47.52 86.36 d 46.00 84.85 d 46.00 83.30 d 47.52 81.78 d 49.07 81.78 d 50.58 83.30 d 50.58 84.85 d 49.07 86.36 d s 54.29 86.36 m 57.11 86.36 d 57.11 90.95 d
 55.55 90.95 d 57.11 90.95 d 57.11 95.53 d 55.55 95.53 d 57.11 95.53 d 57.11 100.11 d 55.55 100.11 d 57.11 100.11 d 57.11 104.69 d 55.55 104.69 d 54.29 104.69 d s 25.38 107.76 m 26.90 109.28 d 28.45 109.28 d 29.96 107.76 d 29.96 106.21 d
 29.19 104.69 d 25.38 100.11 d 29.96 100.11 d s 34.55 100.11 m 33.77 100.11 d 33.77 100.89 d 34.55 100.89 d 34.55 100.11 d s 39.13 109.28 m 42.19 109.28 d 43.71 107.76 d 43.71 106.21 d 42.19 104.69 d 40.64 104.69 d 42.19 104.69 d
 43.71 103.18 d 43.71 101.63 d 42.19 100.11 d 39.13 100.11 d s 47.52 104.69 m 46.00 106.21 d 46.00 107.76 d 47.52 109.28 d 49.07 109.28 d 50.58 107.76 d 50.58 106.21 d 49.07 104.69 d 47.52 104.69 d 46.00 103.18 d 46.00 101.63 d
 47.52 100.11 d 49.07 100.11 d 50.58 101.63 d 50.58 103.18 d 49.07 104.69 d s 54.29 104.69 m 57.11 104.69 d 57.11 109.28 d 55.55 109.28 d 57.11 109.28 d 57.11 113.86 d 55.55 113.86 d 57.11 113.86 d 57.11 118.44 d 55.55 118.44 d
 57.11 118.44 d 57.11 123.02 d 55.55 123.02 d 54.29 123.02 d s 25.38 127.61 m 28.45 127.61 d 29.96 126.09 d 29.96 124.54 d 28.45 123.02 d 26.90 123.02 d 28.45 123.02 d 29.96 121.51 d 29.96 119.96 d 28.45 118.44 d 25.38 118.44 d
 s 34.55 118.44 m 33.77 118.44 d 33.77 119.22 d 34.55 119.22 d 34.55 118.44 d s 40.64 124.54 m 42.93 127.61 d 42.93 118.44 d s 46.00 127.61 m 50.58 127.61 d 46.00 118.44 d 48.29 123.02 d 47.52 123.02 d 49.07 123.02 d s 54.29 123.02 m
 57.11 123.02 d 57.11 127.61 d 55.55 127.61 d 57.11 127.61 d 57.11 132.19 d 55.55 132.19 d 57.11 132.19 d 57.11 136.77 d 55.55 136.77 d 57.11 136.77 d 57.11 141.35 d 55.55 141.35 d 54.29 141.35 d s 25.38 145.94 m 28.45 145.94 d
 29.96 144.42 d 29.96 142.87 d 28.45 141.35 d 26.90 141.35 d 28.45 141.35 d 29.96 139.84 d 29.96 138.29 d 28.45 136.77 d 25.38 136.77 d s 34.55 136.77 m 33.77 136.77 d 33.77 137.55 d 34.55 137.55 d 34.55 136.77 d s 39.90 136.77 m
 42.93 141.35 d 43.71 142.87 d 43.71 144.42 d 42.19 145.94 d 40.64 145.94 d 39.13 144.42 d 39.13 142.87 d 40.64 141.35 d 42.93 141.35 d s 46.78 141.35 m 49.07 141.35 d 50.58 139.84 d 50.58 138.29 d 49.07 136.77 d 47.52 136.77 d
 46.00 138.29 d 46.00 139.84 d 46.78 141.35 d 49.81 145.94 d s 54.29 141.35 m 57.11 141.35 d 57.11 145.94 d 55.55 145.94 d 57.11 145.94 d 57.11 150.52 d 55.55 150.52 d 57.11 150.52 d 57.11 155.10 d 55.55 155.10 d 57.11 155.10 d
 57.11 159.68 d 55.55 159.68 d 54.29 159.68 d s 27.67 164.27 m 25.38 157.39 d 29.96 157.39 d 28.45 157.39 d 28.45 159.68 d 28.45 155.10 d s 34.55 155.10 m 33.77 155.10 d 33.77 155.88 d 34.55 155.88 d 34.55 155.10 d s 39.13 164.27 m
 43.71 164.27 d 39.13 155.10 d 41.42 159.68 d 40.64 159.68 d 42.19 159.68 d s 46.00 155.10 m 49.07 155.10 d 50.58 156.62 d 50.58 158.17 d 49.07 159.68 d 46.00 159.68 d 46.00 164.27 d 50.58 164.27 d s 54.29 159.68 m 57.11 159.68 d
 57.11 164.27 d 55.55 164.27 d 57.11 164.27 d 57.11 168.85 d 55.55 168.85 d 57.11 168.85 d 57.11 173.43 d 55.55 173.43 d 57.11 173.43 d 57.11 178.01 d 55.55 178.01 d 54.29 178.01 d s 25.38 173.43 m 28.45 173.43 d 29.96 174.95 d
 29.96 176.50 d 28.45 178.01 d 25.38 178.01 d 25.38 182.60 d 29.96 182.60 d s 34.55 173.43 m 33.77 173.43 d 33.77 174.21 d 34.55 174.21 d 34.55 173.43 d s 39.13 173.43 m 42.19 173.43 d 43.71 174.95 d 43.71 176.50 d 42.19 178.01 d
 39.13 178.01 d 39.13 182.60 d 43.71 182.60 d s 48.29 182.60 m 46.00 175.72 d 50.58 175.72 d 49.07 175.72 d 49.07 178.01 d 49.07 173.43 d s 54.29 178.01 m 57.11 178.01 d 57.11 182.60 d 55.55 182.60 d 57.11 182.60 d 57.11 187.18 d
 55.55 187.18 d 57.11 187.18 d 57.11 191.76 d 55.55 191.76 d 57.11 191.76 d 57.11 196.34 d 55.55 196.34 d 54.29 196.34 d s 26.16 196.34 m 28.45 196.34 d 29.96 194.83 d 29.96 193.28 d 28.45 191.76 d 26.90 191.76 d 25.38 193.28 d
 25.38 194.83 d 26.16 196.34 d 29.19 200.93 d s 34.55 191.76 m 33.77 191.76 d 33.77 192.54 d 34.55 192.54 d 34.55 191.76 d s 39.13 200.93 m 42.19 200.93 d 43.71 199.41 d 43.71 197.86 d 42.19 196.34 d 40.64 196.34 d 42.19 196.34 d
 43.71 194.83 d 43.71 193.28 d 42.19 191.76 d 39.13 191.76 d s 48.29 200.93 m 46.00 194.05 d 50.58 194.05 d 49.07 194.05 d 49.07 196.34 d 49.07 191.76 d s 54.29 196.34 m 57.11 196.34 d 57.11 200.93 d 55.55 200.93 d 57.11 200.93 d
 57.11 205.51 d 55.55 205.51 d 57.11 205.51 d 57.11 210.09 d 55.55 210.09 d 57.11 210.09 d 57.11 214.67 d 55.55 214.67 d 54.29 214.67 d s 25.38 219.26 m 29.96 219.26 d 25.38 210.09 d 27.67 214.67 d 26.90 214.67 d 28.45 214.67 d
 s 34.55 210.09 m 33.77 210.09 d 33.77 210.87 d 34.55 210.87 d 34.55 210.09 d s 40.64 216.19 m 42.93 219.26 d 42.93 210.09 d s 46.00 219.26 m 49.07 219.26 d 50.58 217.74 d 50.58 216.19 d s 50.58 216.19 m 49.07 214.67 d 47.52 214.67 d
 49.07 214.67 d 50.58 213.16 d 50.58 211.61 d 49.07 210.09 d 46.00 210.09 d s 54.29 214.67 m 57.11 214.67 d 57.11 219.26 d 55.55 219.26 d 57.11 219.26 d 57.11 223.84 d 55.55 223.84 d 57.11 223.84 d 57.11 228.42 d 55.55 228.42 d
 57.11 228.42 d 57.11 233.00 d 55.55 233.00 d 54.29 233.00 d s 25.38 237.58 m 29.96 237.58 d 25.38 228.42 d 27.67 233.00 d 26.90 233.00 d 28.45 233.00 d s 34.55 228.42 m 33.77 228.42 d 33.77 229.20 d 34.55 229.20 d 34.55 228.42 d
 s 39.90 228.42 m 42.93 233.00 d 43.71 234.52 d 43.71 236.07 d 42.19 237.58 d 40.64 237.58 d 39.13 236.07 d 39.13 234.52 d 40.64 233.00 d 42.93 233.00 d s 46.00 236.07 m 47.52 237.58 d 49.07 237.58 d 50.58 236.07 d 50.58 234.52 d
 49.81 233.00 d 46.00 228.42 d 50.58 228.42 d s 54.29 233.00 m 57.11 233.00 d 57.11 237.58 d 55.55 237.58 d 57.11 237.58 d 57.11 242.17 d 55.55 242.17 d 57.11 242.17 d 57.11 246.75 d 55.55 246.75 d 57.11 246.75 d 57.11 249.22 d
 s 33.03 276.71 m 36.06 276.71 d 34.55 276.71 d 34.55 275.20 d 34.55 278.23 d 34.55 276.71 d 33.03 278.23 d 36.06 275.20 d 34.55 276.71 d 33.03 275.20 d 36.06 278.23 d s 40.64 278.23 m 42.93 281.30 d 42.93 272.13 d s 48.29 272.13 m
 49.81 272.91 d 50.58 275.20 d 50.58 278.23 d 49.81 280.52 d 48.29 281.30 d 46.78 280.52 d 46.00 278.23 d 46.00 275.20 d 46.78 272.91 d 48.29 272.13 d s 53.33 281.30 m 55.17 281.30 d s 57.00 283.13 m 57.92 284.04 d 58.83 284.04 d
 59.75 283.13 d 59.75 282.21 d 59.29 281.30 d 57.00 278.55 d 59.75 278.55 d s 374.36 37.72 m 374.36 40.54 d 375.91 40.54 d 374.36 40.54 d 374.36 45.12 d 375.91 45.12 d 374.36 45.12 d 374.36 49.70 d 375.91 49.70 d 377.18 49.70 d
 s 377.18 49.70 m 374.36 49.70 d 374.36 54.29 d 375.91 54.29 d 374.36 54.29 d 374.36 58.87 d 375.91 58.87 d 374.36 58.87 d 374.36 63.45 d 375.91 63.45 d 374.36 63.45 d 374.36 68.03 d 375.91 68.03 d 377.18 68.03 d s 377.18 68.03 m
 374.36 68.03 d 374.36 72.62 d 375.91 72.62 d 374.36 72.62 d 374.36 77.20 d 375.91 77.20 d 374.36 77.20 d 374.36 81.78 d 375.91 81.78 d 374.36 81.78 d 374.36 86.36 d 375.91 86.36 d 377.18 86.36 d s 377.18 86.36 m 374.36 86.36 d
 374.36 90.95 d 375.91 90.95 d 374.36 90.95 d 374.36 95.53 d 375.91 95.53 d 374.36 95.53 d 374.36 100.11 d 375.91 100.11 d 374.36 100.11 d 374.36 104.69 d 375.91 104.69 d 377.18 104.69 d s 377.18 104.69 m 374.36 104.69 d 374.36 109.28 d
 375.91 109.28 d 374.36 109.28 d 374.36 113.86 d 375.91 113.86 d 374.36 113.86 d 374.36 118.44 d 375.91 118.44 d 374.36 118.44 d 374.36 123.02 d 375.91 123.02 d 377.18 123.02 d s 377.18 123.02 m 374.36 123.02 d 374.36 127.61 d
 375.91 127.61 d 374.36 127.61 d 374.36 132.19 d 375.91 132.19 d 374.36 132.19 d 374.36 136.77 d 375.91 136.77 d 374.36 136.77 d 374.36 141.35 d 375.91 141.35 d 377.18 141.35 d s 377.18 141.35 m 374.36 141.35 d 374.36 145.94 d
 375.91 145.94 d 374.36 145.94 d 374.36 150.52 d 375.91 150.52 d 374.36 150.52 d 374.36 155.10 d 375.91 155.10 d 374.36 155.10 d 374.36 159.68 d 375.91 159.68 d 377.18 159.68 d s 377.18 159.68 m 374.36 159.68 d 374.36 164.27 d
 375.91 164.27 d 374.36 164.27 d 374.36 168.85 d 375.91 168.85 d 374.36 168.85 d 374.36 173.43 d 375.91 173.43 d 374.36 173.43 d 374.36 178.01 d 375.91 178.01 d 377.18 178.01 d s 377.18 178.01 m 374.36 178.01 d 374.36 182.60 d
 375.91 182.60 d 374.36 182.60 d 374.36 187.18 d 375.91 187.18 d 374.36 187.18 d 374.36 191.76 d 375.91 191.76 d 374.36 191.76 d 374.36 196.34 d 375.91 196.34 d 377.18 196.34 d s 377.18 196.34 m 374.36 196.34 d 374.36 200.93 d
 375.91 200.93 d 374.36 200.93 d 374.36 205.51 d 375.91 205.51 d 374.36 205.51 d 374.36 210.09 d 375.91 210.09 d 374.36 210.09 d 374.36 214.67 d 375.91 214.67 d 377.18 214.67 d s 377.18 214.67 m 374.36 214.67 d 374.36 219.26 d
 375.91 219.26 d 374.36 219.26 d 374.36 223.84 d 375.91 223.84 d 374.36 223.84 d 374.36 228.42 d 375.91 228.42 d 374.36 228.42 d 374.36 233.00 d 375.91 233.00 d 377.18 233.00 d s 377.18 233.00 m 374.36 233.00 d 374.36 237.58 d
 375.91 237.58 d 374.36 237.58 d 374.36 242.17 d 375.91 242.17 d 374.36 242.17 d 374.36 246.75 d 375.91 246.75 d 374.36 246.75 d 374.36 249.22 d s 1.0 0.0 0.0 setrgbcolor s 0.47  setlinewidth s 350.39 235.12 m 350.39 238.89 d
 352.25 238.89 d 353.21 237.94 d 353.21 235.12 d s 356.03 240.76 m 355.57 240.76 d 355.07 240.30 d 355.07 235.12 d 355.07 238.89 d 354.62 238.89 d 356.03 238.89 d s 357.44 237.48 m 360.26 237.48 d s 360.26 238.40 m 357.44 238.40 d
 s 361.67 239.81 m 362.62 240.76 d 363.53 240.76 d 364.49 239.81 d 364.49 238.89 d 364.03 237.94 d 361.67 235.12 d 364.49 235.12 d s 68.84 83.19 m 74.50 83.08 d s 80.14 82.96 m 85.77 82.85 d s 91.41 82.73 m 93.27 82.70 d 97.05 82.61 d
 s 102.69 82.49 m 108.33 82.37 d s 113.97 82.25 m 117.70 82.17 d 119.61 82.14 d s 125.25 82.02 m 127.46 81.96 d 129.90 81.89 d 130.88 81.87 d s 136.52 81.73 m 137.23 81.71 d 139.70 81.64 d 142.13 81.60 d 142.16 81.60 d s 147.80 81.44 m
 149.46 81.39 d 151.89 81.36 d 153.44 81.31 d s 159.07 81.15 m 159.22 81.15 d 161.66 81.08 d 164.09 81.00 d 164.71 80.99 d s 170.35 80.82 m 171.42 80.79 d 173.89 80.72 d 175.99 80.66 d s 181.62 80.50 m 183.65 80.44 d 186.08 80.33 d
 187.26 80.30 d s 192.90 80.14 m 193.42 80.12 d 195.85 80.02 d 198.28 79.95 d 198.53 79.94 d s 204.17 79.74 m 205.61 79.70 d 208.08 79.59 d 209.81 79.54 d s 215.44 79.31 m 217.85 79.24 d 220.28 79.14 d 221.08 79.10 d s 226.71 78.88 m
 227.61 78.85 d 230.04 78.75 d 232.35 78.65 d s 237.98 78.40 m 239.81 78.29 d 242.27 78.18 d 243.62 78.13 d s 249.25 77.85 m 249.57 77.83 d 252.04 77.73 d 254.47 77.59 d 254.88 77.56 d s 260.51 77.27 m 261.80 77.20 d 264.23 77.06 d
 266.14 76.95 d s 271.77 76.59 m 274.00 76.46 d 276.47 76.32 d 277.40 76.25 d s 283.03 75.84 m 283.76 75.79 d 286.23 75.61 d 288.65 75.44 d s 294.28 74.99 m 295.99 74.84 d 298.43 74.62 d 299.89 74.50 d s 305.51 73.94 m 305.76 73.92 d
 308.19 73.67 d 310.66 73.43 d 311.12 73.37 d s 316.72 72.71 m 317.96 72.54 d 320.42 72.23 d 322.31 71.95 d s 327.88 71.11 m 330.19 70.71 d 332.62 70.25 d 333.43 70.09 d s 338.93 68.86 m 339.03 68.84 d 339.28 68.77 d 339.49 68.74 d
 339.70 68.67 d 339.92 68.63 d 340.13 68.56 d 340.37 68.49 d 340.59 68.46 d 340.80 68.39 d 341.01 68.31 d 341.26 68.28 d 341.47 68.21 d 341.68 68.14 d 341.89 68.07 d 342.14 68.03 d 342.35 67.96 d 342.56 67.89 d 342.77 67.82 d 343.02 67.75 d
 343.23 67.68 d 343.44 67.61 d 343.65 67.57 d 343.86 67.50 d 344.11 67.43 d 344.32 67.36 d 344.35 67.35 d s 349.60 65.32 m 349.61 65.32 d 349.82 65.21 d 350.03 65.11 d 350.24 65.00 d 350.49 64.90 d 350.70 64.79 d 350.91 64.68 d
 351.13 64.58 d 351.34 64.44 d 351.58 64.33 d 351.80 64.23 d 352.01 64.08 d 352.22 63.94 d 352.46 63.84 d 352.68 63.70 d 352.89 63.56 d 353.10 63.41 d 353.35 63.27 d 353.56 63.13 d 353.77 62.99 d 353.98 62.82 d 354.23 62.67 d 354.44 62.50 d
 354.45 62.49 d s 358.29 58.40 m 358.39 58.23 d 358.60 57.88 d 358.81 57.49 d 359.06 57.07 d 359.27 56.61 d 359.48 56.12 d 359.51 56.05 d 359.51 56.01 d 359.55 55.98 d 359.59 55.91 d 359.59 55.87 d 359.62 55.80 d 359.66 55.77 d
 359.66 55.70 d 359.69 55.62 d 359.69 55.59 d 359.73 55.52 d 359.76 55.48 d 359.76 55.41 d 359.80 55.38 d 359.83 55.31 d 359.83 55.24 d 359.87 55.20 d 359.87 55.13 d 359.90 55.06 d 359.94 55.03 d 359.94 54.95 d 359.97 54.88 d 360.01 54.85 d
 360.01 54.78 d 360.04 54.71 d 360.04 54.64 d 360.08 54.60 d 360.11 54.53 d 360.11 54.46 d 360.15 54.39 d 360.18 54.32 d 360.18 54.29 d 360.22 54.21 d 360.22 54.14 d 360.26 54.07 d 360.29 54.00 d 360.29 53.93 d 360.33 53.86 d 360.36 53.79 d
 360.36 53.72 d 360.40 53.65 d 360.40 53.58 d 360.43 53.51 d 360.47 53.47 d 360.47 53.40 d 360.49 53.35 d s 362.48 48.70 m 362.48 48.68 d 362.48 48.65 d 362.48 48.61 d 362.51 48.57 d 362.51 48.54 d 362.51 48.50 d 362.51 48.47 d
 362.55 48.43 d 362.55 48.40 d 362.55 48.36 d 362.55 48.33 d 362.55 48.29 d 362.58 48.22 d 362.58 48.19 d 362.58 48.15 d 362.58 48.08 d 362.58 48.05 d 362.62 47.98 d s 0.0 0.0 1.0 setrgbcolor s 308.08 221.02 m 309.51 221.02 d
 s 313.74 221.02 m 315.15 221.02 d s 319.38 221.02 m 320.79 221.02 d s 325.02 221.02 m 326.43 221.02 d s 330.66 221.02 m 332.07 221.02 d s 350.39 218.20 m 350.39 221.97 d 352.25 221.97 d 353.21 221.02 d 353.21 218.20 d s 356.03 223.84 m
 355.57 223.84 d 355.07 223.38 d 355.07 218.20 d 355.07 221.97 d 354.62 221.97 d 356.03 221.97 d s 357.44 220.56 m 360.26 220.56 d s 360.26 221.48 m 357.44 221.48 d s 361.67 223.84 m 363.53 223.84 d 364.49 222.89 d 364.49 221.97 d
 363.53 221.02 d 362.62 221.02 d 363.53 221.02 d 364.49 220.07 d 364.49 219.15 d 363.53 218.20 d 361.67 218.20 d s 68.84 142.09 m 70.27 142.01 d s 74.49 141.78 m 75.90 141.70 d s 80.12 141.46 m 81.53 141.38 d s 85.75 141.14 m 87.16 141.06 d
 s 91.38 140.82 m 92.79 140.75 d s 97.01 140.48 m 98.42 140.39 d s 102.64 140.12 m 104.05 140.03 d s 108.27 139.77 m 109.68 139.68 d s 113.90 139.41 m 115.30 139.32 d s 119.53 139.06 m 120.13 139.03 d 120.93 138.97 d s 125.15 138.70 m
 126.56 138.60 d s 130.78 138.29 m 132.19 138.19 d s 136.41 137.89 m 137.23 137.83 d 137.81 137.79 d s 142.03 137.48 m 142.13 137.48 d 143.44 137.38 d s 147.66 137.08 m 149.06 136.97 d s 153.28 136.65 m 154.32 136.56 d 154.68 136.53 d
 s 158.90 136.23 m 159.22 136.21 d 160.31 136.11 d s 164.52 135.75 m 165.93 135.65 d s 170.14 135.29 m 171.42 135.18 d 171.55 135.17 d s 175.76 134.81 m 176.32 134.76 d 177.17 134.69 d s 181.38 134.32 m 182.79 134.20 d s 187.00 133.82 m
 188.40 133.68 d s 192.62 133.29 m 193.42 133.21 d 194.02 133.15 d s 198.23 132.76 m 198.28 132.75 d 199.63 132.62 d s 203.84 132.19 m 205.24 132.05 d s 209.45 131.61 m 210.51 131.48 d 210.85 131.45 d s 215.06 130.99 m 215.38 130.95 d
 216.46 130.85 d s 220.66 130.38 m 222.06 130.22 d s 226.26 129.72 m 227.61 129.54 d 227.66 129.54 d s 231.86 129.02 m 232.47 128.94 d 233.26 128.85 d s 237.46 128.33 m 238.86 128.15 d s 243.05 127.57 m 244.45 127.39 d s 248.64 126.81 m
 249.57 126.69 d 250.03 126.62 d s 254.21 125.99 m 254.47 125.95 d 255.61 125.78 d s 259.79 125.14 m 261.18 124.92 d s 265.35 124.22 m 266.67 124.01 d 266.75 124.00 d s 270.92 123.28 m 271.57 123.16 d 272.30 123.02 d s 276.46 122.25 m
 276.47 122.25 d 277.85 121.99 d s 281.99 121.16 m 283.38 120.88 d s 287.51 119.99 m 288.66 119.74 d 288.89 119.69 d s 293.01 118.75 m 293.56 118.62 d 294.39 118.43 d s 298.49 117.40 m 299.85 117.05 d s 303.94 115.95 m 305.30 115.57 d
 s 309.35 114.36 m 310.66 113.96 d 310.70 113.95 d s 314.71 112.61 m 315.52 112.34 d 316.04 112.15 d s 320.01 110.67 m 320.42 110.51 d 321.32 110.15 d s 325.22 108.53 m 325.29 108.50 d 326.50 107.94 d s 330.30 106.08 m 331.55 105.43 d
 s 335.22 103.32 m 336.41 102.57 d s 339.90 100.19 m 339.92 100.18 d 340.13 100.04 d 340.37 99.86 d 340.59 99.69 d 340.80 99.51 d 341.01 99.37 d 341.04 99.35 d s 344.27 96.63 m 344.32 96.59 d 344.53 96.37 d 344.75 96.16 d 344.99 95.95 d
 345.20 95.74 d 345.29 95.66 d s 348.17 92.57 m 348.27 92.46 d 348.48 92.18 d 348.73 91.93 d 348.94 91.65 d 349.06 91.49 d s 351.55 88.07 m 351.58 88.02 d 351.80 87.67 d 352.01 87.35 d 352.22 86.96 d 352.28 86.87 d s 354.33 83.17 m
 354.44 82.94 d 354.65 82.45 d 354.86 81.99 d 354.91 81.88 d s 356.49 77.96 m 356.62 77.55 d 356.84 76.88 d 356.93 76.62 d s 358.11 72.56 m 358.18 72.30 d 358.39 71.38 d 358.43 71.19 d s 359.27 67.05 m 359.48 65.78 d 359.51 65.65 d
 s 360.11 61.50 m 360.11 61.48 d 360.15 61.34 d 360.18 61.16 d 360.18 60.98 d 360.22 60.84 d 360.22 60.67 d 360.26 60.49 d 360.29 60.31 d 360.29 60.17 d 360.30 60.11 d s 360.82 55.93 m 360.82 55.87 d 360.85 55.66 d 360.85 55.48 d
 360.89 55.31 d 360.92 55.13 d 360.92 54.95 d 360.96 54.78 d 361.00 54.60 d 361.00 54.54 d s 361.61 50.38 m 361.63 50.34 d 361.63 50.27 d 361.67 50.20 d 361.70 50.13 d 361.70 50.09 d 361.70 50.06 d 361.70 50.02 d 361.74 50.02 d
 361.74 49.98 d 361.74 49.95 d 361.74 49.91 d 361.77 49.91 d 361.77 49.88 d 361.77 49.84 d 361.81 49.84 d 361.81 49.81 d 361.81 49.77 d 361.84 49.77 d 361.84 49.74 d 361.88 49.74 d 361.88 49.70 d 361.91 49.70 d 361.95 49.70 d 361.98 49.70 d
 361.98 49.67 d 362.02 49.67 d 362.02 49.63 d 362.05 49.60 d 362.05 49.56 d 362.09 49.56 d 362.09 49.53 d 362.09 49.49 d 362.12 49.46 d 362.12 49.42 d 362.12 49.39 d s 1.0 0.0 1.0 setrgbcolor s 0.16  setlinewidth s 308.08 204.10 m
 313.74 204.10 d s 319.38 204.10 m 325.02 204.10 d s 330.66 204.10 m 336.29 204.10 d s 350.39 201.28 m 350.39 205.05 d 352.25 205.05 d 353.21 204.10 d 353.21 201.28 d s 356.03 206.92 m 355.57 206.92 d 355.07 206.46 d 355.07 201.28 d
 355.07 205.05 d 354.62 205.05 d 356.03 205.05 d s 357.44 203.64 m 360.26 203.64 d s 360.26 204.56 m 357.44 204.56 d s 363.08 206.92 m 361.67 202.69 d 364.49 202.69 d 363.53 202.69 d 363.53 204.10 d 363.53 201.28 d s 68.84 173.96 m
 74.48 173.48 d s 80.10 173.00 m 85.72 172.52 d s 91.34 172.04 m 93.27 171.88 d 96.95 171.53 d s 102.57 171.01 m 108.18 170.48 d s 113.80 169.95 m 117.70 169.59 d 119.41 169.41 d s 125.02 168.85 m 125.03 168.85 d 127.46 168.60 d
 129.90 168.35 d 130.64 168.28 d s 136.24 167.68 m 137.23 167.58 d 139.70 167.30 d 141.85 167.08 d s 147.46 166.47 m 149.46 166.24 d 151.89 165.96 d 153.06 165.82 d s 158.66 165.18 m 159.22 165.11 d 161.66 164.79 d 164.09 164.51 d
 164.26 164.49 d s 169.86 163.80 m 171.42 163.60 d 173.89 163.28 d 175.45 163.07 d s 181.05 162.34 m 181.19 162.33 d 183.65 162.01 d 186.08 161.66 d 186.63 161.58 d s 192.22 160.81 m 193.42 160.63 d 195.85 160.28 d 197.80 160.00 d
 s 203.38 159.16 m 205.61 158.80 d 208.08 158.45 d 208.95 158.31 d s 214.52 157.39 m 215.38 157.25 d 217.85 156.86 d 220.08 156.47 d s 225.64 155.51 m 227.61 155.14 d 230.04 154.71 d 231.19 154.50 d s 236.73 153.46 m 237.37 153.34 d
 239.81 152.84 d 242.26 152.35 d s 247.78 151.20 m 249.57 150.83 d 252.04 150.27 d 253.29 150.00 d s 258.79 148.75 m 259.37 148.61 d 261.80 148.01 d 264.23 147.42 d 264.27 147.41 d s 269.74 146.02 m 271.57 145.55 d 274.00 144.88 d
 275.18 144.54 d s 280.60 142.97 m 281.33 142.76 d 283.76 142.02 d 285.99 141.32 d s 291.34 139.54 m 293.56 138.78 d 295.99 137.86 d 296.64 137.62 d s 301.90 135.58 m 303.33 135.01 d 305.76 133.99 d 307.10 133.38 d s 312.21 131.00 m
 313.09 130.57 d 315.52 129.33 d 317.21 128.40 d s 322.10 125.60 m 322.85 125.14 d 325.29 123.59 d 326.83 122.52 d s 331.36 119.16 m 332.62 118.16 d 335.05 116.04 d 335.64 115.49 d s 339.65 111.53 m 339.70 111.46 d 339.92 111.21 d
 340.13 110.97 d 340.37 110.72 d 340.59 110.47 d 340.80 110.23 d 341.01 109.98 d 341.26 109.73 d 341.47 109.49 d 341.68 109.20 d 341.89 108.96 d 342.14 108.68 d 342.35 108.43 d 342.56 108.15 d 342.77 107.90 d 343.02 107.62 d 343.23 107.34 d
 343.30 107.24 d s 346.58 102.65 m 346.75 102.40 d 346.97 102.05 d 347.18 101.73 d 347.39 101.38 d 347.60 100.99 d 347.85 100.64 d 348.06 100.29 d 348.27 99.90 d 348.48 99.55 d 348.73 99.16 d 348.94 98.77 d 349.15 98.38 d 349.36 97.99 d
 349.47 97.81 d s 351.97 92.76 m 352.01 92.67 d 352.22 92.18 d 352.46 91.69 d 352.68 91.16 d 352.89 90.63 d 353.10 90.10 d 353.35 89.57 d 353.56 89.01 d 353.77 88.44 d 353.98 87.88 d 354.12 87.55 d s 355.91 82.21 m 355.95 82.06 d
 356.20 81.36 d 356.41 80.58 d 356.62 79.81 d 356.84 79.03 d 357.08 78.18 d 357.29 77.34 d 357.43 76.78 d s 358.63 71.27 m 358.81 70.25 d 359.06 69.05 d 359.27 67.75 d 359.48 66.38 d 359.51 66.20 d 359.51 66.06 d 359.55 65.92 d
 359.59 65.78 d 359.59 65.71 d s 360.34 60.15 m 360.36 60.07 d 360.36 59.89 d 360.40 59.71 d 360.40 59.54 d 360.43 59.33 d 360.47 59.15 d 360.47 58.97 d 360.50 58.80 d 360.50 58.62 d 360.54 58.41 d 360.57 58.23 d 360.57 58.06 d
 360.61 57.85 d 360.64 57.67 d 360.64 57.49 d 360.68 57.32 d 360.68 57.11 d 360.71 56.93 d 360.75 56.72 d 360.75 56.54 d 360.78 56.36 d 360.82 56.15 d 360.82 55.98 d 360.85 55.80 d 360.85 55.59 d 360.89 55.41 d 360.92 55.24 d 360.92 55.06 d
 360.96 54.85 d 361.00 54.67 d 361.00 54.58 d s 362.12 49.42 m 362.12 49.39 d 362.16 49.39 d 362.16 49.35 d 362.16 49.31 d 362.16 49.28 d 362.19 49.24 d 362.19 49.21 d 362.19 49.17 d 362.19 49.14 d 362.23 49.10 d 362.23 49.07 d
 362.23 49.03 d 362.23 49.00 d 362.23 48.96 d 362.26 48.93 d 362.26 48.89 d 362.26 48.86 d 362.26 48.82 d 362.26 48.79 d 362.30 48.72 d 362.30 48.68 d 362.30 48.65 d 362.30 48.61 d 362.30 48.54 d 362.33 48.50 d 362.33 48.47 d 362.33 48.40 d
 362.33 48.36 d 362.37 48.33 d 362.37 48.26 d 362.37 48.22 d 362.37 48.15 d 362.37 48.08 d 362.41 48.05 d 362.41 47.98 d 362.41 47.90 d 362.41 47.87 d 362.41 47.80 d 362.44 47.73 d 362.44 47.66 d 362.44 47.59 d 362.44 47.52 d 362.44 47.45 d
 362.48 47.38 d 362.48 47.31 d 362.48 47.24 d 362.48 47.16 d 362.48 47.09 d 362.51 46.99 d 362.51 46.92 d 362.51 46.85 d 362.51 46.74 d 362.55 46.67 d 362.55 46.57 d 362.55 46.49 d 362.55 46.39 d 362.55 46.28 d 362.58 46.18 d 362.58 46.07 d
 362.58 45.97 d 362.58 45.86 d 362.58 45.82 d 362.58 45.72 d 362.58 45.68 d 362.62 45.61 d 362.62 45.58 d 362.62 45.54 d s 1.0 1.0 0.0 setrgbcolor s 308.08 187.18 m 319.38 187.18 d s 322.20 187.18 m 323.61 187.18 d s 326.43 187.18 m
 336.29 187.18 d s 350.39 184.36 m 350.39 188.13 d 352.25 188.13 d 353.21 187.18 d 353.21 184.36 d s 356.03 190.00 m 355.57 190.00 d 355.07 189.54 d 355.07 184.36 d 355.07 188.13 d 354.62 188.13 d 356.03 188.13 d s 357.44 186.72 m
 360.26 186.72 d s 360.26 187.64 m 357.44 187.64 d s 361.67 184.36 m 363.53 184.36 d 364.49 185.31 d 364.49 186.23 d 363.53 187.18 d 361.67 187.18 d 361.67 190.00 d 364.49 190.00 d s 68.84 184.64 m 80.08 183.52 d s 82.89 183.24 m
 84.29 183.10 d s 87.10 182.82 m 93.27 182.21 d 98.32 181.65 d s 101.12 181.35 m 102.52 181.19 d s 105.32 180.89 m 116.54 179.66 d s 119.34 179.34 m 120.13 179.25 d 120.74 179.18 d s 123.54 178.86 m 125.03 178.68 d 127.46 178.37 d
 129.90 178.08 d 132.36 177.80 d 134.74 177.49 d s 137.54 177.16 m 138.94 176.98 d s 141.73 176.62 m 142.13 176.57 d 144.56 176.25 d 146.99 175.93 d 149.46 175.62 d 151.89 175.30 d 152.92 175.16 d s 155.71 174.78 m 156.79 174.63 d
 157.11 174.59 d s 159.91 174.21 m 161.66 173.96 d 164.09 173.61 d 166.56 173.25 d 168.99 172.90 d 171.07 172.60 d s 173.86 172.20 m 173.89 172.20 d 175.25 171.98 d s 178.04 171.56 m 178.75 171.46 d 181.19 171.07 d 183.65 170.68 d
 186.08 170.29 d 188.52 169.91 d 189.18 169.80 d s 191.97 169.35 m 193.36 169.10 d s 196.14 168.63 m 198.28 168.28 d 200.75 167.86 d 203.18 167.40 d 205.61 166.98 d 207.25 166.70 d s 210.02 166.19 m 210.51 166.10 d 211.41 165.93 d
 s 214.18 165.41 m 215.38 165.18 d 217.85 164.69 d 220.28 164.19 d 222.71 163.74 d 225.18 163.21 d 225.24 163.19 d s 228.00 162.63 m 229.38 162.33 d s 232.14 161.73 m 232.47 161.66 d 234.94 161.13 d 237.37 160.60 d 239.81 160.04 d
 242.27 159.47 d 243.14 159.26 d s 245.88 158.58 m 247.14 158.27 d 247.25 158.25 d s 249.99 157.57 m 252.04 157.07 d 254.47 156.44 d 256.90 155.77 d 259.37 155.14 d 260.89 154.69 d s 263.61 153.93 m 264.23 153.76 d 264.96 153.54 d
 s 267.66 152.74 m 269.13 152.32 d 271.57 151.54 d 274.00 150.76 d 276.47 149.99 d 278.42 149.34 d s 281.08 148.42 m 281.33 148.33 d 282.41 147.94 d s 285.07 146.99 m 286.23 146.57 d 288.66 145.65 d 291.09 144.70 d 293.56 143.71 d
 295.57 142.87 d s 298.16 141.75 m 298.43 141.63 d 299.44 141.18 d s 302.01 140.01 m 303.33 139.41 d 305.76 138.22 d 308.19 136.98 d 310.66 135.68 d 312.06 134.89 d s 314.50 133.48 m 315.52 132.89 d 315.72 132.77 d s 318.11 131.28 m
 320.42 129.83 d 322.85 128.13 d 325.29 126.37 d 327.32 124.78 d s 329.51 123.01 m 330.19 122.46 d 330.59 122.10 d s 332.70 120.23 m 335.05 117.98 d 337.52 115.44 d 337.73 115.20 d 337.94 114.95 d 338.15 114.70 d 338.40 114.46 d
 338.61 114.21 d 338.82 113.96 d 339.03 113.72 d 339.28 113.47 d 339.49 113.19 d 339.70 112.94 d 339.92 112.69 d 340.13 112.41 d 340.37 112.17 d 340.46 112.06 d s 342.21 109.85 m 342.35 109.66 d 342.56 109.38 d 342.77 109.06 d
 343.02 108.78 d 343.06 108.72 d s 344.67 106.41 m 344.75 106.28 d 344.99 105.96 d 345.20 105.64 d 345.41 105.29 d 345.63 104.97 d 345.87 104.62 d 346.08 104.27 d 346.30 103.95 d 346.51 103.60 d 346.75 103.21 d 346.97 102.86 d
 347.18 102.51 d 347.39 102.12 d 347.60 101.77 d 347.85 101.38 d 348.06 100.99 d 348.27 100.60 d 348.48 100.22 d 348.73 99.79 d 348.94 99.41 d 349.15 98.98 d 349.36 98.56 d 349.61 98.14 d 349.82 97.71 d 350.03 97.29 d 350.24 96.83 d
 350.33 96.68 d s 351.54 94.13 m 351.58 94.05 d 351.80 93.55 d 352.01 93.06 d 352.10 92.84 d s 353.18 90.23 m 353.35 89.89 d 353.56 89.29 d 353.77 88.72 d 353.98 88.13 d 354.23 87.53 d 354.44 86.93 d 354.65 86.29 d 354.86 85.66 d
 355.07 84.99 d 355.32 84.32 d 355.53 83.65 d 355.74 82.94 d 355.95 82.24 d 356.20 81.50 d 356.41 80.72 d 356.62 79.95 d 356.73 79.54 d s 357.44 76.81 m 357.51 76.53 d 357.72 75.61 d 357.76 75.43 d s 358.37 72.68 m 358.39 72.58 d
 358.60 71.49 d 358.81 70.32 d 359.06 69.09 d 359.27 67.79 d 359.48 66.38 d 359.51 66.23 d 359.51 66.09 d 359.55 65.95 d 359.59 65.81 d 359.59 65.67 d 359.62 65.49 d 359.66 65.35 d 359.66 65.21 d 359.69 65.07 d 359.69 64.90 d 359.73 64.75 d
 359.76 64.61 d 359.76 64.44 d 359.80 64.30 d 359.83 64.12 d 359.83 63.98 d 359.87 63.80 d 359.87 63.66 d 359.90 63.49 d 359.94 63.34 d 359.94 63.17 d 359.97 62.99 d 360.01 62.85 d 360.01 62.67 d 360.04 62.50 d 360.04 62.36 d 360.08 62.18 d
 360.11 62.00 d 360.11 61.83 d 360.15 61.65 d 360.16 61.58 d s 360.50 58.80 m 360.50 58.62 d 360.54 58.44 d 360.57 58.23 d 360.57 58.06 d 360.61 57.88 d 360.64 57.67 d 360.64 57.49 d 360.66 57.39 d s 361.00 54.60 m 361.00 54.50 d
 361.03 54.32 d 361.03 54.14 d 361.07 53.97 d 361.10 53.79 d 361.10 53.62 d 361.14 53.44 d 361.17 53.26 d 361.17 53.09 d 361.21 52.91 d 361.21 52.77 d 361.24 52.59 d 361.28 52.42 d 361.28 52.28 d 361.31 52.10 d 361.35 51.96 d 361.35 51.82 d
 361.38 51.68 d 361.38 51.54 d 361.42 51.39 d 361.45 51.25 d 361.45 51.15 d 361.49 51.01 d 361.52 50.90 d 361.52 50.76 d 361.56 50.65 d 361.56 50.55 d 361.59 50.44 d 361.63 50.37 d 361.63 50.27 d 361.67 50.20 d 361.70 50.13 d 361.70 50.09 d
 361.70 50.06 d 361.70 50.02 d 361.74 50.02 d 361.74 49.98 d 361.74 49.95 d 361.74 49.91 d 361.77 49.91 d 361.77 49.88 d 361.77 49.84 d 361.81 49.84 d 361.81 49.81 d 361.81 49.77 d 361.84 49.77 d 361.84 49.74 d 361.88 49.74 d 361.88 49.70 d
 361.91 49.70 d 361.95 49.70 d 361.98 49.70 d 361.98 49.67 d 362.02 49.67 d 362.02 49.63 d 362.05 49.60 d 362.05 49.56 d 362.09 49.56 d 362.09 49.53 d 362.09 49.49 d 362.12 49.46 d 362.12 49.42 d 362.12 49.39 d 362.16 49.39 d 362.16 49.35 d
 362.16 49.31 d 362.16 49.28 d 362.19 49.24 d 362.19 49.21 d 362.19 49.17 d 362.19 49.14 d 362.23 49.10 d 362.23 49.07 d 362.23 49.03 d 362.23 49.00 d 362.23 48.96 d 362.26 48.93 d 362.26 48.89 d 362.26 48.86 d 362.26 48.82 d 362.26 48.79 d
 362.30 48.72 d 362.30 48.68 d 362.30 48.65 d 362.30 48.61 d 362.30 48.54 d 362.33 48.50 d 362.33 48.47 d 362.33 48.40 d 362.33 48.36 d 362.37 48.33 d 362.37 48.26 d 362.37 48.22 d 362.37 48.15 d 362.37 48.08 d 362.41 48.05 d 362.41 47.98 d
 362.41 47.90 d 362.41 47.87 d 362.41 47.80 d 362.44 47.73 d 362.44 47.66 d 362.44 47.59 d 362.44 47.52 d 362.44 47.45 d 362.48 47.38 d 362.48 47.31 d 362.48 47.24 d 362.48 47.16 d 362.48 47.09 d 362.51 46.99 d 362.51 46.92 d 362.51 46.85 d
 362.51 46.74 d 362.55 46.67 d 362.55 46.57 d 362.55 46.46 d 362.55 46.39 d 362.55 46.28 d 362.58 46.18 d 362.58 46.07 d 362.58 45.97 d 362.58 45.86 d 362.58 45.79 d 362.58 45.72 d 362.58 45.68 d 362.62 45.61 d 362.62 45.58 d 362.62 45.54 d
 s  0.00  0.80  0.00 setrgbcolor s 308.08 170.26 m 313.74 170.26 d s 319.38 170.26 m 325.02 170.26 d s 330.66 170.26 m 336.29 170.26 d s 353.21 171.21 m 351.34 171.21 d 350.39 170.26 d 350.39 168.39 d 351.34 167.44 d 353.21 167.44 d
 353.21 173.08 d s 354.62 169.31 m 357.44 169.31 d 357.44 170.26 d 356.48 171.21 d 355.57 171.21 d 354.62 170.26 d 354.62 168.39 d 355.57 167.44 d 357.44 167.44 d s 359.30 166.03 m 361.21 166.03 d 361.67 166.49 d 361.67 171.21 d
 359.80 171.21 d 358.85 170.26 d 358.85 168.39 d 359.80 167.44 d 361.67 167.44 d s 369.67 167.44 m 368.72 167.44 d 368.72 173.08 d 369.67 173.08 d s 371.54 173.08 m 371.54 167.44 d 371.54 171.21 d 373.40 171.21 d 374.36 170.26 d
 374.36 167.44 d s 378.59 169.31 m 376.22 169.31 d 375.77 168.85 d 375.77 167.90 d 376.22 167.44 d 378.59 167.44 d 378.59 170.72 d 378.13 171.21 d 376.22 171.21 d s 382.82 171.21 m 380.95 171.21 d 380.00 170.26 d 380.00 168.39 d
 380.95 167.44 d 382.82 167.44 d 382.82 173.08 d s 384.23 167.44 m 384.23 171.21 d 386.09 171.21 d 386.59 170.72 d 386.59 170.26 d s 388.00 167.44 m 389.87 167.44 d 390.82 168.39 d 390.82 169.31 d 389.87 170.26 d 388.00 170.26 d
 388.00 173.08 d 390.82 173.08 d s 393.14 167.44 m 394.10 167.44 d 394.10 173.08 d 393.14 173.08 d s 68.84 184.64 m 74.47 184.08 d s 80.08 183.52 m 85.69 182.96 d s 91.31 182.40 m 93.27 182.21 d 96.91 181.81 d s 102.52 181.19 m
 108.13 180.58 d s 113.73 179.96 m 117.70 179.53 d 119.34 179.34 d s 124.94 178.69 m 125.03 178.68 d 127.46 178.37 d 129.90 178.08 d 130.54 178.01 d s 136.14 177.33 m 137.23 177.20 d 139.70 176.88 d 141.73 176.62 d s 147.33 175.89 m
 149.46 175.62 d 151.89 175.30 d 152.92 175.16 d s 158.51 174.40 m 159.22 174.31 d 161.66 173.96 d 164.09 173.61 d s 169.67 172.80 m 171.42 172.55 d 173.89 172.20 d 175.25 171.98 d s 180.83 171.13 m 181.19 171.07 d 183.65 170.68 d
 186.08 170.29 d 186.40 170.24 d s 191.97 169.35 m 193.42 169.09 d 195.85 168.67 d 197.53 168.40 d s 203.08 167.42 m 203.18 167.40 d 205.61 166.98 d 208.08 166.56 d 208.64 166.45 d s 214.18 165.41 m 215.38 165.18 d 217.85 164.69 d
 219.71 164.31 d s 225.24 163.19 m 227.61 162.71 d 230.04 162.19 d 230.76 162.03 d s 236.27 160.84 m 237.37 160.60 d 239.81 160.04 d 241.77 159.59 d s 247.25 158.25 m 249.57 157.67 d 252.04 157.07 d 252.72 156.89 d s 258.17 155.44 m
 259.37 155.14 d 261.80 154.43 d 263.61 153.93 d s 269.02 152.35 m 269.13 152.32 d 271.57 151.54 d 274.00 150.76 d 274.39 150.64 d s 279.75 148.88 m 281.33 148.33 d 283.76 147.45 d 285.07 146.99 d s 290.34 145.00 m 291.09 144.70 d
 293.56 143.71 d 295.57 142.87 d s 300.73 140.60 m 300.86 140.54 d 303.33 139.41 d 305.76 138.22 d 305.82 138.18 d s 310.83 135.58 m 313.09 134.30 d 315.52 132.89 d 315.72 132.77 d s 320.50 129.77 m 322.85 128.13 d 325.09 126.51 d
 s 329.51 123.01 m 330.19 122.46 d 332.62 120.31 d 333.72 119.25 d s 337.69 115.25 m 337.73 115.20 d 337.94 114.95 d 338.15 114.70 d 338.40 114.46 d 338.61 114.21 d 338.82 113.96 d 339.03 113.72 d 339.28 113.47 d 339.49 113.19 d
 339.70 112.94 d 339.92 112.69 d 340.13 112.41 d 340.37 112.17 d 340.59 111.88 d 340.80 111.64 d 341.01 111.35 d 341.26 111.07 d 341.34 110.96 d s 344.67 106.41 m 344.75 106.28 d 344.99 105.96 d 345.20 105.64 d 345.41 105.29 d
 345.63 104.97 d 345.87 104.62 d 346.08 104.27 d 346.30 103.95 d 346.51 103.60 d 346.75 103.21 d 346.97 102.86 d 347.18 102.51 d 347.39 102.12 d 347.60 101.77 d 347.68 101.65 d s 350.33 96.68 m 350.49 96.41 d 350.70 95.95 d 350.91 95.49 d
 351.13 95.00 d 351.34 94.54 d 351.58 94.05 d 351.80 93.55 d 352.01 93.06 d 352.22 92.57 d 352.46 92.04 d 352.66 91.54 d s 354.66 86.27 m 354.86 85.66 d 355.07 84.99 d 355.32 84.32 d 355.53 83.65 d 355.74 82.94 d 355.95 82.24 d
 356.20 81.50 d 356.37 80.90 d s 357.76 75.43 m 357.96 74.66 d 358.18 73.64 d 358.39 72.58 d 358.60 71.49 d 358.81 70.32 d 358.89 69.91 d s 359.78 64.36 m 359.80 64.30 d 359.83 64.12 d 359.83 63.98 d 359.87 63.80 d 359.87 63.66 d
 359.90 63.49 d 359.94 63.34 d 359.94 63.17 d 359.97 62.99 d 360.01 62.85 d 360.01 62.67 d 360.04 62.50 d 360.04 62.36 d 360.08 62.18 d 360.11 62.00 d 360.11 61.83 d 360.15 61.65 d 360.18 61.48 d 360.18 61.34 d 360.22 61.16 d 360.22 60.98 d
 360.26 60.81 d 360.29 60.63 d 360.29 60.45 d 360.33 60.24 d 360.36 60.07 d 360.36 59.89 d 360.40 59.71 d 360.40 59.54 d 360.43 59.36 d 360.47 59.18 d 360.47 58.97 d 360.50 58.80 d s 361.17 53.21 m 361.17 53.09 d 361.21 52.91 d
 361.21 52.77 d 361.24 52.59 d 361.28 52.42 d 361.28 52.28 d 361.31 52.10 d 361.35 51.96 d 361.35 51.82 d 361.38 51.68 d 361.38 51.54 d 361.42 51.39 d 361.45 51.25 d 361.45 51.15 d 361.49 51.01 d 361.52 50.90 d 361.52 50.76 d 361.56 50.65 d
 361.56 50.55 d 361.59 50.44 d 361.63 50.37 d 361.63 50.27 d 361.67 50.20 d 361.70 50.13 d 361.70 50.09 d 361.70 50.06 d 361.70 50.02 d 361.74 50.02 d 361.74 49.98 d 361.74 49.95 d 361.74 49.91 d 361.77 49.91 d 361.77 49.88 d 361.77 49.84 d
 361.81 49.84 d 361.81 49.81 d 361.81 49.77 d 361.84 49.77 d 361.84 49.74 d 361.88 49.74 d 361.88 49.70 d 361.91 49.70 d 361.95 49.70 d 361.98 49.70 d 361.98 49.67 d 362.02 49.67 d 362.02 49.63 d 362.05 49.60 d 362.05 49.56 d 362.09 49.56 d
 362.09 49.53 d 362.09 49.49 d 362.12 49.46 d 362.12 49.42 d 362.12 49.39 d 362.16 49.39 d 362.16 49.35 d 362.16 49.31 d 362.16 49.28 d 362.19 49.24 d 362.19 49.21 d 362.19 49.17 d 362.19 49.14 d 362.23 49.10 d 362.23 49.07 d 362.23 49.03 d
 362.23 49.00 d 362.23 48.96 d 362.26 48.93 d 362.26 48.89 d 362.26 48.86 d 362.26 48.82 d 362.26 48.79 d 362.30 48.72 d 362.30 48.68 d 362.30 48.65 d 362.30 48.61 d 362.30 48.54 d 362.33 48.50 d 362.33 48.47 d 362.33 48.40 d 362.33 48.36 d
 362.37 48.33 d 362.37 48.26 d 362.37 48.22 d 362.37 48.15 d s  1.00  1.00  0.60 setrgbcolor s 308.08 153.34 m 319.38 153.34 d s 322.20 153.34 m 323.61 153.34 d s 326.43 153.34 m 336.29 153.34 d s 350.84 149.11 m 352.75 149.11 d
 353.21 149.57 d 353.21 154.29 d 351.34 154.29 d 350.39 153.34 d 350.39 151.47 d 351.34 150.52 d 353.21 150.52 d s 354.62 156.16 m 356.48 156.16 d 357.44 155.21 d 357.44 154.29 d 356.48 153.34 d 355.57 153.34 d 356.48 153.34 d
 357.44 152.39 d 357.44 151.47 d 356.48 150.52 d 354.62 150.52 d s 68.84 184.64 m 80.08 183.52 d s 82.89 183.24 m 84.29 183.10 d s 87.10 182.82 m 93.27 182.21 d 98.32 181.65 d s 101.12 181.35 m 102.52 181.19 d s 105.32 180.89 m
 116.54 179.66 d s 119.34 179.34 m 120.13 179.25 d 120.74 179.18 d s 123.54 178.86 m 125.03 178.68 d 127.46 178.37 d 129.90 178.08 d 132.36 177.77 d 134.74 177.49 d s 137.54 177.13 m 138.94 176.97 d s 141.73 176.62 m 142.13 176.57 d
 144.56 176.25 d 146.99 175.93 d 149.46 175.62 d 151.89 175.30 d 152.92 175.15 d s 155.71 174.77 m 156.79 174.63 d 157.11 174.58 d s 159.90 174.19 m 161.66 173.96 d 164.09 173.61 d 166.56 173.25 d 168.99 172.90 d 171.07 172.60 d
 s 173.86 172.17 m 173.89 172.16 d 175.25 171.96 d s 178.04 171.53 m 178.75 171.42 d 181.19 171.07 d 183.65 170.68 d 186.08 170.29 d 188.52 169.91 d 189.18 169.79 d s 191.96 169.33 m 193.36 169.10 d s 196.13 168.62 m 198.28 168.25 d
 200.75 167.83 d 203.18 167.40 d 205.61 166.98 d 207.25 166.68 d s 210.02 166.18 m 210.51 166.10 d 211.41 165.93 d s 214.18 165.39 m 215.38 165.15 d 217.85 164.69 d 220.28 164.19 d 222.71 163.70 d 225.18 163.21 d 225.24 163.19 d
 s 228.00 162.63 m 229.38 162.33 d s 232.14 161.73 m 232.47 161.66 d 234.94 161.13 d 237.37 160.60 d 239.81 160.04 d 242.27 159.47 d 243.14 159.26 d s 245.88 158.58 m 247.14 158.27 d 247.25 158.25 d s 249.99 157.57 m 252.04 157.04 d
 254.47 156.44 d 256.90 155.77 d 259.37 155.10 d 260.89 154.68 d s 263.60 153.91 m 264.23 153.73 d 264.96 153.52 d s 267.66 152.72 m 269.13 152.28 d 271.57 151.54 d 274.00 150.76 d 276.47 149.99 d 278.42 149.34 d s 281.09 148.42 m
 281.33 148.33 d 282.41 147.94 d s 285.07 146.98 m 286.23 146.57 d 288.66 145.65 d 291.09 144.70 d 293.56 143.71 d 295.57 142.87 d s 298.16 141.75 m 298.43 141.63 d 299.45 141.18 d s 302.01 140.00 m 303.33 139.38 d 305.76 138.22 d
 308.19 136.95 d 310.66 135.68 d 312.06 134.89 d s 314.50 133.48 m 315.52 132.89 d 315.72 132.77 d s 318.11 131.28 m 320.42 129.79 d 322.85 128.13 d 325.29 126.37 d 327.32 124.78 d s 329.52 123.00 m 330.19 122.46 d 330.60 122.10 d
 s 332.70 120.22 m 335.05 117.95 d 337.52 115.41 d 337.73 115.20 d 337.94 114.95 d 338.15 114.70 d 338.40 114.46 d 338.61 114.21 d 338.82 113.96 d 339.03 113.72 d 339.28 113.43 d 339.49 113.19 d 339.70 112.94 d 339.92 112.69 d
 340.13 112.41 d 340.37 112.17 d 340.46 112.05 d s 342.21 109.84 m 342.35 109.66 d 342.56 109.35 d 342.77 109.06 d 343.02 108.78 d 343.06 108.72 d s 344.66 106.40 m 344.75 106.28 d 344.99 105.96 d 345.20 105.64 d 345.41 105.29 d
 345.63 104.97 d 345.87 104.62 d 346.08 104.27 d 346.30 103.92 d 346.51 103.56 d 346.75 103.21 d 346.97 102.86 d 347.18 102.51 d 347.39 102.12 d 347.60 101.73 d 347.85 101.38 d 348.06 100.99 d 348.27 100.60 d 348.48 100.22 d 348.73 99.79 d
 348.94 99.41 d 349.15 98.98 d 349.36 98.56 d 349.61 98.14 d 349.82 97.71 d 350.03 97.29 d 350.24 96.83 d 350.34 96.67 d s 351.55 94.12 m 351.58 94.05 d 351.80 93.55 d 352.01 93.06 d 352.10 92.83 d s 353.18 90.22 m 353.35 89.85 d
 353.56 89.29 d 353.77 88.72 d 353.98 88.13 d 354.23 87.53 d 354.44 86.93 d 354.65 86.29 d 354.86 85.66 d 355.07 84.99 d 355.32 84.32 d 355.53 83.65 d 355.74 82.94 d 355.95 82.20 d 356.20 81.46 d 356.41 80.72 d 356.62 79.95 d 356.73 79.53 d
 s 357.44 76.80 m 357.51 76.53 d 357.72 75.61 d 357.76 75.43 d s 358.37 72.67 m 358.39 72.58 d 358.60 71.45 d 358.81 70.29 d 359.06 69.05 d 359.27 67.75 d 359.48 66.38 d 359.51 66.23 d 359.51 66.09 d 359.55 65.95 d 359.59 65.81 d
 359.59 65.64 d 359.62 65.49 d 359.66 65.35 d 359.66 65.21 d 359.69 65.04 d 359.69 64.90 d 359.73 64.75 d 359.76 64.58 d 359.76 64.44 d 359.80 64.30 d 359.83 64.12 d 359.83 63.98 d 359.87 63.80 d 359.87 63.66 d 359.90 63.49 d 359.94 63.34 d
 359.94 63.17 d 359.97 62.99 d 360.01 62.85 d 360.01 62.67 d 360.04 62.50 d 360.04 62.32 d 360.08 62.18 d 360.11 62.00 d 360.11 61.83 d 360.15 61.65 d 360.17 61.57 d s 360.50 58.78 m 360.50 58.62 d 360.54 58.41 d 360.57 58.23 d
 360.57 58.06 d 360.61 57.88 d 360.64 57.67 d 360.64 57.49 d 360.66 57.38 d s 361.00 54.60 m 361.00 54.50 d 361.03 54.32 d 361.03 54.14 d 361.07 53.97 d 361.10 53.79 d 361.10 53.62 d 361.14 53.44 d 361.17 53.26 d 361.17 53.09 d
 361.21 52.91 d 361.21 52.73 d 361.24 52.59 d 361.28 52.42 d 361.28 52.28 d 361.31 52.10 d 361.35 51.96 d 361.35 51.82 d 361.38 51.68 d 361.38 51.54 d 361.42 51.39 d 361.45 51.25 d 361.45 51.11 d 361.49 51.01 d 361.52 50.90 d 361.52 50.76 d
 361.56 50.65 d 361.56 50.55 d 361.59 50.44 d 361.63 50.37 d 361.63 50.27 d 361.67 50.20 d 361.70 50.13 d 361.70 50.09 d 361.70 50.06 d 361.70 50.02 d 361.74 50.02 d 361.74 49.98 d 361.74 49.95 d 361.74 49.91 d 361.77 49.91 d 361.77 49.88 d
 361.77 49.84 d 361.81 49.84 d 361.81 49.81 d 361.81 49.77 d 361.84 49.77 d 361.84 49.74 d 361.88 49.74 d 361.88 49.70 d 361.91 49.70 d 361.95 49.70 d 361.98 49.70 d 361.98 49.67 d 362.02 49.67 d 362.02 49.63 d 362.05 49.60 d 362.05 49.56 d
 362.09 49.56 d 362.09 49.53 d 362.09 49.49 d 362.12 49.46 d 362.12 49.42 d 362.12 49.39 d 362.16 49.39 d 362.16 49.35 d 362.16 49.31 d 362.16 49.28 d 362.19 49.24 d 362.19 49.21 d 362.19 49.17 d 362.19 49.14 d 362.23 49.10 d 362.23 49.07 d
 362.23 49.03 d 362.23 49.00 d 362.23 48.96 d 362.26 48.93 d 362.26 48.89 d 362.26 48.86 d 362.26 48.82 d 362.26 48.79 d 362.30 48.72 d 362.30 48.68 d 362.30 48.65 d 362.30 48.61 d 362.30 48.57 d 362.33 48.50 d 362.33 48.47 d 362.33 48.43 d
 362.33 48.36 d 362.37 48.33 d 362.37 48.26 d 362.37 48.22 d 362.37 48.15 d 362.37 48.12 d 362.41 48.05 d 362.41 47.98 d 362.41 47.94 d 362.41 47.87 d 362.41 47.80 d 362.44 47.73 d 362.44 47.66 d 362.44 47.62 d 362.44 47.55 d 362.44 47.48 d
 362.48 47.41 d 362.48 47.34 d 362.48 47.24 d 362.48 47.16 d 362.48 47.09 d 362.51 47.02 d 362.51 46.95 d 362.51 46.85 d 362.51 46.78 d 362.55 46.67 d 362.55 46.60 d 362.55 46.49 d 362.55 46.39 d 362.55 46.32 d 362.58 46.21 d 362.58 46.11 d
 362.58 46.00 d 362.58 45.86 d 362.58 45.82 d 362.58 45.75 d 362.58 45.72 d 362.62 45.61 d 362.62 45.58 d s 1.0 1.0 1.0 setrgbcolor s 0.00 0.00 m 399.74 0.00 d 399.74 289.68 d 0.00 289.68 d 0.00 0.00 d
 s grestore
