%!PS-Adobe-1.0 EPSF-1.0
%%BoundingBox:       0.00       0.00     382.11     245.34
 /m {moveto} def /d {lineto} def /s {stroke newpath} def gsave newpath 1 setlinecap 1 setlinejoin
 s 0.0 0.0 0.0 setrgbcolor s 0.47  setlinewidth s 9.87 124.26 m 2.82 126.94 d 9.87 129.61 d 9.87 124.26 d s 9.87 136.66 m 9.87 136.35 d 9.52 135.99 d 8.85 135.68 d 6.17 135.01 d 5.50 134.66 d 5.18 134.30 d 5.18 133.63 d 5.50 132.96 d
 6.17 132.29 d 6.84 131.98 d 7.86 131.62 d 8.85 131.62 d 9.52 131.98 d 9.87 132.65 d 9.87 133.32 d 9.52 133.99 d 8.53 135.01 d 7.51 135.68 d 6.17 136.35 d 5.18 136.66 d s 1.0 0.0 0.0 setrgbcolor s 303.15 225.60 m 325.71 225.60 d
 s 0.0 0.0 0.0 setrgbcolor s 49.35 25.38 m 61.37 25.38 d 61.37 22.56 d s 49.14 16.92 m 51.01 16.92 d s 53.83 17.87 m 55.24 19.74 d 55.24 14.10 d s 58.55 14.10 m 59.47 14.56 d 59.96 15.97 d 59.96 17.87 d 59.47 19.28 d 58.55 19.74 d
 57.60 19.28 d 57.14 17.87 d 57.14 15.97 d 57.60 14.56 d 58.55 14.10 d s 62.78 14.10 m 63.70 14.56 d 64.19 15.97 d 64.19 17.87 d 63.70 19.28 d 62.78 19.74 d 61.83 19.28 d 61.37 17.87 d 61.37 15.97 d 61.83 14.56 d 62.78 14.10 d
 s 67.01 14.10 m 66.52 14.10 d 66.52 14.56 d 67.01 14.56 d 67.01 14.10 d s 71.24 14.10 m 72.16 14.56 d 72.65 15.97 d 72.65 17.87 d 72.16 19.28 d 71.24 19.74 d 70.29 19.28 d 69.83 17.87 d 69.83 15.97 d 70.29 14.56 d 71.24 14.10 d
 s 61.37 22.56 m 61.37 25.38 d 91.40 25.38 d 91.40 22.56 d 91.40 25.38 d 121.40 25.38 d 121.40 22.56 d s 111.32 16.92 m 113.19 16.92 d s 116.01 16.92 m 115.06 17.87 d 115.06 18.79 d 116.01 19.74 d 116.96 19.74 d 117.88 18.79 d
 117.88 17.87 d 116.96 16.92 d 116.01 16.92 d 115.06 15.97 d 115.06 15.05 d 116.01 14.10 d 116.96 14.10 d 117.88 15.05 d 117.88 15.97 d 116.96 16.92 d s 120.70 14.10 m 121.65 14.56 d 122.11 15.97 d 122.11 17.87 d 121.65 19.28 d
 120.70 19.74 d 119.78 19.28 d 119.29 17.87 d 119.29 15.97 d 119.78 14.56 d 120.70 14.10 d s 124.93 14.10 m 124.47 14.10 d 124.47 14.56 d 124.93 14.56 d 124.93 14.10 d s 129.16 14.10 m 130.11 14.56 d 130.57 15.97 d 130.57 17.87 d
 130.11 19.28 d 129.16 19.74 d 128.24 19.28 d 127.75 17.87 d 127.75 15.97 d 128.24 14.56 d 129.16 14.10 d s 121.40 22.56 m 121.40 25.38 d 151.43 25.38 d 151.43 22.56 d 151.43 25.38 d 181.47 25.38 d 181.47 22.56 d s 171.35 16.92 m
 173.25 16.92 d s 175.58 16.92 m 176.99 16.92 d 177.94 15.97 d 177.94 15.05 d 176.99 14.10 d 176.07 14.10 d 175.12 15.05 d 175.12 15.97 d 175.58 16.92 d 177.48 19.74 d s 180.76 14.10 m 181.71 14.56 d 182.17 15.97 d 182.17 17.87 d
 181.71 19.28 d 180.76 19.74 d 179.81 19.28 d 179.35 17.87 d 179.35 15.97 d 179.81 14.56 d 180.76 14.10 d s 184.99 14.10 m 184.53 14.10 d 184.53 14.56 d 184.99 14.56 d 184.99 14.10 d s 189.22 14.10 m 190.17 14.56 d 190.63 15.97 d
 190.63 17.87 d 190.17 19.28 d 189.22 19.74 d 188.27 19.28 d 187.81 17.87 d 187.81 15.97 d 188.27 14.56 d 189.22 14.10 d s 181.47 22.56 m 181.47 25.38 d 211.50 25.38 d 211.50 22.56 d 211.50 25.38 d 241.53 25.38 d 241.53 22.56 d
 s 231.42 16.92 m 233.32 16.92 d s 236.60 19.74 m 235.19 15.51 d 238.01 15.51 d 237.06 15.51 d 237.06 16.92 d 237.06 14.10 d s 240.83 14.10 m 241.78 14.56 d 242.24 15.97 d 242.24 17.87 d 241.78 19.28 d 240.83 19.74 d 239.88 19.28 d
 239.42 17.87 d 239.42 15.97 d 239.88 14.56 d 240.83 14.10 d s 245.06 14.10 m 244.60 14.10 d 244.60 14.56 d 245.06 14.56 d 245.06 14.10 d s 249.29 14.10 m 250.24 14.56 d 250.70 15.97 d 250.70 17.87 d 250.24 19.28 d 249.29 19.74 d
 248.34 19.28 d 247.88 17.87 d 247.88 15.97 d 248.34 14.56 d 249.29 14.10 d s 241.53 22.56 m 241.53 25.38 d 271.57 25.38 d 271.57 22.56 d 271.57 25.38 d 301.60 25.38 d 301.60 22.56 d s 291.48 16.92 m 293.35 16.92 d s 295.25 18.79 m
 296.17 19.74 d 297.12 19.74 d 298.07 18.79 d 298.07 17.87 d 297.58 16.92 d 295.25 14.10 d 298.07 14.10 d s 300.89 14.10 m 301.81 14.56 d 302.30 15.97 d 302.30 17.87 d 301.81 19.28 d 300.89 19.74 d 299.94 19.28 d 299.48 17.87 d
 299.48 15.97 d 299.94 14.56 d 300.89 14.10 d s 305.12 14.10 m 304.63 14.10 d 304.63 14.56 d 305.12 14.56 d 305.12 14.10 d s 309.35 14.10 m 310.27 14.56 d 310.76 15.97 d 310.76 17.87 d 310.27 19.28 d 309.35 19.74 d 308.40 19.28 d
 307.94 17.87 d 307.94 15.97 d 308.40 14.56 d 309.35 14.10 d s 301.60 22.56 m 301.60 25.38 d 331.60 25.38 d 331.60 22.56 d 331.60 25.38 d 361.63 25.38 d 361.63 22.56 d s 356.69 14.10 m 357.65 14.56 d 358.10 15.97 d 358.10 17.87 d
 357.65 19.28 d 356.69 19.74 d 355.78 19.28 d 355.28 17.87 d 355.28 15.97 d 355.78 14.56 d 356.69 14.10 d s 360.92 14.10 m 360.47 14.10 d 360.47 14.56 d 360.92 14.56 d 360.92 14.10 d s 365.15 14.10 m 366.11 14.56 d 366.56 15.97 d
 366.56 17.87 d 366.11 19.28 d 365.15 19.74 d 364.24 19.28 d 363.74 17.87 d 363.74 15.97 d 364.24 14.56 d 365.15 14.10 d s 361.63 22.56 m 361.63 25.38 d 373.65 25.38 d s 198.56 2.82 m 195.74 2.82 d 195.74 8.46 d 198.56 8.46 d 195.74 8.46 d
 195.74 5.64 d 197.15 5.64 d s 206.57 8.46 m 206.11 8.00 d 205.61 6.59 d 205.61 4.69 d 206.11 3.28 d 206.57 2.82 d s 208.43 2.82 m 208.43 8.46 d 210.34 5.64 d 212.20 8.46 d 212.20 2.82 d s 213.62 4.69 m 216.44 4.69 d 216.44 5.64 d
 215.48 6.59 d 214.57 6.59 d 213.62 5.64 d 213.62 3.77 d 214.57 2.82 d 216.44 2.82 d s 217.85 8.46 m 219.71 2.82 d 221.62 8.46 d s 223.94 8.46 m 224.44 8.00 d 224.90 6.59 d 224.90 4.69 d 224.44 3.28 d 223.94 2.82 d s 49.35 236.88 m
 61.37 236.88 d 61.37 239.70 d s 61.37 239.70 m 61.37 236.88 d 91.40 236.88 d 91.40 239.70 d 91.40 236.88 d 121.40 236.88 d 121.40 239.70 d s 121.40 239.70 m 121.40 236.88 d 151.43 236.88 d 151.43 239.70 d 151.43 236.88 d 181.47 236.88 d
 181.47 239.70 d s 181.47 239.70 m 181.47 236.88 d 211.50 236.88 d 211.50 239.70 d 211.50 236.88 d 241.53 236.88 d 241.53 239.70 d s 241.53 239.70 m 241.53 236.88 d 271.57 236.88 d 271.57 239.70 d 271.57 236.88 d 301.60 236.88 d
 301.60 239.70 d s 301.60 239.70 m 301.60 236.88 d 331.60 236.88 d 331.60 239.70 d 331.60 236.88 d 361.63 236.88 d 361.63 239.70 d s 361.63 239.70 m 361.63 236.88 d 373.65 236.88 d s 49.35 25.38 m 49.35 33.21 d 47.80 33.21 d 46.53 33.21 d
 s 25.38 30.39 m 26.33 30.88 d 26.79 32.29 d 26.79 34.16 d 26.33 35.57 d 25.38 36.03 d 24.43 35.57 d 23.97 34.16 d 23.97 32.29 d 24.43 30.88 d 25.38 30.39 d s 29.61 30.39 m 29.15 30.39 d 29.15 30.88 d 29.61 30.88 d 29.61 30.39 d
 s 33.84 30.39 m 34.79 30.88 d 35.25 32.29 d 35.25 34.16 d 34.79 35.57 d 33.84 36.03 d 32.89 35.57 d 32.43 34.16 d 32.43 32.29 d 32.89 30.88 d 33.84 30.39 d s 38.07 30.39 m 39.02 30.88 d 39.48 32.29 d 39.48 34.16 d 39.02 35.57 d
 38.07 36.03 d 37.12 35.57 d 36.66 34.16 d 36.66 32.29 d 37.12 30.88 d 38.07 30.39 d s 42.30 30.39 m 43.25 30.88 d 43.71 32.29 d 43.71 34.16 d 43.25 35.57 d 42.30 36.03 d 41.35 35.57 d 40.89 34.16 d 40.89 32.29 d 41.35 30.88 d 42.30 30.39 d
 s 46.53 33.21 m 49.35 33.21 d 49.35 49.39 d 47.80 49.39 d 49.35 49.39 d 49.35 65.56 d 47.80 65.56 d 46.53 65.56 d s 25.38 62.75 m 26.33 63.24 d 26.79 64.65 d 26.79 66.52 d 26.33 67.93 d 25.38 68.39 d 24.43 67.93 d 23.97 66.52 d
 23.97 64.65 d 24.43 63.24 d 25.38 62.75 d s 29.61 62.75 m 29.15 62.75 d 29.15 63.24 d 29.61 63.24 d 29.61 62.75 d s 33.84 62.75 m 34.79 63.24 d 35.25 64.65 d 35.25 66.52 d 34.79 67.93 d 33.84 68.39 d 32.89 67.93 d 32.43 66.52 d
 32.43 64.65 d 32.89 63.24 d 33.84 62.75 d s 37.61 66.52 m 39.02 68.39 d 39.02 62.75 d s 42.30 62.75 m 43.25 63.24 d 43.71 64.65 d 43.71 66.52 d 43.25 67.93 d 42.30 68.39 d 41.35 67.93 d 40.89 66.52 d 40.89 64.65 d 41.35 63.24 d
 42.30 62.75 d s 46.53 65.56 m 49.35 65.56 d 49.35 81.74 d 47.80 81.74 d 49.35 81.74 d 49.35 97.92 d 47.80 97.92 d 46.53 97.92 d s 25.38 95.10 m 26.33 95.56 d 26.79 96.97 d 26.79 98.88 d 26.33 100.29 d 25.38 100.74 d 24.43 100.29 d
 23.97 98.88 d 23.97 96.97 d 24.43 95.56 d 25.38 95.10 d s 29.61 95.10 m 29.15 95.10 d 29.15 95.56 d 29.61 95.56 d 29.61 95.10 d s 33.84 95.10 m 34.79 95.56 d 35.25 96.97 d 35.25 98.88 d 34.79 100.29 d 33.84 100.74 d 32.89 100.29 d
 32.43 98.88 d 32.43 96.97 d 32.89 95.56 d 33.84 95.10 d s 36.66 99.79 m 37.61 100.74 d 38.53 100.74 d 39.48 99.79 d 39.48 98.88 d 39.02 97.92 d 36.66 95.10 d 39.48 95.10 d s 42.30 95.10 m 43.25 95.56 d 43.71 96.97 d 43.71 98.88 d
 43.25 100.29 d 42.30 100.74 d 41.35 100.29 d 40.89 98.88 d 40.89 96.97 d 41.35 95.56 d 42.30 95.10 d s 46.53 97.92 m 49.35 97.92 d 49.35 114.10 d 47.80 114.10 d 49.35 114.10 d 49.35 130.28 d 47.80 130.28 d 46.53 130.28 d s 25.38 127.46 m
 26.33 127.92 d 26.79 129.33 d 26.79 131.24 d 26.33 132.65 d 25.38 133.10 d 24.43 132.65 d 23.97 131.24 d 23.97 129.33 d 24.43 127.92 d 25.38 127.46 d s 29.61 127.46 m 29.15 127.46 d 29.15 127.92 d 29.61 127.92 d 29.61 127.46 d
 s 33.84 127.46 m 34.79 127.92 d 35.25 129.33 d 35.25 131.24 d 34.79 132.65 d 33.84 133.10 d 32.89 132.65 d 32.43 131.24 d 32.43 129.33 d 32.89 127.92 d 33.84 127.46 d s 36.66 133.10 m 38.53 133.10 d 39.48 132.15 d 39.48 131.24 d
 38.53 130.28 d 37.61 130.28 d 38.53 130.28 d 39.48 129.33 d 39.48 128.42 d 38.53 127.46 d 36.66 127.46 d s 42.30 127.46 m 43.25 127.92 d 43.71 129.33 d 43.71 131.24 d 43.25 132.65 d 42.30 133.10 d 41.35 132.65 d 40.89 131.24 d
 40.89 129.33 d 41.35 127.92 d 42.30 127.46 d s 46.53 130.28 m 49.35 130.28 d 49.35 146.46 d 47.80 146.46 d 49.35 146.46 d 49.35 162.64 d 47.80 162.64 d 46.53 162.64 d s 25.38 159.82 m 26.33 160.28 d 26.79 161.69 d 26.79 163.60 d
 26.33 165.01 d 25.38 165.46 d 24.43 165.01 d 23.97 163.60 d 23.97 161.69 d 24.43 160.28 d 25.38 159.82 d s 29.61 159.82 m 29.15 159.82 d 29.15 160.28 d 29.61 160.28 d 29.61 159.82 d s 33.84 159.82 m 34.79 160.28 d 35.25 161.69 d
 35.25 163.60 d 34.79 165.01 d 33.84 165.46 d 32.89 165.01 d 32.43 163.60 d 32.43 161.69 d 32.89 160.28 d 33.84 159.82 d s 38.07 165.46 m 36.66 161.23 d 39.48 161.23 d 38.53 161.23 d 38.53 162.64 d 38.53 159.82 d s 42.30 159.82 m
 43.25 160.28 d 43.71 161.69 d 43.71 163.60 d 43.25 165.01 d 42.30 165.46 d 41.35 165.01 d 40.89 163.60 d 40.89 161.69 d 41.35 160.28 d 42.30 159.82 d s 46.53 162.64 m 49.35 162.64 d 49.35 178.82 d 47.80 178.82 d 49.35 178.82 d
 49.35 195.00 d 47.80 195.00 d 46.53 195.00 d s 25.38 192.18 m 26.33 192.64 d 26.79 194.05 d 26.79 195.95 d 26.33 197.36 d 25.38 197.82 d 24.43 197.36 d 23.97 195.95 d 23.97 194.05 d 24.43 192.64 d 25.38 192.18 d s 29.61 192.18 m
 29.15 192.18 d 29.15 192.64 d 29.61 192.64 d 29.61 192.18 d s 33.84 192.18 m 34.79 192.64 d 35.25 194.05 d 35.25 195.95 d 34.79 197.36 d 33.84 197.82 d 32.89 197.36 d 32.43 195.95 d 32.43 194.05 d 32.89 192.64 d 33.84 192.18 d
 s 36.66 192.18 m 38.53 192.18 d 39.48 193.13 d 39.48 194.05 d 38.53 195.00 d 36.66 195.00 d 36.66 197.82 d 39.48 197.82 d s 42.30 192.18 m 43.25 192.64 d 43.71 194.05 d 43.71 195.95 d 43.25 197.36 d 42.30 197.82 d 41.35 197.36 d
 40.89 195.95 d 40.89 194.05 d 41.35 192.64 d 42.30 192.18 d s 46.53 195.00 m 49.35 195.00 d 49.35 211.18 d 47.80 211.18 d 49.35 211.18 d 49.35 227.36 d 47.80 227.36 d 46.53 227.36 d s 25.38 224.54 m 26.33 225.00 d 26.79 226.41 d
 26.79 228.31 d 26.33 229.72 d 25.38 230.18 d 24.43 229.72 d 23.97 228.31 d 23.97 226.41 d 24.43 225.00 d 25.38 224.54 d s 29.61 224.54 m 29.15 224.54 d 29.15 225.00 d 29.61 225.00 d 29.61 224.54 d s 33.84 224.54 m 34.79 225.00 d
 35.25 226.41 d 35.25 228.31 d 34.79 229.72 d 33.84 230.18 d 32.89 229.72 d 32.43 228.31 d 32.43 226.41 d 32.89 225.00 d 33.84 224.54 d s 37.12 227.36 m 38.53 227.36 d 39.48 226.41 d 39.48 225.49 d 38.53 224.54 d 37.61 224.54 d
 36.66 225.49 d 36.66 226.41 d 37.12 227.36 d 39.02 230.18 d s 42.30 224.54 m 43.25 225.00 d 43.71 226.41 d 43.71 228.31 d 43.25 229.72 d 42.30 230.18 d 41.35 229.72 d 40.89 228.31 d 40.89 226.41 d 41.35 225.00 d 42.30 224.54 d
 s 46.53 227.36 m 49.35 227.36 d 49.35 236.88 d s 373.65 25.38 m 373.65 33.21 d 375.20 33.21 d 376.47 33.21 d s 376.47 33.21 m 373.65 33.21 d 373.65 49.39 d 375.20 49.39 d 373.65 49.39 d 373.65 65.56 d 375.20 65.56 d 376.47 65.56 d
 s 376.47 65.56 m 373.65 65.56 d 373.65 81.74 d 375.20 81.74 d 373.65 81.74 d 373.65 97.92 d 375.20 97.92 d 376.47 97.92 d s 376.47 97.92 m 373.65 97.92 d 373.65 114.10 d 375.20 114.10 d 373.65 114.10 d 373.65 130.28 d 375.20 130.28 d
 376.47 130.28 d s 376.47 130.28 m 373.65 130.28 d 373.65 146.46 d 375.20 146.46 d 373.65 146.46 d 373.65 162.64 d 375.20 162.64 d 376.47 162.64 d s 376.47 162.64 m 373.65 162.64 d 373.65 178.82 d 375.20 178.82 d 373.65 178.82 d
 373.65 195.00 d 375.20 195.00 d 376.47 195.00 d s 376.47 195.00 m 373.65 195.00 d 373.65 211.18 d 375.20 211.18 d 373.65 211.18 d 373.65 227.36 d 375.20 227.36 d 376.47 227.36 d s 376.47 227.36 m 373.65 227.36 d 373.65 236.88 d
 s 1.0 0.0 0.0 setrgbcolor s 336.99 223.24 m 337.45 222.78 d 339.35 222.78 d 339.81 223.24 d 339.81 223.73 d 339.35 224.19 d 337.45 225.14 d 336.99 225.60 d 336.99 226.06 d 337.45 226.55 d 339.35 226.55 d 339.81 226.06 d s 341.22 226.55 m
 341.22 223.73 d 342.17 222.78 d 344.04 222.78 d 344.04 226.55 d s 345.45 222.78 m 345.45 226.55 d 347.32 226.55 d 347.32 222.78 d 347.32 226.55 d 348.27 226.55 d 349.22 225.60 d 349.22 222.78 d s 61.37 227.96 m 111.88 221.62 d
 153.90 215.27 d 188.83 208.96 d 217.92 202.65 d 242.10 196.34 d 262.22 190.03 d 278.93 183.76 d 292.86 177.52 d 304.42 171.28 d 314.04 165.04 d 322.04 158.91 d 328.71 152.77 d 334.24 146.75 d 338.86 140.79 d 342.70 134.97 d 345.87 129.26 d
 348.52 123.73 d 350.74 118.37 d 352.57 113.22 d 354.09 108.29 d 355.36 103.53 d 356.41 98.98 d 357.29 94.61 d 358.03 90.42 d 358.63 86.36 d 359.13 82.49 d 359.55 78.82 d 359.90 75.40 d 360.18 72.30 d 360.43 69.48 d 360.64 66.94 d
 360.82 64.72 d 360.96 62.78 d 361.07 61.05 d 361.17 59.50 d 361.24 58.09 d 361.31 56.86 d 361.35 55.66 d 361.42 54.57 d 361.45 53.51 d 361.49 52.52 d 361.52 51.54 d 361.52 50.55 d 361.56 49.60 d 361.56 48.65 d 361.56 47.73 d 361.59 46.78 d
 361.59 45.86 d 361.59 44.94 d 361.59 44.03 d 361.63 43.11 d 361.63 42.23 d 361.63 41.31 d 361.63 40.43 d 361.63 39.59 d 361.63 38.74 d 361.63 37.96 d 361.63 37.19 d 361.63 36.52 d 361.63 35.88 d 361.63 35.32 d 361.63 34.83 d 361.63 34.44 d
 361.63 34.12 d 361.63 33.88 d 361.63 33.70 d 361.63 33.56 d 361.63 33.45 d 361.63 33.38 d 361.63 33.35 d 361.63 33.31 d 361.63 33.28 d 361.63 33.24 d 361.63 33.21 d s 0.0 1.0 1.0 setrgbcolor s 61.37 226.90 m 62.78 226.73 d s 66.98 226.20 m
 68.38 226.02 d s 72.58 225.50 m 73.98 225.32 d s 78.17 224.79 m 79.57 224.62 d s 83.77 224.09 m 85.17 223.92 d s 89.36 223.39 m 90.76 223.21 d s 94.96 222.68 m 96.36 222.51 d s 100.56 221.98 m 101.96 221.81 d s 106.15 221.28 m
 107.55 221.10 d s 111.75 220.58 m 111.88 220.56 d 113.14 220.37 d s 117.33 219.74 m 118.72 219.53 d s 122.90 218.90 m 124.30 218.68 d s 128.48 218.05 m 129.87 217.84 d s 134.06 217.21 m 135.45 217.00 d s 139.63 216.37 m 141.03 216.16 d
 s 145.21 215.53 m 146.60 215.32 d s 150.79 214.68 m 152.18 214.47 d s 156.35 213.77 m 157.74 213.52 d s 161.90 212.77 m 163.29 212.52 d s 167.45 211.77 m 168.84 211.52 d s 173.00 210.76 m 174.39 210.51 d s 178.55 209.76 m 179.94 209.51 d
 s 184.10 208.76 m 185.49 208.51 d s 189.65 207.73 m 191.02 207.43 d s 195.16 206.53 m 196.54 206.23 d s 200.67 205.34 m 202.05 205.04 d s 206.18 204.14 m 207.56 203.84 d s 211.69 202.94 m 213.07 202.65 d s 217.21 201.75 m 217.92 201.59 d
 218.58 201.42 d s 222.67 200.35 m 224.03 200.00 d s 228.13 198.93 m 229.49 198.57 d s 233.58 197.51 m 234.95 197.15 d s 239.04 196.08 m 240.41 195.73 d s 244.47 194.55 m 245.81 194.13 d s 249.85 192.87 m 251.20 192.45 d s 255.24 191.19 m
 256.58 190.77 d s 260.62 189.51 m 261.97 189.09 d s 265.93 187.63 m 267.25 187.13 d s 271.22 185.65 m 272.54 185.16 d s 276.50 183.68 m 277.82 183.19 d s 281.71 181.52 m 282.99 180.94 d s 286.85 179.20 m 288.14 178.62 d s 291.99 176.89 m
 292.86 176.50 d 293.26 176.28 d s 297.00 174.29 m 298.24 173.62 d s 301.97 171.63 m 303.22 170.97 d s 306.83 168.77 m 308.01 168.01 d s 311.57 165.72 m 312.75 164.95 d s 316.19 162.49 m 317.31 161.63 d s 320.67 159.07 m 321.79 158.22 d
 s 324.94 155.39 m 325.98 154.44 d s 329.08 151.56 m 330.04 150.52 d s 332.91 147.42 m 333.86 146.38 d s 336.52 143.09 m 337.39 141.98 d s 339.89 138.57 m 340.67 137.40 d s 342.97 133.85 m 343.67 132.63 d s 345.75 128.95 m 345.87 128.73 d
 346.38 127.68 d s 348.22 123.88 m 348.52 123.27 d 348.80 122.59 d s 350.44 118.69 m 350.74 117.98 d 350.95 117.38 d s 352.38 113.40 m 352.57 112.87 d 352.82 112.06 d s 354.07 108.02 m 354.09 107.97 d 354.44 106.66 d s 355.52 102.57 m
 355.84 101.19 d s 356.76 97.06 m 357.04 95.68 d s 357.81 91.52 m 358.03 90.24 d 358.05 90.13 d s 358.67 85.95 m 358.85 84.55 d s 359.36 80.35 m 359.52 78.95 d s 359.96 74.74 m 360.08 73.34 d s 360.46 69.13 m 360.57 67.72 d s 360.90 63.50 m
 360.96 62.75 d 361.00 62.10 d s 361.25 57.88 m 361.31 56.82 d 361.32 56.47 d s 361.50 52.24 m 361.52 51.54 d 361.52 50.83 d s 361.59 46.60 m 361.59 45.86 d 361.59 45.19 d s 361.63 40.96 m 361.63 40.43 d 361.63 39.59 d 361.63 39.55 d
 s 361.63 35.32 m 361.63 35.32 d 361.63 34.83 d 361.63 34.44 d 361.63 34.12 d 361.63 33.91 d s 61.37 229.05 m 62.78 228.88 d s 66.98 228.35 m 68.38 228.17 d s 72.58 227.64 m 73.97 227.46 d s 78.17 226.93 m 79.57 226.76 d s 83.77 226.23 m
 85.17 226.05 d s 89.36 225.52 m 90.76 225.34 d s 94.96 224.81 m 96.36 224.64 d s 100.55 224.11 m 101.95 223.93 d s 106.15 223.40 m 107.55 223.22 d s 111.74 222.69 m 111.88 222.67 d 113.14 222.48 d s 117.32 221.85 m 118.72 221.64 d
 s 122.90 221.01 m 124.29 220.80 d s 128.47 220.17 m 129.87 219.96 d s 134.05 219.33 m 135.45 219.12 d s 139.63 218.48 m 141.02 218.27 d s 145.21 217.64 m 146.60 217.43 d s 150.78 216.80 m 152.18 216.59 d s 156.35 215.89 m 157.73 215.64 d
 s 161.90 214.89 m 163.28 214.63 d s 167.45 213.88 m 168.83 213.63 d s 173.00 212.88 m 174.39 212.63 d s 178.55 211.88 m 179.94 211.63 d s 184.10 210.87 m 185.49 210.62 d s 189.64 209.84 m 191.02 209.54 d s 195.15 208.64 m 196.53 208.34 d
 s 200.66 207.44 m 202.04 207.14 d s 206.17 206.24 m 207.55 205.94 d s 211.68 205.03 m 213.06 204.73 d s 217.19 203.83 m 217.92 203.67 d 218.57 203.51 d s 222.66 202.44 m 224.02 202.09 d s 228.12 201.03 m 229.48 200.67 d s 233.58 199.61 m
 234.94 199.26 d s 239.04 198.19 m 240.40 197.84 d s 244.46 196.66 m 245.81 196.24 d s 249.84 194.97 m 251.19 194.55 d s 255.23 193.28 m 256.57 192.86 d s 260.61 191.60 m 261.95 191.18 d s 265.92 189.70 m 267.24 189.20 d s 271.19 187.70 m
 272.51 187.21 d s 276.47 185.71 m 277.79 185.21 d s 281.67 183.55 m 282.96 182.97 d s 286.82 181.23 m 288.10 180.65 d s 291.96 178.91 m 292.86 178.51 d 293.23 178.30 d s 296.95 176.29 m 298.19 175.61 d s 301.90 173.60 m 303.14 172.92 d
 s 306.75 170.72 m 307.93 169.95 d s 311.48 167.65 m 312.67 166.88 d s 316.09 164.41 m 317.20 163.54 d s 320.55 160.95 m 321.66 160.09 d s 324.78 157.24 m 325.82 156.28 d s 328.90 153.38 m 329.85 152.34 d s 332.70 149.21 m 333.65 148.17 d
 s 336.28 144.86 m 337.14 143.74 d s 339.62 140.32 m 340.39 139.14 d s 342.69 135.59 m 342.70 135.57 d 343.37 134.35 d s 345.40 130.65 m 345.87 129.79 d 346.06 129.40 d s 347.86 125.57 m 348.46 124.30 d s 350.07 120.38 m 350.61 119.08 d
 s 352.02 115.09 m 352.49 113.76 d s 353.74 109.72 m 354.09 108.57 d 354.14 108.37 d s 355.22 104.28 m 355.36 103.78 d 355.55 102.91 d s 356.49 98.79 m 356.77 97.40 d s 357.57 93.25 m 357.81 91.86 d s 358.46 87.68 m 358.63 86.50 d
 358.66 86.29 d s 359.18 82.09 m 359.35 80.69 d s 359.80 76.48 m 359.90 75.47 d 359.94 75.08 d s 360.31 70.87 m 360.43 69.51 d 360.44 69.46 d s 360.78 65.25 m 360.82 64.75 d 360.88 63.84 d s 361.16 59.62 m 361.17 59.50 d 361.24 58.21 d
 s 361.44 53.99 m 361.45 53.51 d 361.49 52.58 d s 361.56 48.35 m 361.56 47.73 d 361.59 46.94 d s 361.63 42.71 m 361.63 42.23 d 361.63 41.31 d s 361.63 37.07 m 361.63 36.52 d 361.63 35.88 d 361.63 35.66 d s 0.0 1.0 0.0 setrgbcolor
 s 303.15 211.50 m 325.71 211.50 d s 336.99 214.32 m 336.99 209.14 d 337.45 208.68 d 337.94 208.68 d s 339.35 210.55 m 342.17 210.55 d 342.17 211.50 d 341.22 212.45 d 340.27 212.45 d 339.35 211.50 d 339.35 209.63 d 340.27 208.68 d
 342.17 208.68 d s 343.58 208.68 m 345.45 208.68 d 346.40 209.63 d 346.40 211.50 d 345.45 212.45 d 343.58 212.45 d 343.58 207.27 d s 61.37 136.52 m 111.88 133.77 d 153.90 130.99 d 188.83 128.20 d 217.92 125.45 d 242.10 122.67 d
 262.22 119.92 d 278.93 117.17 d 292.86 114.42 d 304.42 111.67 d 314.04 108.96 d 322.04 106.28 d 328.71 103.60 d 334.24 100.96 d 338.86 98.38 d 342.70 95.84 d 345.87 93.38 d 348.52 90.98 d 350.74 88.69 d 352.57 86.47 d 354.09 84.32 d
 355.36 82.27 d 356.41 80.26 d 357.29 78.33 d 358.03 76.39 d 358.63 74.52 d 359.13 72.69 d 359.55 70.92 d 359.90 69.16 d 360.18 67.47 d 360.43 65.85 d 360.64 64.26 d 360.82 62.78 d 360.96 61.37 d 361.07 60.03 d 361.17 58.80 d 361.24 57.60 d
 361.31 56.51 d 361.35 55.41 d 361.42 54.39 d 361.45 53.40 d 361.49 52.42 d 361.52 51.46 d 361.52 50.51 d 361.56 49.56 d 361.56 48.65 d 361.56 47.69 d 361.59 46.78 d 361.59 45.86 d 361.59 44.94 d 361.59 44.03 d 361.63 43.11 d 361.63 42.23 d
 361.63 41.31 d 361.63 40.43 d 361.63 39.59 d 361.63 38.74 d 361.63 37.96 d 361.63 37.19 d 361.63 36.52 d 361.63 35.88 d 361.63 35.32 d 361.63 34.83 d 361.63 34.44 d 361.63 34.12 d 361.63 33.88 d 361.63 33.70 d 361.63 33.56 d 361.63 33.45 d
 361.63 33.38 d 361.63 33.35 d 361.63 33.31 d 361.63 33.28 d 361.63 33.24 d 361.63 33.21 d s 0.0 0.0 1.0 setrgbcolor s 303.15 197.40 m 304.57 197.40 d s 308.80 197.40 m 310.21 197.40 d s 314.44 197.40 m 315.85 197.40 d s 320.08 197.40 m
 321.49 197.40 d s 336.99 200.22 m 336.99 194.58 d 336.99 198.35 d 338.86 198.35 d 339.81 197.40 d 339.81 194.58 d s 344.04 196.45 m 341.68 196.45 d 341.22 195.99 d 341.22 195.04 d 341.68 194.58 d 344.04 194.58 d 344.04 197.86 d
 343.58 198.35 d 341.68 198.35 d s 348.27 198.35 m 346.40 198.35 d 345.45 197.40 d 345.45 195.53 d 346.40 194.58 d 348.27 194.58 d 348.27 200.22 d s 352.04 200.22 m 351.55 199.76 d 351.09 198.35 d 351.09 196.45 d 351.55 195.04 d
 352.04 194.58 d s 353.91 194.58 m 355.78 194.58 d 356.73 195.53 d 356.73 196.45 d 355.78 197.40 d 353.91 197.40 d 353.91 200.22 d 356.73 200.22 d s 359.09 200.22 m 359.55 199.76 d 360.01 198.35 d 360.01 196.45 d 359.55 195.04 d
 359.09 194.58 d s 61.37 124.64 m 62.79 124.54 d s 67.01 124.25 m 68.42 124.15 d s 72.64 123.85 m 74.04 123.75 d s 78.26 123.45 m 79.67 123.35 d s 83.89 123.06 m 85.30 122.96 d s 89.51 122.66 m 90.92 122.56 d s 95.14 122.26 m 96.55 122.16 d
 s 100.77 121.87 m 102.17 121.77 d s 106.39 121.47 m 107.80 121.37 d s 112.02 121.07 m 113.42 120.95 d s 117.64 120.59 m 119.04 120.47 d s 123.26 120.11 m 124.66 119.99 d s 128.88 119.63 m 130.28 119.51 d s 134.50 119.15 m 135.90 119.03 d
 s 140.12 118.67 m 141.52 118.55 d s 145.74 118.19 m 147.14 118.07 d s 151.35 117.71 m 152.76 117.59 d s 156.97 117.18 m 158.37 117.04 d s 162.58 116.61 m 163.98 116.47 d s 168.19 116.05 m 169.60 115.90 d s 173.80 115.48 m 175.21 115.34 d
 s 179.42 114.91 m 180.82 114.77 d s 185.03 114.35 m 186.43 114.21 d s 190.63 113.74 m 192.03 113.57 d s 196.23 113.06 m 197.63 112.89 d s 201.83 112.37 m 203.23 112.20 d s 207.43 111.69 m 208.83 111.52 d s 213.03 111.00 m 214.43 110.83 d
 s 218.62 110.30 m 220.02 110.10 d s 224.20 109.49 m 225.60 109.28 d s 229.79 108.67 m 231.18 108.47 d s 235.37 107.86 m 236.76 107.66 d s 240.95 107.05 m 242.10 106.88 d 242.34 106.83 d s 246.51 106.10 m 247.90 105.85 d s 252.06 105.12 m
 253.45 104.87 d s 257.61 104.13 m 259.00 103.89 d s 263.16 103.12 m 264.54 102.83 d s 268.68 101.97 m 270.06 101.68 d s 274.20 100.82 m 275.58 100.53 d s 279.72 99.63 m 281.08 99.28 d s 285.19 98.25 m 286.55 97.90 d s 290.65 96.86 m
 292.02 96.52 d s 296.08 95.33 m 297.43 94.92 d s 301.48 93.70 m 302.83 93.29 d s 306.83 91.93 m 308.16 91.44 d s 312.13 89.99 m 313.45 89.50 d s 317.35 87.87 m 318.65 87.32 d s 322.52 85.62 m 323.77 84.97 d s 327.53 83.02 m 328.71 82.41 d
 328.78 82.37 d s 332.38 80.15 m 333.58 79.41 d s 337.03 76.97 m 338.17 76.14 d s 341.42 73.44 m 342.49 72.52 d s 345.46 69.51 m 345.87 69.09 d 346.40 68.46 d s 349.07 65.18 m 349.90 64.04 d s 352.23 60.51 m 352.57 59.96 d 352.93 59.29 d
 s 354.85 55.52 m 355.36 54.46 d 355.45 54.24 d s 357.01 50.31 m 357.29 49.53 d 357.47 48.98 d s 358.66 44.92 m 358.99 43.55 d s 359.91 39.42 m 360.18 38.04 d s 361.17 33.93 m 361.17 33.91 d 361.24 33.70 d 361.31 33.56 d 361.35 33.45 d
 361.42 33.38 d 361.45 33.35 d 361.49 33.31 d 361.52 33.28 d 361.52 33.24 d 361.56 33.24 d 361.59 33.21 d 361.63 33.21 d s 1.0 0.0 1.0 setrgbcolor s 303.15 183.30 m 308.80 183.30 d s 314.44 183.30 m 320.08 183.30 d s 337.45 185.66 m
 337.45 180.48 d 337.45 184.25 d 336.99 184.25 d 338.40 184.25 d s 340.76 180.48 m 341.68 180.48 d 342.63 181.43 d 342.63 183.30 d 341.68 184.25 d 340.76 184.25 d 339.81 183.30 d 339.81 181.43 d 340.76 180.48 d s 344.04 180.48 m
 345.91 180.48 d 346.86 181.43 d 346.86 183.30 d 345.91 184.25 d 344.04 184.25 d 344.04 179.07 d s 61.37 33.42 m 67.02 33.41 d s 72.66 33.40 m 78.30 33.39 d s 83.94 33.39 m 89.58 33.38 d s 95.22 33.37 m 100.86 33.36 d s 106.50 33.35 m
 111.88 33.35 d 112.14 33.35 d s 117.78 33.34 m 123.42 33.34 d s 129.06 33.33 m 134.70 33.33 d s 140.34 33.32 m 145.98 33.32 d s 151.62 33.31 m 153.90 33.31 d 157.26 33.31 d s 162.90 33.30 m 168.54 33.30 d s 174.18 33.29 m 179.82 33.29 d
 s 185.46 33.28 m 188.83 33.28 d 191.10 33.28 d s 196.74 33.28 m 202.38 33.28 d s 208.02 33.28 m 213.66 33.28 d s 219.30 33.27 m 224.94 33.27 d s 230.58 33.26 m 236.22 33.25 d s 241.86 33.24 m 242.10 33.24 d 247.50 33.24 d s 253.14 33.24 m
 258.78 33.24 d s 264.42 33.24 m 270.06 33.24 d s 275.70 33.24 m 278.93 33.24 d 281.34 33.24 d s 286.98 33.24 m 292.62 33.24 d s 298.26 33.22 m 303.90 33.21 d s 309.54 33.21 m 314.04 33.21 d 315.18 33.21 d s 320.82 33.21 m 322.04 33.21 d
 326.46 33.21 d s 332.10 33.21 m 334.24 33.21 d 337.74 33.21 d s 343.38 33.21 m 345.87 33.21 d 348.52 33.21 d 349.02 33.21 d s 354.66 33.21 m 355.36 33.21 d 356.41 33.21 d 357.29 33.21 d 358.03 33.21 d 358.63 33.21 d 359.13 33.21 d
 359.55 33.21 d 359.90 33.21 d 360.18 33.21 d 360.30 33.21 d s 1.0 1.0 1.0 setrgbcolor s 0.16  setlinewidth s 0.00 0.00 m 382.11 0.00 d 382.11 245.34 d 0.00 245.34 d 0.00 0.00 d
 s grestore
