%!PS-Adobe-1.0 EPSF-1.0
%%BoundingBox:       0.00       0.00     382.11     245.34
 /m {moveto} def /d {lineto} def /s {stroke newpath} def gsave newpath 1 setlinecap 1 setlinejoin
 s 0.0 0.0 0.0 setrgbcolor s 0.47  setlinewidth s 9.87 124.26 m 2.82 126.94 d 9.87 129.61 d 9.87 124.26 d s 9.87 136.66 m 9.87 136.35 d 9.52 135.99 d 8.85 135.68 d 6.17 135.01 d 5.50 134.66 d 5.18 134.30 d 5.18 133.63 d 5.50 132.96 d
 6.17 132.29 d 6.84 131.98 d 7.86 131.62 d 8.85 131.62 d 9.52 131.98 d 9.87 132.65 d 9.87 133.32 d 9.52 133.99 d 8.53 135.01 d 7.51 135.68 d 6.17 136.35 d 5.18 136.66 d s 1.0 0.0 0.0 setrgbcolor s 303.15 211.50 m 325.71 211.50 d
 s 0.0 0.0 0.0 setrgbcolor s 49.35 25.38 m 61.37 25.38 d 61.37 23.83 d 61.37 22.56 d s 56.44 14.10 m 57.35 14.56 d 57.85 15.97 d 57.85 17.87 d 57.35 19.28 d 56.44 19.74 d 55.48 19.28 d 55.03 17.87 d 55.03 15.97 d 55.48 14.56 d 56.44 14.10 d
 s 60.67 14.10 m 60.17 14.10 d 60.17 14.56 d 60.67 14.56 d 60.67 14.10 d s 64.90 14.10 m 65.81 14.56 d 66.31 15.97 d 66.31 17.87 d 65.81 19.28 d 64.90 19.74 d 63.94 19.28 d 63.49 17.87 d 63.49 15.97 d 63.94 14.56 d 64.90 14.10 d
 s 61.37 22.56 m 61.37 25.38 d 79.42 25.38 d 79.42 23.83 d 79.42 25.38 d 97.47 25.38 d 97.47 23.83 d 97.47 22.56 d s 89.96 17.87 m 91.37 19.74 d 91.37 14.10 d s 94.65 14.10 m 95.60 14.56 d 96.06 15.97 d 96.06 17.87 d 95.60 19.28 d
 94.65 19.74 d 93.69 19.28 d 93.24 17.87 d 93.24 15.97 d 93.69 14.56 d 94.65 14.10 d s 98.88 14.10 m 98.42 14.10 d 98.42 14.56 d 98.88 14.56 d 98.88 14.10 d s 103.11 14.10 m 104.06 14.56 d 104.52 15.97 d 104.52 17.87 d 104.06 19.28 d
 103.11 19.74 d 102.15 19.28 d 101.70 17.87 d 101.70 15.97 d 102.15 14.56 d 103.11 14.10 d s 97.47 22.56 m 97.47 25.38 d 115.51 25.38 d 115.51 23.83 d 115.51 25.38 d 133.56 25.38 d 133.56 23.83 d 133.56 22.56 d s 125.10 18.79 m
 126.05 19.74 d 126.97 19.74 d 127.92 18.79 d 127.92 17.87 d 127.46 16.92 d 125.10 14.10 d 127.92 14.10 d s 130.74 14.10 m 131.69 14.56 d 132.15 15.97 d 132.15 17.87 d 131.69 19.28 d 130.74 19.74 d 129.79 19.28 d 129.33 17.87 d
 129.33 15.97 d 129.79 14.56 d 130.74 14.10 d s 134.97 14.10 m 134.51 14.10 d 134.51 14.56 d 134.97 14.56 d 134.97 14.10 d s 139.20 14.10 m 140.15 14.56 d 140.61 15.97 d 140.61 17.87 d 140.15 19.28 d 139.20 19.74 d 138.25 19.28 d
 137.79 17.87 d 137.79 15.97 d 138.25 14.56 d 139.20 14.10 d s 133.56 22.56 m 133.56 25.38 d 151.61 25.38 d 151.61 23.83 d 151.61 25.38 d 169.66 25.38 d 169.66 23.83 d 169.66 22.56 d s 161.20 19.74 m 163.10 19.74 d 164.02 18.79 d
 164.02 17.87 d 163.10 16.92 d 162.15 16.92 d 163.10 16.92 d 164.02 15.97 d 164.02 15.05 d 163.10 14.10 d 161.20 14.10 d s 166.84 14.10 m 167.79 14.56 d 168.25 15.97 d 168.25 17.87 d 167.79 19.28 d 166.84 19.74 d 165.92 19.28 d
 165.43 17.87 d 165.43 15.97 d 165.92 14.56 d 166.84 14.10 d s 171.07 14.10 m 170.61 14.10 d 170.61 14.56 d 171.07 14.56 d 171.07 14.10 d s 175.30 14.10 m 176.25 14.56 d 176.71 15.97 d 176.71 17.87 d 176.25 19.28 d 175.30 19.74 d
 174.38 19.28 d 173.89 17.87 d 173.89 15.97 d 174.38 14.56 d 175.30 14.10 d s 169.66 22.56 m 169.66 25.38 d 187.71 25.38 d 187.71 23.83 d 187.71 25.38 d 205.75 25.38 d 205.75 23.83 d 205.75 22.56 d s 198.70 19.74 m 197.29 15.51 d
 200.11 15.51 d 199.20 15.51 d 199.20 16.92 d 199.20 14.10 d s 202.93 14.10 m 203.89 14.56 d 204.34 15.97 d 204.34 17.87 d 203.89 19.28 d 202.93 19.74 d 202.02 19.28 d 201.52 17.87 d 201.52 15.97 d 202.02 14.56 d 202.93 14.10 d
 s 207.16 14.10 m 206.71 14.10 d 206.71 14.56 d 207.16 14.56 d 207.16 14.10 d s 211.39 14.10 m 212.35 14.56 d 212.80 15.97 d 212.80 17.87 d 212.35 19.28 d 211.39 19.74 d 210.48 19.28 d 209.98 17.87 d 209.98 15.97 d 210.48 14.56 d
 211.39 14.10 d s 205.75 22.56 m 205.75 25.38 d 223.80 25.38 d 223.80 23.83 d 223.80 25.38 d 241.89 25.38 d 241.89 23.83 d 241.89 22.56 d s 233.43 14.10 m 235.29 14.10 d 236.25 15.05 d 236.25 15.97 d 235.29 16.92 d 233.43 16.92 d
 233.43 19.74 d 236.25 19.74 d s 239.07 14.10 m 239.98 14.56 d 240.48 15.97 d 240.48 17.87 d 239.98 19.28 d 239.07 19.74 d 238.11 19.28 d 237.66 17.87 d 237.66 15.97 d 238.11 14.56 d 239.07 14.10 d s 243.30 14.10 m 242.80 14.10 d
 242.80 14.56 d 243.30 14.56 d 243.30 14.10 d s 247.53 14.10 m 248.44 14.56 d 248.94 15.97 d 248.94 17.87 d 248.44 19.28 d 247.53 19.74 d 246.57 19.28 d 246.12 17.87 d 246.12 15.97 d 246.57 14.56 d 247.53 14.10 d s 241.89 22.56 m
 241.89 25.38 d 259.93 25.38 d 259.93 23.83 d 259.93 25.38 d 277.98 25.38 d 277.98 23.83 d 277.98 22.56 d s 269.98 16.92 m 271.39 16.92 d 272.34 15.97 d 272.34 15.05 d 271.39 14.10 d 270.44 14.10 d 269.52 15.05 d 269.52 15.97 d
 269.98 16.92 d 271.85 19.74 d s 275.16 14.10 m 276.08 14.56 d 276.57 15.97 d 276.57 17.87 d 276.08 19.28 d 275.16 19.74 d 274.21 19.28 d 273.75 17.87 d 273.75 15.97 d 274.21 14.56 d 275.16 14.10 d s 279.39 14.10 m 278.90 14.10 d
 278.90 14.56 d 279.39 14.56 d 279.39 14.10 d s 283.62 14.10 m 284.54 14.56 d 285.03 15.97 d 285.03 17.87 d 284.54 19.28 d 283.62 19.74 d 282.67 19.28 d 282.21 17.87 d 282.21 15.97 d 282.67 14.56 d 283.62 14.10 d s 277.98 22.56 m
 277.98 25.38 d 296.03 25.38 d 296.03 23.83 d 296.03 25.38 d 314.08 25.38 d 314.08 23.83 d 314.08 22.56 d s 305.62 19.74 m 308.44 19.74 d 305.62 14.10 d 307.03 16.92 d 306.53 16.92 d 307.49 16.92 d s 311.26 14.10 m 312.17 14.56 d
 312.67 15.97 d 312.67 17.87 d 312.17 19.28 d 311.26 19.74 d 310.31 19.28 d 309.85 17.87 d 309.85 15.97 d 310.31 14.56 d 311.26 14.10 d s 315.49 14.10 m 314.99 14.10 d 314.99 14.56 d 315.49 14.56 d 315.49 14.10 d s 319.72 14.10 m
 320.63 14.56 d 321.13 15.97 d 321.13 17.87 d 320.63 19.28 d 319.72 19.74 d 318.77 19.28 d 318.31 17.87 d 318.31 15.97 d 318.77 14.56 d 319.72 14.10 d s 314.08 22.56 m 314.08 25.38 d 332.13 25.38 d 332.13 23.83 d 332.13 25.38 d
 350.17 25.38 d 350.17 23.83 d 350.17 22.56 d s 342.67 16.92 m 341.71 17.87 d 341.71 18.79 d 342.67 19.74 d 343.58 19.74 d 344.53 18.79 d 344.53 17.87 d 343.58 16.92 d 342.67 16.92 d 341.71 15.97 d 341.71 15.05 d 342.67 14.10 d
 343.58 14.10 d 344.53 15.05 d 344.53 15.97 d 343.58 16.92 d s 347.35 14.10 m 348.31 14.56 d 348.76 15.97 d 348.76 17.87 d 348.31 19.28 d 347.35 19.74 d 346.40 19.28 d 345.94 17.87 d 345.94 15.97 d 346.40 14.56 d 347.35 14.10 d
 s 351.58 14.10 m 351.13 14.10 d 351.13 14.56 d 351.58 14.56 d 351.58 14.10 d s 355.81 14.10 m 356.77 14.56 d 357.22 15.97 d 357.22 17.87 d 356.77 19.28 d 355.81 19.74 d 354.86 19.28 d 354.40 17.87 d 354.40 15.97 d 354.86 14.56 d
 355.81 14.10 d s 350.17 22.56 m 350.17 25.38 d 368.22 25.38 d 368.22 23.83 d 368.22 25.38 d 373.65 25.38 d s 198.56 2.82 m 195.74 2.82 d 195.74 8.46 d 198.56 8.46 d 195.74 8.46 d 195.74 5.64 d 197.15 5.64 d s 206.57 8.46 m 206.11 8.00 d
 205.61 6.59 d 205.61 4.69 d 206.11 3.28 d 206.57 2.82 d s 208.43 2.82 m 208.43 8.46 d 210.34 5.64 d 212.20 8.46 d 212.20 2.82 d s 213.62 4.69 m 216.44 4.69 d 216.44 5.64 d 215.48 6.59 d 214.57 6.59 d 213.62 5.64 d 213.62 3.77 d
 214.57 2.82 d 216.44 2.82 d s 217.85 8.46 m 219.71 2.82 d 221.62 8.46 d s 223.94 8.46 m 224.44 8.00 d 224.90 6.59 d 224.90 4.69 d 224.44 3.28 d 223.94 2.82 d s 49.35 236.88 m 61.37 236.88 d 61.37 238.43 d 61.37 239.70 d s 61.37 239.70 m
 61.37 236.88 d 79.42 236.88 d 79.42 238.43 d 79.42 236.88 d 97.47 236.88 d 97.47 238.43 d 97.47 239.70 d s 97.47 239.70 m 97.47 236.88 d 115.51 236.88 d 115.51 238.43 d 115.51 236.88 d 133.56 236.88 d 133.56 238.43 d 133.56 239.70 d
 s 133.56 239.70 m 133.56 236.88 d 151.61 236.88 d 151.61 238.43 d 151.61 236.88 d 169.66 236.88 d 169.66 238.43 d 169.66 239.70 d s 169.66 239.70 m 169.66 236.88 d 187.71 236.88 d 187.71 238.43 d 187.71 236.88 d 205.75 236.88 d
 205.75 238.43 d 205.75 239.70 d s 205.75 239.70 m 205.75 236.88 d 223.80 236.88 d 223.80 238.43 d 223.80 236.88 d 241.89 236.88 d 241.89 238.43 d 241.89 239.70 d s 241.89 239.70 m 241.89 236.88 d 259.93 236.88 d 259.93 238.43 d
 259.93 236.88 d 277.98 236.88 d 277.98 238.43 d 277.98 239.70 d s 277.98 239.70 m 277.98 236.88 d 296.03 236.88 d 296.03 238.43 d 296.03 236.88 d 314.08 236.88 d 314.08 238.43 d 314.08 239.70 d s 314.08 239.70 m 314.08 236.88 d
 332.13 236.88 d 332.13 238.43 d 332.13 236.88 d 350.17 236.88 d 350.17 238.43 d 350.17 239.70 d s 350.17 239.70 m 350.17 236.88 d 368.22 236.88 d 368.22 238.43 d 368.22 236.88 d 373.65 236.88 d s 49.35 25.38 m 49.35 33.42 d 47.80 33.42 d
 46.53 33.42 d s 20.20 33.42 m 22.10 33.42 d s 25.38 30.60 m 26.33 31.06 d 26.79 32.47 d 26.79 34.37 d 26.33 35.78 d 25.38 36.24 d 24.43 35.78 d 23.97 34.37 d 23.97 32.47 d 24.43 31.06 d 25.38 30.60 d s 29.61 30.60 m 29.15 30.60 d
 29.15 31.06 d 29.61 31.06 d 29.61 30.60 d s 33.84 30.60 m 34.79 31.06 d 35.25 32.47 d 35.25 34.37 d 34.79 35.78 d 33.84 36.24 d 32.89 35.78 d 32.43 34.37 d 32.43 32.47 d 32.89 31.06 d 33.84 30.60 d s 37.61 34.37 m 39.02 36.24 d
 39.02 30.60 d s 42.30 30.60 m 43.25 31.06 d 43.71 32.47 d 43.71 34.37 d 43.25 35.78 d 42.30 36.24 d 41.35 35.78 d 40.89 34.37 d 40.89 32.47 d 41.35 31.06 d 42.30 30.60 d s 46.53 33.42 m 49.35 33.42 d 49.35 47.69 d 47.80 47.69 d
 49.35 47.69 d 49.35 61.97 d 47.80 61.97 d 46.53 61.97 d s 25.38 59.15 m 26.33 59.61 d 26.79 61.02 d 26.79 62.92 d 26.33 64.33 d 25.38 64.79 d 24.43 64.33 d 23.97 62.92 d 23.97 61.02 d 24.43 59.61 d 25.38 59.15 d s 29.61 59.15 m
 29.15 59.15 d 29.15 59.61 d 29.61 59.61 d 29.61 59.15 d s 33.84 59.15 m 34.79 59.61 d 35.25 61.02 d 35.25 62.92 d 34.79 64.33 d 33.84 64.79 d 32.89 64.33 d 32.43 62.92 d 32.43 61.02 d 32.89 59.61 d 33.84 59.15 d s 38.07 59.15 m
 39.02 59.61 d 39.48 61.02 d 39.48 62.92 d 39.02 64.33 d 38.07 64.79 d 37.12 64.33 d 36.66 62.92 d 36.66 61.02 d 37.12 59.61 d 38.07 59.15 d s 42.30 59.15 m 43.25 59.61 d 43.71 61.02 d 43.71 62.92 d 43.25 64.33 d 42.30 64.79 d 41.35 64.33 d
 40.89 62.92 d 40.89 61.02 d 41.35 59.61 d 42.30 59.15 d s 46.53 61.97 m 49.35 61.97 d 49.35 76.25 d 47.80 76.25 d 49.35 76.25 d 49.35 90.52 d 47.80 90.52 d 46.53 90.52 d s 25.38 87.70 m 26.33 88.20 d 26.79 89.61 d 26.79 91.47 d
 26.33 92.88 d 25.38 93.34 d 24.43 92.88 d 23.97 91.47 d 23.97 89.61 d 24.43 88.20 d 25.38 87.70 d s 29.61 87.70 m 29.15 87.70 d 29.15 88.20 d 29.61 88.20 d 29.61 87.70 d s 33.84 87.70 m 34.79 88.20 d 35.25 89.61 d 35.25 91.47 d
 34.79 92.88 d 33.84 93.34 d 32.89 92.88 d 32.43 91.47 d 32.43 89.61 d 32.89 88.20 d 33.84 87.70 d s 37.61 91.47 m 39.02 93.34 d 39.02 87.70 d s 42.30 87.70 m 43.25 88.20 d 43.71 89.61 d 43.71 91.47 d 43.25 92.88 d 42.30 93.34 d
 41.35 92.88 d 40.89 91.47 d 40.89 89.61 d 41.35 88.20 d 42.30 87.70 d s 46.53 90.52 m 49.35 90.52 d 49.35 104.83 d 47.80 104.83 d 49.35 104.83 d 49.35 119.11 d 47.80 119.11 d 46.53 119.11 d s 25.38 116.29 m 26.33 116.75 d 26.79 118.16 d
 26.79 120.03 d 26.33 121.44 d 25.38 121.93 d 24.43 121.44 d 23.97 120.03 d 23.97 118.16 d 24.43 116.75 d 25.38 116.29 d s 29.61 116.29 m 29.15 116.29 d 29.15 116.75 d 29.61 116.75 d 29.61 116.29 d s 33.84 116.29 m 34.79 116.75 d
 35.25 118.16 d 35.25 120.03 d 34.79 121.44 d 33.84 121.93 d 32.89 121.44 d 32.43 120.03 d 32.43 118.16 d 32.89 116.75 d 33.84 116.29 d s 36.66 120.98 m 37.61 121.93 d 38.53 121.93 d 39.48 120.98 d 39.48 120.03 d 39.02 119.11 d
 36.66 116.29 d 39.48 116.29 d s 42.30 116.29 m 43.25 116.75 d 43.71 118.16 d 43.71 120.03 d 43.25 121.44 d 42.30 121.93 d 41.35 121.44 d 40.89 120.03 d 40.89 118.16 d 41.35 116.75 d 42.30 116.29 d s 46.53 119.11 m 49.35 119.11 d
 49.35 133.39 d 47.80 133.39 d 49.35 133.39 d 49.35 147.66 d 47.80 147.66 d 46.53 147.66 d s 25.38 144.84 m 26.33 145.30 d 26.79 146.71 d 26.79 148.61 d 26.33 150.02 d 25.38 150.48 d 24.43 150.02 d 23.97 148.61 d 23.97 146.71 d
 24.43 145.30 d 25.38 144.84 d s 29.61 144.84 m 29.15 144.84 d 29.15 145.30 d 29.61 145.30 d 29.61 144.84 d s 33.84 144.84 m 34.79 145.30 d 35.25 146.71 d 35.25 148.61 d 34.79 150.02 d 33.84 150.48 d 32.89 150.02 d 32.43 148.61 d
 32.43 146.71 d 32.89 145.30 d 33.84 144.84 d s 36.66 150.48 m 38.53 150.48 d 39.48 149.53 d 39.48 148.61 d 38.53 147.66 d 37.61 147.66 d 38.53 147.66 d 39.48 146.71 d 39.48 145.79 d 38.53 144.84 d 36.66 144.84 d s 42.30 144.84 m
 43.25 145.30 d 43.71 146.71 d 43.71 148.61 d 43.25 150.02 d 42.30 150.48 d 41.35 150.02 d 40.89 148.61 d 40.89 146.71 d 41.35 145.30 d 42.30 144.84 d s 46.53 147.66 m 49.35 147.66 d 49.35 161.94 d 47.80 161.94 d 49.35 161.94 d
 49.35 176.21 d 47.80 176.21 d 46.53 176.21 d s 25.38 173.39 m 26.33 173.85 d 26.79 175.26 d 26.79 177.17 d 26.33 178.58 d 25.38 179.03 d 24.43 178.58 d 23.97 177.17 d 23.97 175.26 d 24.43 173.85 d 25.38 173.39 d s 29.61 173.39 m
 29.15 173.39 d 29.15 173.85 d 29.61 173.85 d 29.61 173.39 d s 33.84 173.39 m 34.79 173.85 d 35.25 175.26 d 35.25 177.17 d 34.79 178.58 d 33.84 179.03 d 32.89 178.58 d 32.43 177.17 d 32.43 175.26 d 32.89 173.85 d 33.84 173.39 d
 s 38.07 179.03 m 36.66 174.80 d 39.48 174.80 d 38.53 174.80 d 38.53 176.21 d s 38.53 176.21 m 38.53 173.39 d s 42.30 173.39 m 43.25 173.85 d 43.71 175.26 d 43.71 177.17 d 43.25 178.58 d 42.30 179.03 d 41.35 178.58 d 40.89 177.17 d
 40.89 175.26 d 41.35 173.85 d 42.30 173.39 d s 46.53 176.21 m 49.35 176.21 d 49.35 190.49 d 47.80 190.49 d 49.35 190.49 d 49.35 204.77 d 47.80 204.77 d 46.53 204.77 d s 25.38 201.95 m 26.33 202.44 d 26.79 203.85 d 26.79 205.72 d
 26.33 207.13 d 25.38 207.59 d 24.43 207.13 d 23.97 205.72 d 23.97 203.85 d 24.43 202.44 d 25.38 201.95 d s 29.61 201.95 m 29.15 201.95 d 29.15 202.44 d 29.61 202.44 d 29.61 201.95 d s 33.84 201.95 m 34.79 202.44 d 35.25 203.85 d
 35.25 205.72 d 34.79 207.13 d 33.84 207.59 d 32.89 207.13 d 32.43 205.72 d 32.43 203.85 d 32.89 202.44 d 33.84 201.95 d s 36.66 201.95 m 38.53 201.95 d 39.48 202.90 d 39.48 203.85 d 38.53 204.77 d 36.66 204.77 d 36.66 207.59 d
 39.48 207.59 d s 42.30 201.95 m 43.25 202.44 d 43.71 203.85 d 43.71 205.72 d 43.25 207.13 d 42.30 207.59 d 41.35 207.13 d 40.89 205.72 d 40.89 203.85 d 41.35 202.44 d 42.30 201.95 d s 46.53 204.77 m 49.35 204.77 d 49.35 219.08 d
 47.80 219.08 d 49.35 219.08 d 49.35 233.36 d 47.80 233.36 d 46.53 233.36 d s 25.38 230.53 m 26.33 230.99 d 26.79 232.40 d 26.79 234.27 d 26.33 235.68 d 25.38 236.18 d 24.43 235.68 d 23.97 234.27 d 23.97 232.40 d 24.43 230.99 d
 25.38 230.53 d s 29.61 230.53 m 29.15 230.53 d 29.15 230.99 d 29.61 230.99 d 29.61 230.53 d s 33.84 230.53 m 34.79 230.99 d 35.25 232.40 d 35.25 234.27 d 34.79 235.68 d 33.84 236.18 d 32.89 235.68 d 32.43 234.27 d 32.43 232.40 d
 32.89 230.99 d 33.84 230.53 d s 37.12 233.36 m 38.53 233.36 d 39.48 232.40 d 39.48 231.45 d 38.53 230.53 d 37.61 230.53 d 36.66 231.45 d 36.66 232.40 d 37.12 233.36 d 39.02 236.18 d s 42.30 230.53 m 43.25 230.99 d 43.71 232.40 d
 43.71 234.27 d 43.25 235.68 d 42.30 236.18 d 41.35 235.68 d 40.89 234.27 d 40.89 232.40 d 41.35 230.99 d 42.30 230.53 d s 46.53 233.36 m 49.35 233.36 d 49.35 236.88 d s 373.65 25.38 m 373.65 33.42 d 375.20 33.42 d 376.47 33.42 d
 s 376.47 33.42 m 373.65 33.42 d 373.65 47.69 d 375.20 47.69 d 373.65 47.69 d 373.65 61.97 d 375.20 61.97 d 376.47 61.97 d s 376.47 61.97 m 373.65 61.97 d 373.65 76.25 d 375.20 76.25 d 373.65 76.25 d 373.65 90.52 d 375.20 90.52 d
 376.47 90.52 d s 376.47 90.52 m 373.65 90.52 d 373.65 104.83 d 375.20 104.83 d 373.65 104.83 d 373.65 119.11 d 375.20 119.11 d 376.47 119.11 d s 376.47 119.11 m 373.65 119.11 d 373.65 133.39 d 375.20 133.39 d 373.65 133.39 d
 373.65 147.66 d 375.20 147.66 d 376.47 147.66 d s 376.47 147.66 m 373.65 147.66 d 373.65 161.94 d 375.20 161.94 d 373.65 161.94 d 373.65 176.21 d 375.20 176.21 d 376.47 176.21 d s 376.47 176.21 m 373.65 176.21 d 373.65 190.49 d
 375.20 190.49 d 373.65 190.49 d 373.65 204.77 d 375.20 204.77 d 376.47 204.77 d s 376.47 204.77 m 373.65 204.77 d 373.65 219.08 d 375.20 219.08 d 373.65 219.08 d 373.65 233.36 d 375.20 233.36 d 376.47 233.36 d s 376.47 233.36 m
 373.65 233.36 d 373.65 236.88 d s 1.0 0.0 0.0 setrgbcolor s 336.99 209.14 m 337.45 208.68 d 339.35 208.68 d 339.81 209.14 d 339.81 209.63 d 339.35 210.09 d 337.45 211.04 d 336.99 211.50 d 336.99 211.96 d 337.45 212.45 d 339.35 212.45 d
 339.81 211.96 d s 341.22 212.45 m 341.22 209.63 d 342.17 208.68 d 344.04 208.68 d 344.04 212.45 d s 345.45 208.68 m 345.45 212.45 d 347.32 212.45 d 347.32 208.68 d 347.32 212.45 d 348.27 212.45 d 349.22 211.50 d 349.22 208.68 d
 s 61.37 61.97 m 61.37 61.97 d 61.37 62.04 d 61.37 62.00 d 61.37 61.97 d 61.37 61.93 d 61.37 61.90 d 61.37 61.86 d 61.37 61.83 d 61.37 61.72 d 61.37 61.62 d 61.37 61.44 d 61.37 61.16 d 61.37 60.63 d 61.37 59.50 d 61.37 57.28 d 61.37 59.71 d
 61.37 61.51 d 61.37 62.96 d 61.37 64.19 d 61.37 65.25 d 61.37 66.23 d 61.37 67.15 d 61.37 68.07 d 61.37 68.91 d 61.37 69.76 d 61.41 70.61 d 61.41 71.45 d 61.41 72.26 d 61.41 73.07 d 61.44 73.88 d 61.44 74.73 d 61.44 75.54 d 61.48 76.32 d
 61.48 77.09 d 61.51 77.87 d 61.55 78.64 d 61.58 79.38 d 61.65 80.05 d 61.69 80.69 d 61.76 81.22 d 61.83 81.57 d 61.93 81.64 d 62.04 80.90 d 62.18 79.21 d 62.36 81.53 d 62.57 82.70 d 62.82 83.01 d 63.10 81.78 d 63.45 77.34 d 63.87 65.74 d
 64.37 116.85 d 64.97 76.60 d 65.71 122.56 d 66.59 124.54 d 67.64 114.88 d 68.91 116.29 d 70.43 117.52 d 72.26 84.95 d 74.48 95.25 d 77.13 134.80 d 80.30 143.40 d 84.14 148.65 d 88.76 153.41 d 94.29 159.19 d 100.96 167.40 d 108.96 172.09 d
 118.58 177.62 d 130.14 183.37 d 144.07 189.05 d 160.78 194.69 d 180.90 200.29 d 205.08 205.90 d 234.17 211.46 d 269.10 217.03 d 311.12 222.57 d 361.63 228.10 d s 0.0 1.0 1.0 setrgbcolor s 61.37 61.97 m 61.37 61.97 d 61.37 62.04 d
 61.37 62.00 d 61.37 61.97 d 61.37 61.93 d 61.37 61.90 d 61.37 61.86 d 61.37 61.83 d 61.37 61.72 d 61.37 61.62 d 61.37 61.44 d 61.37 61.16 d 61.37 60.69 d s 61.37 58.11 m 61.37 59.52 d s 61.37 63.75 m 61.37 64.19 d 61.37 65.16 d
 s 61.37 69.39 m 61.37 69.76 d 61.41 70.61 d 61.41 70.80 d s 61.44 75.02 m 61.44 75.54 d 61.48 76.32 d 61.48 76.43 d s 61.69 80.66 m 61.69 80.69 d 61.76 81.22 d 61.83 81.57 d 61.93 81.64 d 61.99 81.28 d s 62.34 81.27 m 62.36 81.50 d
 62.57 82.59 d 62.61 82.65 d s 63.29 79.04 m 63.40 77.64 d s 63.58 73.41 m 63.63 72.00 d s 63.78 67.78 m 63.83 66.37 d s 63.90 68.22 m 63.92 69.63 d s 63.96 73.86 m 63.97 75.27 d s 64.01 79.50 m 64.02 80.91 d s 64.07 85.14 m 64.08 86.55 d
 s 64.12 90.78 m 64.13 92.19 d s 64.17 96.42 m 64.19 97.83 d s 64.23 102.05 m 64.24 103.46 d s 64.28 107.69 m 64.30 109.10 d s 64.34 113.33 m 64.35 114.74 d s 64.41 113.61 m 64.43 112.20 d s 64.49 107.97 m 64.51 106.56 d s 64.57 102.33 m
 64.59 100.92 d s 64.65 96.69 m 64.67 95.28 d s 64.73 91.05 m 64.75 89.64 d s 64.81 85.41 m 64.83 84.00 d s 64.89 79.77 m 64.91 78.36 d s 64.98 75.33 m 65.00 76.74 d s 65.07 80.97 m 65.09 82.38 d s 65.16 86.61 m 65.18 88.02 d
 s 65.25 92.25 m 65.27 93.66 d s 65.34 97.89 m 65.36 99.30 d s 65.43 103.53 m 65.45 104.94 d s 65.52 109.17 m 65.54 110.58 d s 65.61 114.81 m 65.63 116.22 d s 65.70 120.44 m 65.71 121.05 d 66.03 121.78 d s 66.91 120.17 m 67.07 118.77 d
 s 67.54 114.56 m 67.64 113.61 d 67.96 113.94 d s 70.48 115.24 m 70.55 113.83 d s 70.77 109.61 m 70.84 108.20 d s 71.07 103.98 m 71.14 102.57 d s 71.36 98.34 m 71.43 96.94 d s 71.65 92.71 m 71.73 91.30 d s 71.95 87.08 m 72.02 85.67 d
 s 72.24 81.45 m 72.26 81.07 d 72.94 81.86 d s 74.59 85.51 m 74.66 86.92 d s 74.90 91.15 m 74.98 92.55 d s 75.21 96.78 m 75.29 98.18 d s 75.52 102.41 m 75.60 103.82 d s 75.84 108.04 m 75.92 109.45 d s 76.15 113.67 m 76.23 115.08 d
 s 76.46 119.30 m 76.54 120.71 d s 76.78 124.93 m 76.85 126.34 d s 77.09 130.56 m 77.13 131.27 d 77.36 131.93 d s 78.77 135.92 m 79.25 137.25 d s 80.95 141.08 m 81.80 142.20 d s 84.43 145.50 m 85.53 146.38 d s 88.83 149.04 m 89.83 150.03 d
 s 92.83 153.01 m 93.83 154.00 d s 96.59 157.21 m 97.49 158.29 d s 100.21 161.53 m 100.96 162.43 d 101.13 162.60 d s 104.11 165.60 m 105.10 166.60 d s 108.09 169.60 m 108.96 170.47 d 109.11 170.56 d s 112.71 172.79 m 113.91 173.53 d
 s 117.50 175.76 m 118.58 176.43 d 118.71 176.49 d s 122.48 178.40 m 123.74 179.04 d s 127.51 180.95 m 128.77 181.58 d s 132.63 183.30 m 133.94 183.83 d s 137.85 185.44 m 139.16 185.97 d s 143.07 187.58 m 144.07 187.99 d 144.38 188.10 d
 s 148.39 189.46 m 149.72 189.92 d s 153.72 191.29 m 155.06 191.74 d s 159.06 193.11 m 160.39 193.57 d s 164.46 194.73 m 165.82 195.10 d s 169.89 196.24 m 171.25 196.62 d s 175.33 197.75 m 176.69 198.13 d s 180.76 199.26 m 180.90 199.30 d
 182.13 199.59 d s 186.25 200.55 m 187.63 200.87 d s 191.74 201.83 m 193.12 202.15 d s 197.24 203.11 m 198.61 203.43 d s 202.73 204.39 m 204.10 204.71 d s 208.25 205.55 m 209.63 205.81 d s 213.79 206.61 m 215.17 206.88 d s 219.33 207.67 m
 220.71 207.94 d s 224.87 208.73 m 226.25 209.00 d s 230.41 209.79 m 231.79 210.06 d s 235.96 210.80 m 237.35 211.02 d s 241.53 211.68 m 242.92 211.90 d s 247.10 212.56 m 248.49 212.78 d s 252.67 213.44 m 254.06 213.66 d s 258.24 214.33 m
 259.63 214.55 d s 263.81 215.21 m 265.20 215.43 d s 269.38 216.08 m 270.78 216.27 d s 274.97 216.83 m 276.37 217.01 d s 280.56 217.57 m 281.96 217.75 d s 286.15 218.31 m 287.55 218.49 d s 291.74 219.05 m 293.14 219.23 d s 297.34 219.79 m
 298.73 219.98 d s 302.93 220.53 m 304.32 220.72 d s 308.52 221.27 m 309.92 221.46 d s 314.12 221.95 m 315.52 222.10 d s 319.72 222.56 m 321.13 222.71 d s 325.33 223.17 m 326.73 223.33 d s 330.94 223.79 m 332.34 223.94 d s 336.54 224.40 m
 337.94 224.56 d s 342.15 225.02 m 343.55 225.17 d s 347.76 225.63 m 349.16 225.78 d s 353.36 226.25 m 354.76 226.40 d s 358.97 226.86 m 360.37 227.01 d s 61.37 61.97 m 61.37 61.97 d 61.37 62.04 d 61.37 62.00 d 61.37 61.97 d 61.37 61.93 d
 61.37 61.90 d 61.37 61.86 d 61.37 61.83 d 61.37 61.72 d 61.37 61.62 d 61.37 61.44 d 61.37 61.16 d 61.37 60.69 d s 61.37 58.11 m 61.37 59.52 d s 61.37 63.75 m 61.37 64.19 d 61.37 65.16 d s 61.37 69.39 m 61.37 69.76 d 61.41 70.61 d
 61.41 70.80 d s 61.44 75.02 m 61.44 75.54 d 61.48 76.32 d 61.48 76.43 d s 61.69 80.66 m 61.69 80.69 d 61.76 81.22 d 61.83 81.60 d 61.93 81.64 d 61.98 81.30 d s 62.34 81.40 m 62.36 81.57 d 62.57 82.77 d 62.58 82.78 d s 63.31 79.41 m
 63.42 78.00 d s 63.59 73.77 m 63.65 72.37 d s 63.80 68.14 m 63.86 66.73 d s 63.91 70.11 m 63.92 71.52 d s 63.96 75.75 m 63.98 77.16 d s 64.02 81.39 m 64.03 82.80 d s 64.07 87.03 m 64.09 88.44 d s 64.13 92.67 m 64.14 94.08 d s 64.18 98.31 m
 64.20 99.72 d s 64.24 103.95 m 64.25 105.36 d s 64.29 109.59 m 64.30 111.00 d s 64.35 115.23 m 64.36 116.64 d s 64.42 114.04 m 64.44 112.63 d s 64.51 108.40 m 64.53 106.99 d s 64.59 102.76 m 64.61 101.35 d s 64.68 97.12 m 64.70 95.71 d
 s 64.77 91.48 m 64.79 90.07 d s 64.85 85.84 m 64.87 84.43 d s 64.94 80.20 m 64.96 78.79 d s 65.03 82.44 m 65.05 83.85 d s 65.12 88.08 m 65.14 89.49 d s 65.21 93.72 m 65.24 95.13 d s 65.30 99.36 m 65.33 100.77 d s 65.40 105.00 m
 65.42 106.41 d s 65.49 110.64 m 65.51 112.05 d s 65.58 116.28 m 65.60 117.69 d s 65.67 121.92 m 65.69 123.33 d s 66.73 124.68 m 66.88 123.28 d s 67.33 119.07 m 67.48 117.67 d s 69.48 118.12 m 70.43 118.93 d 70.44 118.77 d s 70.70 114.55 m
 70.78 113.14 d s 71.04 108.92 m 71.12 107.52 d s 71.38 103.29 m 71.47 101.89 d s 71.72 97.66 m 71.81 96.26 d s 72.07 92.03 m 72.15 90.63 d s 72.56 91.24 m 72.73 92.64 d s 73.25 96.84 m 73.42 98.24 d s 73.94 102.44 m 74.11 103.84 d
 s 74.58 108.04 m 74.70 109.44 d s 75.06 113.66 m 75.17 115.06 d s 75.53 119.28 m 75.64 120.69 d s 76.00 124.90 m 76.12 126.31 d s 76.47 130.52 m 76.59 131.93 d s 76.94 136.14 m 77.06 137.55 d s 78.36 141.54 m 78.87 142.86 d
 s 80.46 146.77 m 81.27 147.93 d s 83.68 151.40 m 84.14 152.07 d 84.51 152.54 d s 87.15 155.84 m 88.03 156.94 d s 90.83 160.12 m 91.78 161.16 d s 94.60 164.31 m 95.48 165.41 d s 98.09 168.74 m 98.96 169.84 d s 101.95 172.54 m
 103.35 172.76 d s 107.52 173.44 m 108.91 173.67 d s 112.65 175.64 m 113.90 176.30 d s 117.63 178.29 m 118.58 178.79 d 118.88 178.94 d s 122.69 180.79 m 123.95 181.41 d s 127.76 183.26 m 129.02 183.88 d s 132.91 185.55 m 134.22 186.08 d
 s 138.14 187.67 m 139.44 188.19 d s 143.36 189.78 m 144.07 190.07 d 144.68 190.28 d s 148.69 191.63 m 150.03 192.08 d s 154.03 193.43 m 155.37 193.88 d s 159.38 195.24 m 160.71 195.69 d s 164.79 196.82 m 166.15 197.20 d s 170.23 198.32 m
 171.59 198.70 d s 175.66 199.83 m 177.02 200.20 d s 181.10 201.32 m 182.47 201.64 d s 186.59 202.60 m 187.97 202.91 d s 192.09 203.87 m 193.46 204.19 d s 197.58 205.14 m 198.96 205.46 d s 203.08 206.42 m 204.45 206.74 d s 208.60 207.56 m
 209.98 207.82 d s 214.14 208.62 m 215.52 208.88 d s 219.68 209.68 m 221.06 209.94 d s 225.22 210.74 m 226.60 211.00 d s 230.76 211.80 m 232.14 212.06 d s 236.31 212.79 m 237.70 213.01 d s 241.88 213.67 m 243.27 213.89 d s 247.45 214.56 m
 248.84 214.78 d s 253.02 215.44 m 254.41 215.66 d s 258.59 216.32 m 259.98 216.54 d s 264.16 217.20 m 265.55 217.42 d s 269.73 218.07 m 271.13 218.25 d s 275.33 218.81 m 276.72 218.99 d s 280.92 219.54 m 282.32 219.73 d s 286.51 220.28 m
 287.91 220.46 d s 292.10 221.02 m 293.50 221.20 d s 297.69 221.75 m 299.09 221.94 d s 303.28 222.49 m 304.68 222.67 d s 308.88 223.23 m 310.27 223.41 d s 314.48 223.89 m 315.88 224.04 d s 320.08 224.50 m 321.48 224.66 d s 325.69 225.12 m
 327.09 225.27 d s 331.30 225.73 m 332.70 225.88 d s 336.90 226.35 m 338.30 226.50 d s 342.51 226.96 m 343.91 227.11 d s 348.12 227.57 m 349.52 227.73 d s 353.72 228.19 m 355.12 228.34 d s 359.33 228.80 m 360.73 228.96 d
 s 0.0 1.0 0.0 setrgbcolor s 303.15 197.40 m 325.71 197.40 d s 336.99 200.22 m 336.99 195.04 d 337.45 194.58 d 337.94 194.58 d s 339.35 196.45 m 342.17 196.45 d 342.17 197.40 d 341.22 198.35 d 340.27 198.35 d 339.35 197.40 d 339.35 195.53 d
 340.27 194.58 d 342.17 194.58 d s 343.58 194.58 m 345.45 194.58 d 346.40 195.53 d 346.40 197.40 d 345.45 198.35 d 343.58 198.35 d 343.58 193.17 d s 61.37 61.97 m 61.37 61.97 d 61.37 62.04 d 61.37 62.00 d 61.37 61.97 d 61.37 61.93 d
 61.37 61.90 d 61.37 61.86 d 61.37 61.83 d 61.37 61.72 d 61.37 61.62 d 61.37 61.44 d 61.37 61.16 d 61.37 60.63 d 61.37 59.50 d 61.37 57.28 d 61.37 59.71 d 61.37 61.51 d 61.37 62.96 d 61.37 64.19 d 61.37 65.25 d 61.37 66.23 d 61.37 67.15 d
 61.37 68.07 d 61.37 68.91 d 61.37 69.76 d 61.41 70.61 d 61.41 71.45 d 61.41 72.26 d 61.41 73.07 d 61.44 73.92 d 61.44 74.77 d 61.44 75.54 d 61.48 76.35 d 61.48 77.13 d 61.51 77.94 d 61.55 78.71 d 61.58 79.49 d 61.65 80.23 d 61.69 80.90 d
 61.76 81.53 d 61.83 82.06 d 61.93 82.34 d 62.04 81.96 d 62.18 80.76 d 62.36 84.00 d 62.57 86.61 d 62.82 88.83 d 63.10 90.84 d 63.45 92.71 d 63.87 94.51 d 64.37 96.20 d 64.97 97.85 d 65.71 99.48 d 66.59 101.06 d 67.64 102.54 d
 68.91 103.92 d 70.43 105.15 d 72.26 105.89 d 74.48 103.99 d 77.13 108.36 d 80.30 111.95 d 84.14 115.13 d 88.76 118.02 d 94.29 120.77 d 100.96 123.41 d 108.96 125.98 d 118.58 128.52 d 130.14 131.02 d 144.07 133.49 d 160.78 135.96 d
 180.90 138.43 d 205.08 140.89 d 234.17 143.36 d 269.10 145.79 d 311.12 148.26 d 361.63 150.73 d s 0.0 0.0 1.0 setrgbcolor s 303.15 183.30 m 304.57 183.30 d s 308.80 183.30 m 310.21 183.30 d s 314.44 183.30 m 315.85 183.30 d
 s 320.08 183.30 m 321.49 183.30 d s 336.99 186.12 m 336.99 180.48 d 336.99 184.25 d 338.86 184.25 d 339.81 183.30 d 339.81 180.48 d s 344.04 182.35 m 341.68 182.35 d 341.22 181.89 d 341.22 180.94 d 341.68 180.48 d 344.04 180.48 d
 344.04 183.76 d 343.58 184.25 d 341.68 184.25 d s 348.27 184.25 m 346.40 184.25 d 345.45 183.30 d 345.45 181.43 d 346.40 180.48 d 348.27 180.48 d 348.27 186.12 d s 352.04 186.12 m 351.55 185.66 d 351.09 184.25 d 351.09 182.35 d
 351.55 180.94 d 352.04 180.48 d s 353.91 180.48 m 355.78 180.48 d 356.73 181.43 d 356.73 182.35 d 355.78 183.30 d 353.91 183.30 d 353.91 186.12 d 356.73 186.12 d s 359.09 186.12 m 359.55 185.66 d 360.01 184.25 d 360.01 182.35 d
 359.55 180.94 d 359.09 180.48 d s 61.37 61.97 m 61.37 61.97 d 61.41 61.97 d 61.44 61.97 d 61.48 61.93 d 61.51 61.93 d 61.55 61.90 d 61.58 61.86 d 61.65 61.83 d 61.69 61.76 d 61.76 61.65 d 61.83 61.51 d 61.93 61.26 d 62.04 60.95 d
 62.07 60.83 d s 62.75 56.66 m 62.82 56.15 d 62.89 55.25 d s 63.20 51.04 m 63.28 49.63 d s 63.49 45.40 m 63.53 43.99 d s 63.67 39.77 m 63.71 38.36 d s 63.84 34.13 m 63.87 33.21 d 63.88 33.69 d s 63.92 37.92 m 63.93 39.33 d s 63.98 43.56 m
 63.99 44.97 d s 64.03 49.20 m 64.05 50.61 d s 64.09 54.84 m 64.10 56.25 d s 64.15 60.48 m 64.16 61.89 d s 64.20 66.12 m 64.22 67.53 d s 64.26 71.76 m 64.27 73.17 d s 64.31 77.40 m 64.33 78.81 d s 64.37 82.21 m 64.39 80.80 d s 64.45 76.57 m
 64.47 75.16 d s 64.53 70.93 m 64.55 69.52 d s 64.61 65.29 m 64.63 63.88 d s 64.69 59.66 m 64.72 58.25 d s 64.78 54.02 m 64.80 52.61 d s 64.86 48.38 m 64.88 46.97 d s 64.94 42.74 m 64.96 41.33 d s 65.03 44.33 m 65.05 45.74 d s 65.12 49.97 m
 65.14 51.38 d s 65.21 55.61 m 65.24 57.02 d s 65.31 61.25 m 65.33 62.66 d s 65.40 66.89 m 65.43 68.30 d s 65.50 72.53 m 65.52 73.94 d s 65.59 78.17 m 65.61 79.58 d s 65.69 83.80 m 65.71 85.06 d 65.85 85.12 d s 66.91 82.04 m 67.04 80.63 d
 s 67.44 76.42 m 67.58 75.02 d s 70.47 73.65 m 70.55 72.24 d s 70.78 68.02 m 70.86 66.61 d s 71.09 62.39 m 71.17 60.98 d s 71.40 56.76 m 71.48 55.35 d s 71.71 51.12 m 71.79 49.72 d s 72.02 45.49 m 72.09 44.09 d s 72.47 42.18 m 72.72 43.57 d
 s 73.48 47.73 m 73.74 49.12 d s 74.49 53.28 m 74.59 54.69 d s 74.91 58.91 m 75.02 60.31 d s 75.33 64.53 m 75.44 65.94 d s 75.75 70.15 m 75.86 71.56 d s 76.18 75.78 m 76.28 77.18 d s 76.60 81.40 m 76.70 82.81 d s 77.02 87.03 m 77.13 88.43 d
 s 79.40 92.00 m 80.16 93.19 d s 83.77 95.32 m 84.14 95.53 d 85.06 95.89 d s 88.98 97.48 m 90.21 98.16 d s 93.92 100.19 m 94.29 100.39 d 95.05 101.03 d s 98.30 103.74 m 99.38 104.64 d s 103.06 106.52 m 104.42 106.88 d s 108.51 107.96 m
 108.96 108.08 d 109.86 108.36 d s 113.90 109.62 m 115.25 110.04 d s 119.29 111.27 m 120.65 111.65 d s 124.72 112.80 m 126.08 113.18 d s 130.14 114.32 m 131.53 114.64 d s 135.65 115.58 m 137.02 115.90 d s 141.15 116.85 m 142.52 117.17 d
 s 146.66 118.02 m 148.05 118.28 d s 152.20 119.07 m 153.59 119.33 d s 157.75 120.12 m 159.13 120.38 d s 163.30 121.09 m 164.69 121.31 d s 168.87 121.96 m 170.27 122.18 d s 174.45 122.83 m 175.84 123.04 d s 180.02 123.70 m 180.90 123.83 d
 181.41 123.90 d s 185.61 124.44 m 187.01 124.63 d s 191.20 125.17 m 192.60 125.35 d s 196.80 125.90 m 198.19 126.08 d s 202.39 126.62 m 203.79 126.80 d s 207.99 127.28 m 209.39 127.44 d s 213.60 127.89 m 215.00 128.04 d s 219.20 128.49 m
 220.61 128.64 d s 224.81 129.10 m 226.21 129.25 d s 230.42 129.70 m 231.82 129.85 d s 236.03 130.27 m 237.43 130.39 d s 241.65 130.76 m 243.05 130.89 d s 247.27 131.26 m 248.67 131.38 d s 252.89 131.75 m 254.29 131.87 d s 258.50 132.24 m
 259.91 132.37 d s 264.12 132.74 m 265.53 132.86 d s 269.74 133.22 m 271.15 133.33 d s 275.37 133.64 m 276.77 133.74 d s 280.99 134.05 m 282.40 134.16 d s 286.62 134.47 m 288.02 134.57 d s 292.24 134.88 m 293.65 134.99 d s 297.86 135.30 m
 299.27 135.40 d s 303.49 135.71 m 304.90 135.82 d s 309.11 136.13 m 310.52 136.23 d s 314.74 136.50 m 316.15 136.58 d s 320.37 136.84 m 321.78 136.92 d s 326.00 137.18 m 327.41 137.27 d s 331.63 137.52 m 333.04 137.61 d s 337.26 137.86 m
 338.67 137.95 d s 342.89 138.21 m 344.30 138.29 d s 348.52 138.55 m 349.93 138.63 d s 354.15 138.89 m 355.56 138.97 d s 359.78 139.23 m 361.19 139.32 d s 1.0 0.0 1.0 setrgbcolor s 303.15 169.20 m 308.80 169.20 d s 314.44 169.20 m
 320.08 169.20 d s 337.45 171.56 m 337.45 166.38 d 337.45 170.15 d 336.99 170.15 d 338.40 170.15 d s 340.76 166.38 m 341.68 166.38 d 342.63 167.33 d 342.63 169.20 d 341.68 170.15 d 340.76 170.15 d 339.81 169.20 d 339.81 167.33 d
 340.76 166.38 d s 344.04 166.38 m 345.91 166.38 d 346.86 167.33 d 346.86 169.20 d 345.91 170.15 d 344.04 170.15 d 344.04 164.97 d s 61.37 61.97 m 61.37 61.97 d 61.41 61.97 d 61.44 61.97 d 61.48 61.97 d 61.51 61.97 d 61.55 61.97 d
 61.58 61.97 d 61.65 61.97 d 61.69 61.97 d 61.76 61.97 d 61.83 61.97 d 61.93 61.97 d 62.04 61.97 d 62.18 61.97 d 62.36 61.97 d 62.57 61.97 d 62.82 61.97 d 63.10 61.97 d 63.45 61.97 d 63.87 61.97 d 64.37 61.97 d 64.97 61.97 d 65.71 61.97 d
 66.59 61.97 d 67.02 61.97 d s 72.66 61.97 m 74.48 61.97 d 77.13 61.97 d 78.30 61.97 d s 83.94 61.97 m 84.14 61.97 d 88.76 61.97 d 89.58 61.97 d s 95.22 61.97 m 100.86 61.97 d s 106.50 61.97 m 108.96 61.97 d 112.14 61.97 d s 117.78 61.97 m
 118.58 61.97 d 123.42 61.97 d s 129.06 61.97 m 130.14 61.97 d 134.70 61.97 d s 140.34 61.97 m 144.07 61.97 d 145.98 61.97 d s 151.62 61.97 m 157.26 61.97 d s 162.90 61.97 m 168.54 61.97 d s 174.18 61.97 m 179.82 61.97 d s 185.46 61.96 m
 191.10 61.95 d s 196.74 61.95 m 202.38 61.94 d s 208.02 61.93 m 213.66 61.93 d s 219.30 61.93 m 224.94 61.93 d s 230.58 61.93 m 234.17 61.93 d 236.22 61.93 d s 241.86 61.93 m 247.50 61.92 d s 253.14 61.92 m 258.78 61.91 d s 264.42 61.90 m
 269.10 61.90 d 270.06 61.90 d s 275.70 61.89 m 281.34 61.89 d s 286.98 61.88 m 292.62 61.88 d s 298.26 61.87 m 303.90 61.87 d s 309.54 61.87 m 311.12 61.86 d 315.18 61.86 d s 320.82 61.86 m 326.46 61.85 d s 332.10 61.85 m 337.74 61.85 d
 s 343.38 61.84 m 349.02 61.84 d s 354.66 61.83 m 360.30 61.83 d s 1.0 1.0 1.0 setrgbcolor s 0.16  setlinewidth s 0.00 0.00 m 382.11 0.00 d 382.11 245.34 d 0.00 245.34 d 0.00 0.00 d
 s grestore
