%!PS-Adobe-1.0 EPSF-1.0
%%BoundingBox:       0.00       0.00     382.11     245.34
 /m {moveto} def /d {lineto} def /s {stroke newpath} def gsave newpath 1 setlinecap 1 setlinejoin
 s 0.0 0.0 0.0 setrgbcolor s 0.47  setlinewidth s 9.87 124.26 m 2.82 126.94 d 9.87 129.61 d 9.87 124.26 d s 9.87 136.66 m 9.87 136.35 d 9.52 135.99 d 8.85 135.68 d 6.17 135.01 d 5.50 134.66 d 5.18 134.30 d 5.18 133.63 d 5.50 132.96 d
 6.17 132.29 d 6.84 131.98 d 7.86 131.62 d 8.85 131.62 d 9.52 131.98 d 9.87 132.65 d 9.87 133.32 d 9.52 133.99 d 8.53 135.01 d 7.51 135.68 d 6.17 136.35 d 5.18 136.66 d s 1.0 0.0 0.0 setrgbcolor s 303.15 98.70 m 325.71 98.70 d
 s 0.0 0.0 0.0 setrgbcolor s 49.35 25.38 m 61.37 25.38 d 61.37 22.56 d s 56.44 14.10 m 57.35 14.56 d 57.85 15.97 d 57.85 17.87 d 57.35 19.28 d 56.44 19.74 d 55.48 19.28 d 55.03 17.87 d 55.03 15.97 d 55.48 14.56 d 56.44 14.10 d
 s 60.67 14.10 m 60.17 14.10 d 60.17 14.56 d 60.67 14.56 d 60.67 14.10 d s 64.90 14.10 m 65.81 14.56 d 66.31 15.97 d 66.31 17.87 d 65.81 19.28 d 64.90 19.74 d 63.94 19.28 d 63.49 17.87 d 63.49 15.97 d 63.94 14.56 d 64.90 14.10 d
 s 61.37 22.56 m 61.37 25.38 d 91.86 25.38 d 91.86 22.56 d 91.86 25.38 d 122.39 25.38 d 122.39 22.56 d s 116.04 18.79 m 116.99 19.74 d 117.91 19.74 d 118.86 18.79 d 118.86 17.87 d 118.40 16.92 d 116.04 14.10 d 118.86 14.10 d
 s 121.68 14.10 m 121.22 14.10 d 121.22 14.56 d 121.68 14.56 d 121.68 14.10 d s 125.91 14.10 m 126.86 14.56 d 127.32 15.97 d 127.32 17.87 d 126.86 19.28 d 125.91 19.74 d 124.96 19.28 d 124.50 17.87 d 124.50 15.97 d 124.96 14.56 d
 125.91 14.10 d s 122.39 22.56 m 122.39 25.38 d 152.91 25.38 d 152.91 22.56 d 152.91 25.38 d 183.44 25.38 d 183.44 22.56 d s 178.51 19.74 m 177.10 15.51 d 179.92 15.51 d 178.96 15.51 d 178.96 16.92 d 178.96 14.10 d s 182.74 14.10 m
 182.24 14.10 d 182.24 14.56 d 182.74 14.56 d 182.74 14.10 d s 186.97 14.10 m 187.88 14.56 d 188.38 15.97 d 188.38 17.87 d 187.88 19.28 d 186.97 19.74 d 186.01 19.28 d 185.56 17.87 d 185.56 15.97 d 186.01 14.56 d 186.97 14.10 d
 s 183.44 22.56 m 183.44 25.38 d 213.93 25.38 d 213.93 22.56 d 213.93 25.38 d 244.46 25.38 d 244.46 22.56 d s 238.57 16.92 m 239.98 16.92 d 240.93 15.97 d 240.93 15.05 d 239.98 14.10 d 239.07 14.10 d 238.11 15.05 d 238.11 15.97 d
 238.57 16.92 d 240.48 19.74 d s 243.75 14.10 m 243.30 14.10 d 243.30 14.56 d 243.75 14.56 d 243.75 14.10 d s 247.98 14.10 m 248.94 14.56 d 249.39 15.97 d 249.39 17.87 d 248.94 19.28 d 247.98 19.74 d 247.03 19.28 d 246.57 17.87 d
 246.57 15.97 d 247.03 14.56 d 247.98 14.10 d s 244.46 22.56 m 244.46 25.38 d 274.99 25.38 d 274.99 22.56 d 274.99 25.38 d 305.48 25.38 d 305.48 22.56 d s 300.08 16.92 m 299.13 17.87 d 299.13 18.79 d 300.08 19.74 d 301.04 19.74 d
 301.95 18.79 d 301.95 17.87 d 301.04 16.92 d 300.08 16.92 d 299.13 15.97 d 299.13 15.05 d 300.08 14.10 d 301.04 14.10 d 301.95 15.05 d 301.95 15.97 d 301.04 16.92 d s 304.77 14.10 m 304.31 14.10 d 304.31 14.56 d 304.77 14.56 d
 304.77 14.10 d s 309.00 14.10 m 309.95 14.56 d 310.41 15.97 d 310.41 17.87 d 309.95 19.28 d 309.00 19.74 d 308.09 19.28 d 307.59 17.87 d 307.59 15.97 d 308.09 14.56 d 309.00 14.10 d s 305.48 22.56 m 305.48 25.38 d 336.00 25.38 d
 336.00 22.56 d 336.00 25.38 d 366.53 25.38 d 366.53 22.56 d s 358.99 17.87 m 360.40 19.74 d 360.40 14.10 d s 363.71 14.10 m 364.63 14.56 d 365.12 15.97 d 365.12 17.87 d 364.63 19.28 d 363.71 19.74 d 362.76 19.28 d 362.30 17.87 d
 362.30 15.97 d 362.76 14.56 d 363.71 14.10 d s 367.94 14.10 m 367.45 14.10 d 367.45 14.56 d 367.94 14.56 d 367.94 14.10 d s 372.17 14.10 m 373.09 14.56 d 373.58 15.97 d 373.58 17.87 d 373.09 19.28 d 372.17 19.74 d 371.22 19.28 d
 370.76 17.87 d 370.76 15.97 d 371.22 14.56 d 372.17 14.10 d s 366.53 22.56 m 366.53 25.38 d 373.65 25.38 d s 198.56 2.82 m 195.74 2.82 d 195.74 8.46 d 198.56 8.46 d 195.74 8.46 d 195.74 5.64 d 197.15 5.64 d s 206.57 8.46 m 206.11 8.00 d
 205.61 6.59 d 205.61 4.69 d 206.11 3.28 d 206.57 2.82 d s 208.43 2.82 m 208.43 8.46 d 210.34 5.64 d 212.20 8.46 d 212.20 2.82 d s 213.62 4.69 m 216.44 4.69 d 216.44 5.64 d 215.48 6.59 d 214.57 6.59 d 213.62 5.64 d 213.62 3.77 d
 214.57 2.82 d 216.44 2.82 d s 217.85 8.46 m 219.71 2.82 d 221.62 8.46 d s 223.94 8.46 m 224.44 8.00 d 224.90 6.59 d 224.90 4.69 d 224.44 3.28 d 223.94 2.82 d s 49.35 236.88 m 61.37 236.88 d 61.37 239.70 d s 61.37 239.70 m 61.37 236.88 d
 91.86 236.88 d 91.86 239.70 d 91.86 236.88 d 122.39 236.88 d 122.39 239.70 d s 122.39 239.70 m 122.39 236.88 d 152.91 236.88 d 152.91 239.70 d 152.91 236.88 d 183.44 236.88 d 183.44 239.70 d s 183.44 239.70 m 183.44 236.88 d
 213.93 236.88 d 213.93 239.70 d 213.93 236.88 d 244.46 236.88 d 244.46 239.70 d s 244.46 239.70 m 244.46 236.88 d 274.99 236.88 d 274.99 239.70 d 274.99 236.88 d 305.48 236.88 d 305.48 239.70 d s 305.48 239.70 m 305.48 236.88 d
 336.00 236.88 d 336.00 239.70 d 336.00 236.88 d 366.53 236.88 d 366.53 239.70 d s 366.53 239.70 m 366.53 236.88 d 373.65 236.88 d s 49.35 25.38 m 49.35 40.61 d 46.53 40.61 d 49.35 40.61 d 49.35 58.51 d 46.53 58.51 d s 20.20 58.51 m
 22.10 58.51 d s 25.38 55.70 m 26.33 56.15 d 26.79 57.56 d 26.79 59.47 d 26.33 60.88 d 25.38 61.34 d 24.43 60.88 d 23.97 59.47 d 23.97 57.56 d 24.43 56.15 d 25.38 55.70 d s 29.61 55.70 m 29.15 55.70 d 29.15 56.15 d 29.61 56.15 d
 29.61 55.70 d s 33.84 55.70 m 34.79 56.15 d 35.25 57.56 d 35.25 59.47 d 34.79 60.88 d 33.84 61.34 d 32.89 60.88 d 32.43 59.47 d 32.43 57.56 d 32.89 56.15 d 33.84 55.70 d s 38.07 61.34 m 36.66 57.11 d 39.48 57.11 d 38.53 57.11 d
 38.53 58.51 d 38.53 55.70 d s 42.30 55.70 m 43.25 56.15 d 43.71 57.56 d 43.71 59.47 d 43.25 60.88 d 42.30 61.34 d 41.35 60.88 d 40.89 59.47 d 40.89 57.56 d 41.35 56.15 d 42.30 55.70 d s 46.53 58.51 m 49.35 58.51 d 49.35 76.42 d
 46.53 76.42 d 49.35 76.42 d 49.35 94.33 d 46.53 94.33 d s 20.20 94.33 m 22.10 94.33 d s 25.38 91.51 m 26.33 92.00 d 26.79 93.41 d 26.79 95.28 d 26.33 96.69 d 25.38 97.15 d 24.43 96.69 d 23.97 95.28 d 23.97 93.41 d 24.43 92.00 d
 25.38 91.51 d s 29.61 91.51 m 29.15 91.51 d 29.15 92.00 d 29.61 92.00 d 29.61 91.51 d s 33.84 91.51 m 34.79 92.00 d 35.25 93.41 d 35.25 95.28 d 34.79 96.69 d 33.84 97.15 d 32.89 96.69 d 32.43 95.28 d 32.43 93.41 d 32.89 92.00 d
 33.84 91.51 d s 36.66 96.23 m 37.61 97.15 d 38.53 97.15 d 39.48 96.23 d 39.48 95.28 d 39.02 94.33 d 36.66 91.51 d 39.48 91.51 d s 42.30 91.51 m 43.25 92.00 d 43.71 93.41 d 43.71 95.28 d 43.25 96.69 d 42.30 97.15 d 41.35 96.69 d
 40.89 95.28 d 40.89 93.41 d 41.35 92.00 d 42.30 91.51 d s 46.53 94.33 m 49.35 94.33 d 49.35 112.27 d 46.53 112.27 d 49.35 112.27 d 49.35 130.18 d 46.53 130.18 d s 25.38 127.36 m 26.33 127.82 d 26.79 129.23 d 26.79 131.09 d 26.33 132.50 d
 25.38 133.00 d 24.43 132.50 d 23.97 131.09 d 23.97 129.23 d 24.43 127.82 d 25.38 127.36 d s 29.61 127.36 m 29.15 127.36 d 29.15 127.82 d 29.61 127.82 d 29.61 127.36 d s 33.84 127.36 m 34.79 127.82 d 35.25 129.23 d 35.25 131.09 d
 34.79 132.50 d 33.84 133.00 d 32.89 132.50 d 32.43 131.09 d 32.43 129.23 d 32.89 127.82 d 33.84 127.36 d s 38.07 127.36 m 39.02 127.82 d 39.48 129.23 d 39.48 131.09 d 39.02 132.50 d 38.07 133.00 d 37.12 132.50 d 36.66 131.09 d
 36.66 129.23 d 37.12 127.82 d 38.07 127.36 d s 42.30 127.36 m 43.25 127.82 d 43.71 129.23 d 43.71 131.09 d 43.25 132.50 d 42.30 133.00 d 41.35 132.50 d 40.89 131.09 d 40.89 129.23 d 41.35 127.82 d 42.30 127.36 d s 46.53 130.18 m
 49.35 130.18 d 49.35 148.09 d 46.53 148.09 d 49.35 148.09 d 49.35 165.99 d 46.53 165.99 d s 25.38 163.17 m 26.33 163.63 d 26.79 165.04 d 26.79 166.94 d 26.33 168.35 d 25.38 168.81 d 24.43 168.35 d 23.97 166.94 d 23.97 165.04 d
 24.43 163.63 d 25.38 163.17 d s 29.61 163.17 m 29.15 163.17 d 29.15 163.63 d 29.61 163.63 d 29.61 163.17 d s 33.84 163.17 m 34.79 163.63 d 35.25 165.04 d 35.25 166.94 d 34.79 168.35 d 33.84 168.81 d 32.89 168.35 d 32.43 166.94 d
 32.43 165.04 d 32.89 163.63 d 33.84 163.17 d s 36.66 167.86 m 37.61 168.81 d 38.53 168.81 d 39.48 167.86 d 39.48 166.94 d 39.02 165.99 d 36.66 163.17 d 39.48 163.17 d s 42.30 163.17 m 43.25 163.63 d 43.71 165.04 d 43.71 166.94 d
 43.25 168.35 d 42.30 168.81 d 41.35 168.35 d 40.89 166.94 d 40.89 165.04 d 41.35 163.63 d 42.30 163.17 d s 46.53 165.99 m 49.35 165.99 d 49.35 183.90 d 46.53 183.90 d 49.35 183.90 d 49.35 201.81 d 46.53 201.81 d s 25.38 198.99 m
 26.33 199.48 d 26.79 200.89 d 26.79 202.76 d 26.33 204.17 d 25.38 204.63 d 24.43 204.17 d 23.97 202.76 d 23.97 200.89 d 24.43 199.48 d 25.38 198.99 d s 29.61 198.99 m 29.15 198.99 d 29.15 199.48 d 29.61 199.48 d 29.61 198.99 d
 s 33.84 198.99 m 34.79 199.48 d 35.25 200.89 d 35.25 202.76 d 34.79 204.17 d 33.84 204.63 d 32.89 204.17 d 32.43 202.76 d 32.43 200.89 d 32.89 199.48 d 33.84 198.99 d s 38.07 204.63 m 36.66 200.40 d 39.48 200.40 d 38.53 200.40 d
 38.53 201.81 d 38.53 198.99 d s 42.30 198.99 m 43.25 199.48 d 43.71 200.89 d 43.71 202.76 d 43.25 204.17 d 42.30 204.63 d 41.35 204.17 d 40.89 202.76 d 40.89 200.89 d 41.35 199.48 d 42.30 198.99 d s 46.53 201.81 m 49.35 201.81 d
 49.35 219.71 d 46.53 219.71 d 49.35 219.71 d 49.35 236.88 d s 373.65 25.38 m 373.65 40.61 d 376.47 40.61 d 373.65 40.61 d 373.65 58.51 d 376.47 58.51 d s 376.47 58.51 m 373.65 58.51 d 373.65 76.42 d 376.47 76.42 d 373.65 76.42 d
 373.65 94.33 d 376.47 94.33 d s 376.47 94.33 m 373.65 94.33 d 373.65 112.27 d 376.47 112.27 d 373.65 112.27 d 373.65 130.18 d 376.47 130.18 d s 376.47 130.18 m 373.65 130.18 d 373.65 148.09 d 376.47 148.09 d 373.65 148.09 d 373.65 165.99 d
 376.47 165.99 d s 376.47 165.99 m 373.65 165.99 d 373.65 183.90 d 376.47 183.90 d 373.65 183.90 d 373.65 201.81 d 376.47 201.81 d s 376.47 201.81 m 373.65 201.81 d 373.65 219.71 d 376.47 219.71 d 373.65 219.71 d 373.65 236.88 d
 s 1.0 0.0 0.0 setrgbcolor s 336.99 96.34 m 337.45 95.88 d 339.35 95.88 d 339.81 96.34 d 339.81 96.83 d 339.35 97.29 d 337.45 98.24 d 336.99 98.70 d 336.99 99.16 d 337.45 99.65 d 339.35 99.65 d 339.81 99.16 d s 341.22 99.65 m 341.22 96.83 d
 342.17 95.88 d 344.04 95.88 d 344.04 99.65 d s 345.45 95.88 m 345.45 99.65 d 347.32 99.65 d 347.32 95.88 d 347.32 99.65 d 348.27 99.65 d 349.22 98.70 d 349.22 95.88 d s 61.37 130.18 m 61.37 130.18 d 61.37 130.21 d 61.37 130.18 d
 61.37 130.14 d 61.37 130.11 d 61.37 130.07 d 61.37 130.04 d 61.37 130.00 d 61.37 129.97 d 61.37 129.93 d 61.37 129.90 d 61.37 129.86 d 61.37 129.83 d 61.37 129.79 d 61.37 129.76 d 61.37 129.72 d 61.37 129.68 d 61.37 129.65 d 61.37 129.61 d
 61.37 129.58 d 61.37 129.54 d 61.37 129.51 d 61.37 129.47 d 61.37 129.44 d 61.37 129.40 d 61.37 129.37 d 61.37 129.33 d 61.37 129.30 d 61.37 129.23 d 61.37 129.19 d 61.37 129.16 d 61.37 129.09 d 61.37 129.05 d 61.37 128.98 d 61.37 128.91 d
 61.37 128.84 d 61.41 128.73 d 61.41 128.66 d 61.41 128.56 d 61.41 128.42 d 61.41 128.27 d 61.41 128.13 d 61.41 127.92 d 61.41 127.64 d 61.41 127.15 d 61.41 126.51 d 61.41 126.69 d 61.41 126.90 d 61.41 127.08 d 61.41 127.25 d 61.41 127.39 d
 61.41 127.53 d 61.41 127.71 d 61.41 127.85 d 61.41 127.96 d 61.41 128.10 d 61.41 128.24 d 61.41 128.35 d 61.41 128.49 d 61.41 128.59 d 61.41 128.73 d 61.41 128.84 d 61.41 128.94 d 61.41 129.05 d 61.41 129.16 d 61.41 129.26 d 61.41 129.37 d
 61.41 129.44 d 61.41 129.54 d 61.41 129.65 d 61.41 129.72 d 61.41 129.83 d 61.41 129.90 d 61.41 130.00 d 61.41 130.07 d 61.41 130.18 d 61.41 130.25 d 61.41 130.32 d 61.41 130.39 d 61.41 130.50 d 61.41 130.57 d 61.41 130.64 d 61.41 130.71 d
 61.41 130.78 d 61.41 130.85 d 61.41 130.92 d 61.41 130.99 d 61.41 131.06 d 61.44 131.13 d 61.44 131.20 d 61.44 131.27 d 61.44 131.34 d 61.44 131.38 d 61.44 131.45 d 61.44 131.52 d 61.44 131.59 d 61.44 131.66 d 61.44 131.69 d 61.44 131.76 d
 61.44 131.84 d 61.44 131.87 d 61.44 131.94 d 61.44 132.01 d 61.44 132.05 d 61.44 132.12 d 61.44 132.19 d 61.44 132.22 d 61.44 132.29 d 61.44 132.33 d 61.44 132.40 d 61.44 132.43 d 61.44 132.50 d 61.44 132.58 d 61.44 132.61 d 61.44 132.68 d
 61.44 132.72 d 61.48 132.79 d 61.48 132.82 d 61.48 132.89 d 61.48 132.93 d 61.48 132.96 d 61.48 133.03 d 61.48 133.07 d 61.48 133.14 d 61.48 133.17 d 61.48 133.24 d 61.48 133.28 d 61.48 133.35 d 61.48 133.39 d 61.48 133.42 d 61.48 133.49 d
 61.48 133.53 d 61.48 133.60 d 61.48 133.63 d 61.48 133.67 d 61.51 133.74 d 61.51 133.77 d 61.51 133.84 d 61.51 133.88 d 61.51 133.91 d 61.51 133.99 d 61.51 134.02 d 61.51 134.06 d 61.51 134.13 d 61.51 134.16 d 61.51 134.20 d 61.51 134.27 d
 61.51 134.30 d 61.51 134.34 d 61.55 134.41 d 61.55 134.44 d 61.55 134.48 d 61.55 134.55 d 61.55 134.58 d 61.55 134.62 d 61.55 134.69 d 61.55 134.73 d 61.55 134.76 d 61.55 134.83 d 61.55 134.87 d 61.55 134.90 d 61.58 134.97 d 61.58 135.01 d
 61.58 135.04 d 61.58 135.11 d 61.58 135.15 d 61.58 135.18 d 61.58 135.25 d 61.58 135.29 d 61.58 135.32 d 61.58 135.40 d 61.62 135.43 d 61.62 135.47 d 61.62 135.50 d 61.62 135.57 d 61.62 135.61 d 61.62 135.64 d 61.62 135.71 d 61.62 135.75 d
 61.62 135.78 d 61.65 135.85 d 61.65 135.89 d 61.65 135.92 d 61.65 135.96 d 61.65 136.03 d 61.65 136.07 d 61.65 136.10 d 61.69 136.17 d 61.69 136.21 d 61.69 136.24 d 61.69 136.28 d 61.69 136.35 d 61.69 136.38 d 61.69 136.42 d 61.72 136.49 d
 61.72 136.52 d 61.72 136.56 d 61.72 136.59 d 61.72 136.66 d 61.72 136.70 d 61.76 136.73 d 61.76 136.81 d 61.76 136.84 d 61.76 136.88 d 61.76 136.91 d 61.79 136.98 d 61.79 137.02 d 61.79 137.05 d 61.79 137.09 d 61.79 137.16 d 61.83 137.19 d
 61.83 137.23 d 61.83 137.30 d 61.83 137.33 d 61.83 137.37 d 61.86 137.40 d 61.86 137.47 d 61.86 137.51 d 61.86 137.55 d 61.90 137.58 d 61.90 137.65 d 61.90 137.69 d 61.90 137.76 d 61.93 137.79 d 61.93 137.86 d 61.93 137.90 d 61.93 137.93 d
 61.97 137.97 d 61.97 138.04 d 61.97 138.07 d 61.97 138.11 d 62.00 138.14 d 62.00 138.18 d 62.00 138.25 d 62.04 138.29 d 62.04 138.32 d 62.04 138.36 d 62.04 138.43 d 62.08 138.46 d 62.08 138.50 d 62.08 138.53 d 62.11 138.57 d 62.11 138.64 d
 62.15 138.67 d 62.15 138.71 d 62.15 138.74 d 62.18 138.81 d 62.18 138.85 d 62.18 138.89 d 62.22 138.92 d 62.22 138.99 d 62.25 139.03 d 62.25 139.06 d 62.25 139.10 d 62.29 139.13 d 62.29 139.20 d 62.32 139.24 d 62.32 139.27 d 62.32 139.31 d
 62.36 139.38 d 62.36 139.41 d 62.39 139.45 d 62.39 139.48 d 62.43 139.55 d 62.43 139.59 d 62.46 139.63 d 62.46 139.66 d 62.50 139.70 d 62.50 139.77 d 62.53 139.80 d 62.53 139.84 d 62.57 139.87 d 62.57 139.91 d 62.60 139.98 d 62.64 140.01 d
 62.64 140.05 d 62.67 140.08 d 62.67 140.12 d 62.71 140.19 d 62.74 140.22 d 62.74 140.26 d 62.78 140.29 d 62.82 140.33 d 62.82 140.40 d 62.85 140.44 d 62.89 140.47 d 62.89 140.51 d 62.92 140.54 d 62.96 140.58 d 62.96 140.65 d 62.99 140.68 d
 63.03 140.72 d 63.06 140.75 d 63.10 140.79 d 63.10 140.82 d 63.13 140.89 d 63.17 140.93 d 63.20 140.96 d 63.24 141.00 d 63.24 141.04 d 63.27 141.07 d 63.31 141.11 d 63.34 141.14 d 63.38 141.18 d 63.41 141.25 d 63.45 141.28 d 63.49 141.32 d
 63.52 141.35 d 63.56 141.39 d 63.59 141.42 d 63.63 141.46 d 63.66 141.49 d 63.70 141.53 d 63.73 141.56 d 63.77 141.60 d 63.80 141.63 d 63.84 141.67 d 63.91 141.71 d 63.94 141.74 d 63.98 141.78 d 64.01 141.81 d 64.05 141.85 d 64.12 141.88 d
 64.16 141.92 d 64.19 141.95 d 64.23 141.99 d 64.30 141.99 d 64.33 142.02 d 64.40 142.06 d 64.44 142.09 d 64.47 142.13 d 64.54 142.16 d 64.58 142.16 d 64.65 142.20 d 64.68 142.23 d 64.75 142.27 d 64.79 142.27 d 64.86 142.30 d 64.93 142.34 d
 64.97 142.34 d 65.04 142.37 d 65.11 142.37 d 65.14 142.41 d 65.21 142.41 d 65.28 142.45 d 65.35 142.45 d 65.39 142.48 d 65.46 142.48 d 65.53 142.48 d 65.60 142.52 d 65.67 142.52 d 65.74 142.52 d 65.81 142.52 d 65.88 142.52 d 65.95 142.52 d
 66.02 142.52 d 66.13 142.52 d 66.20 142.52 d 66.27 142.48 d 66.34 142.48 d 66.41 142.45 d 66.52 142.45 d 66.59 142.41 d 66.69 142.37 d 66.76 142.34 d 66.87 142.27 d 66.94 142.23 d 67.05 142.16 d 67.12 142.09 d 67.22 141.99 d 67.33 141.88 d
 67.40 141.74 d 67.50 141.60 d 67.61 141.35 d 67.72 141.00 d 67.82 139.98 d 67.93 140.26 d 68.03 140.44 d 68.14 140.65 d 68.24 140.82 d 68.35 140.96 d 68.46 141.14 d 68.60 141.28 d 68.70 141.46 d 68.81 141.60 d 68.95 141.71 d 69.05 141.85 d
 69.20 141.99 d 69.34 142.09 d 69.44 142.20 d 69.58 142.30 d 69.72 142.41 d 69.87 142.48 d 70.01 142.55 d 70.15 142.66 d 70.29 142.73 d 70.43 142.80 d 70.57 142.87 d 70.71 142.90 d 70.85 142.97 d 71.03 143.04 d 71.17 143.08 d 71.35 143.12 d
 71.49 143.19 d 71.66 143.22 d 71.84 143.26 d 72.02 143.29 d 72.19 143.33 d 72.37 143.33 d 72.54 143.33 d 72.72 143.36 d 72.90 143.36 d 73.07 143.36 d 73.28 143.40 d 73.46 143.36 d 73.67 143.36 d 73.88 143.33 d 74.06 143.29 d 74.27 143.26 d
 74.48 143.19 d 74.69 143.15 d 74.91 143.08 d 75.15 143.04 d 75.36 142.94 d 75.58 142.80 d 75.82 142.66 d 76.07 142.52 d 76.28 142.37 d 76.53 142.23 d 76.77 142.09 d 77.02 141.92 d 77.30 141.74 d 77.55 141.46 d 77.83 141.18 d 78.08 140.82 d
 78.36 140.51 d 78.64 140.15 d 78.92 139.80 d 79.21 139.38 d 79.49 138.81 d 79.77 138.25 d 80.09 137.65 d 80.37 137.02 d 80.69 136.31 d 81.00 135.61 d 81.32 134.83 d 81.64 134.06 d 81.99 133.32 d 82.31 132.72 d 82.66 132.40 d 83.01 132.54 d
 83.37 133.46 d 83.72 135.43 d 84.07 138.43 d 84.46 141.71 d 84.81 142.48 d 85.20 157.99 d 85.59 181.93 d 85.97 171.42 d 86.40 166.91 d 86.79 164.30 d 87.21 162.57 d 87.63 161.87 d 88.05 162.04 d 88.48 161.87 d 88.94 161.55 d 89.39 161.02 d
 89.85 160.35 d 90.31 159.08 d 90.77 157.14 d 91.26 153.62 d 91.72 145.23 d 92.21 108.01 d 92.74 214.85 d 93.24 181.36 d 93.76 173.18 d 94.29 169.80 d 94.82 167.86 d 95.35 167.68 d 95.92 167.79 d 96.48 167.90 d 97.04 168.00 d 97.64 168.11 d
 98.24 168.21 d 98.84 168.32 d 99.44 168.42 d 100.04 168.53 d 100.67 168.64 d 101.31 168.74 d 101.98 168.85 d 102.65 168.95 d 103.32 169.06 d 103.99 169.16 d 104.69 169.27 d 105.40 169.38 d 106.10 169.48 d 106.84 169.59 d 107.58 169.69 d
 108.32 169.80 d 109.10 169.91 d 109.87 170.05 d 110.65 162.50 d 111.46 162.68 d 112.27 162.89 d 113.08 163.10 d 113.93 163.28 d 114.77 163.42 d 115.66 163.60 d 116.54 163.74 d 117.45 163.81 d 118.33 163.88 d 119.29 163.95 d 120.24 163.98 d
 121.19 163.98 d 122.14 164.02 d 123.13 164.09 d 124.15 164.16 d 125.17 164.23 d 126.20 164.34 d 127.25 164.48 d 128.35 164.58 d 129.40 164.69 d 130.53 164.79 d 131.66 164.90 d 132.79 164.97 d 133.95 165.04 d 135.15 165.08 d 136.35 165.04 d
 137.55 165.04 d 138.78 164.97 d 140.05 164.86 d 141.32 164.69 d 142.62 164.44 d 143.96 164.02 d 145.30 163.45 d 146.68 162.64 d 148.05 161.52 d 149.46 159.82 d 150.91 157.11 d 152.35 152.14 d 153.83 140.51 d 155.35 61.90 d 156.86 222.22 d
 158.41 189.68 d 160.00 181.50 d 161.59 177.27 d 163.24 174.63 d 164.90 172.55 d 166.59 170.57 d 168.28 168.74 d 170.01 167.72 d 171.77 152.70 d 173.57 59.78 d 175.40 183.05 d 177.27 179.99 d 179.14 175.44 d 181.08 173.99 d 183.02 173.64 d
 184.99 173.75 d 187.00 174.28 d 189.05 174.70 d 191.13 175.09 d 193.24 175.55 d 195.39 176.04 d 197.58 176.50 d 199.76 176.96 d 202.02 177.41 d 204.31 177.87 d 206.64 178.37 d 209.00 178.82 d 211.39 179.28 d 213.86 179.78 d 216.33 180.23 d
 218.83 180.73 d 221.41 181.19 d 224.01 181.68 d 226.66 182.17 d 229.34 182.67 d 232.09 182.88 d 234.87 183.09 d 237.69 183.34 d 240.55 183.55 d 243.47 183.76 d 246.43 184.01 d 249.43 184.22 d 252.50 184.43 d 255.60 184.64 d 258.77 184.89 d
 261.98 185.13 d 265.22 185.38 d 268.53 185.63 d 271.92 185.91 d 275.34 186.16 d 278.83 186.44 d 282.35 186.68 d 285.95 186.97 d 289.61 187.25 d 293.32 187.57 d 297.09 187.88 d 300.93 188.24 d 304.81 188.59 d 308.79 188.90 d 312.81 189.26 d
 316.90 189.61 d 321.06 189.96 d 325.29 190.24 d 329.55 190.49 d 333.92 190.77 d 338.36 191.06 d 342.88 191.34 d 347.46 191.62 d 352.11 191.90 d 356.84 192.18 d 361.63 192.47 d s 0.0 1.0 1.0 setrgbcolor s 61.37 130.18 m 61.37 130.18 d
 61.37 130.21 d 61.37 130.18 d 61.37 130.14 d 61.37 130.11 d 61.37 130.07 d 61.37 130.04 d 61.37 130.00 d 61.37 129.97 d 61.37 129.93 d 61.37 129.90 d 61.37 129.86 d 61.37 129.83 d 61.37 129.79 d 61.37 129.76 d 61.37 129.72 d 61.37 129.68 d
 61.37 129.65 d 61.37 129.61 d 61.37 129.58 d 61.37 129.54 d 61.37 129.51 d 61.37 129.47 d 61.37 129.44 d 61.37 129.40 d 61.37 129.37 d 61.37 129.33 d 61.37 129.30 d 61.37 129.23 d 61.37 129.19 d 61.37 129.16 d 61.37 129.09 d 61.37 129.05 d
 61.37 128.98 d 61.37 128.91 d 61.37 128.84 d s 61.41 128.42 m 61.41 128.49 d 61.41 128.59 d 61.41 128.73 d 61.41 128.84 d 61.41 128.94 d 61.41 129.05 d 61.41 129.16 d 61.41 129.26 d 61.41 129.37 d 61.41 129.44 d 61.41 129.54 d
 61.41 129.65 d 61.41 129.72 d 61.41 129.83 d s 61.51 134.04 m 61.51 134.06 d 61.51 134.13 d 61.51 134.16 d 61.51 134.20 d 61.51 134.27 d 61.51 134.30 d 61.51 134.34 d 61.55 134.41 d 61.55 134.44 d 61.55 134.48 d 61.55 134.55 d
 61.55 134.58 d 61.55 134.62 d 61.55 134.69 d 61.55 134.73 d 61.55 134.76 d 61.55 134.83 d 61.55 134.87 d 61.55 134.90 d 61.58 134.97 d 61.58 135.01 d 61.58 135.04 d 61.58 135.11 d 61.58 135.15 d 61.58 135.18 d 61.58 135.25 d 61.58 135.29 d
 61.58 135.32 d 61.58 135.40 d 61.61 135.42 d s 62.36 139.38 m 62.36 139.41 d 62.39 139.45 d 62.39 139.48 d 62.43 139.55 d 62.43 139.59 d 62.46 139.63 d 62.46 139.66 d 62.50 139.70 d 62.50 139.77 d 62.53 139.80 d 62.53 139.84 d
 62.57 139.87 d 62.57 139.91 d 62.60 139.98 d 62.64 140.01 d 62.64 140.05 d 62.67 140.08 d 62.67 140.12 d 62.71 140.19 d 62.74 140.22 d 62.74 140.26 d 62.78 140.29 d 62.82 140.33 d 62.82 140.40 d 62.85 140.44 d 62.89 140.47 d 62.89 140.51 d
 62.92 140.54 d 62.94 140.56 d s 66.31 142.48 m 66.34 142.48 d 66.41 142.45 d 66.52 142.41 d 66.59 142.41 d 66.69 142.37 d 66.76 142.30 d 66.87 142.27 d 66.94 142.23 d 67.05 142.16 d 67.12 142.09 d 67.22 141.99 d 67.33 141.88 d
 67.40 141.74 d 67.41 141.71 d s 69.19 141.95 m 69.20 141.95 d 69.34 142.06 d 69.44 142.16 d 69.58 142.27 d 69.72 142.41 d 69.87 142.45 d 70.01 142.55 d 70.15 142.62 d 70.29 142.69 d 70.35 142.72 d s 74.47 143.12 m 74.48 143.12 d
 74.69 143.04 d 74.91 143.01 d 75.15 142.94 d 75.36 142.83 d 75.58 142.69 d 75.76 142.59 d s 78.81 139.73 m 78.92 139.59 d 79.21 139.17 d 79.49 138.60 d 79.53 138.52 d s 81.25 134.66 m 81.32 134.48 d 81.64 133.70 d 81.80 133.37 d
 s 83.58 134.38 m 83.72 135.18 d 83.79 135.77 d s 84.29 139.97 m 84.46 141.37 d s 84.90 145.50 m 84.93 146.91 d s 85.04 151.14 m 85.08 152.55 d s 85.18 156.78 m 85.20 157.53 d 85.21 158.19 d s 85.29 162.42 m 85.31 163.83 d s 85.39 168.06 m
 85.42 169.47 d s 85.49 173.70 m 85.52 175.11 d s 85.61 178.17 m 85.67 176.76 d s 85.85 172.53 m 85.91 171.13 d s 86.28 166.91 m 86.40 165.96 d 86.49 165.52 d s 87.43 161.41 m 87.63 160.92 d 88.05 161.09 d 88.44 160.93 d s 90.48 157.36 m
 90.77 156.12 d 90.79 155.98 d s 91.31 151.78 m 91.38 150.38 d s 91.61 146.15 m 91.69 144.74 d s 91.77 140.52 m 91.79 139.11 d s 91.84 134.88 m 91.86 133.47 d s 91.91 129.24 m 91.93 127.83 d s 91.99 123.60 m 92.01 122.19 d s 92.06 117.96 m
 92.08 116.55 d s 92.13 112.32 m 92.15 110.91 d s 92.21 106.68 m 92.21 106.21 d 92.22 107.15 d s 92.24 111.38 m 92.25 112.79 d s 92.27 117.02 m 92.27 118.43 d s 92.30 122.66 m 92.30 124.07 d s 92.32 128.30 m 92.33 129.71 d s 92.35 133.94 m
 92.36 135.35 d s 92.38 139.58 m 92.39 140.99 d s 92.41 145.22 m 92.41 146.63 d s 92.43 150.86 m 92.44 152.27 d s 92.46 156.50 m 92.47 157.91 d s 92.49 162.14 m 92.50 163.55 d s 92.52 167.78 m 92.53 169.19 d s 92.55 173.42 m 92.55 174.83 d
 s 92.57 179.06 m 92.58 180.47 d s 92.60 184.70 m 92.61 186.11 d s 92.63 190.34 m 92.64 191.75 d s 92.66 195.98 m 92.66 197.39 d s 92.69 201.62 m 92.69 203.03 d s 92.71 207.26 m 92.72 208.67 d s 92.74 212.90 m 92.74 213.12 d 92.76 211.94 d
 s 92.82 207.71 m 92.85 206.30 d s 92.91 202.07 m 92.93 200.66 d s 92.99 196.43 m 93.01 195.02 d s 93.08 190.79 m 93.10 189.38 d s 93.16 185.15 m 93.18 183.74 d s 93.29 179.51 m 93.38 178.11 d s 93.65 173.88 m 93.75 172.48 d
 s 94.44 168.31 m 94.81 166.95 d s 98.92 167.38 m 99.44 167.47 d 100.04 167.58 d 100.31 167.62 d s 104.49 168.29 m 104.69 168.32 d 105.40 168.42 d 105.88 168.50 d s 109.89 168.90 m 110.04 167.50 d s 110.49 163.29 m 110.63 161.89 d
 s 114.62 162.61 m 114.77 162.64 d 115.66 162.78 d 116.01 162.84 d s 120.22 163.17 m 120.24 163.17 d 121.19 163.17 d 121.63 163.17 d s 125.85 163.45 m 126.20 163.49 d 127.25 163.60 d s 131.46 164.04 m 131.66 164.05 d 132.79 164.12 d
 132.87 164.13 d s 137.10 164.17 m 137.55 164.16 d 138.51 164.10 d s 142.69 163.50 m 143.96 163.10 d 144.03 163.07 d s 147.62 160.89 m 148.05 160.53 d 148.58 159.87 d s 150.74 156.26 m 150.91 155.95 d 151.19 154.93 d s 152.32 150.85 m
 152.35 150.73 d 152.49 149.45 d s 152.96 145.25 m 153.12 143.85 d s 153.58 139.64 m 153.74 138.24 d s 153.89 134.02 m 153.92 132.61 d s 153.99 128.38 m 154.01 126.97 d s 154.09 122.74 m 154.11 121.33 d s 154.19 117.10 m 154.21 115.69 d
 s 154.29 111.46 m 154.31 110.05 d s 154.39 105.82 m 154.41 104.41 d s 154.48 100.18 m 154.51 98.77 d s 154.58 94.54 m 154.61 93.13 d s 154.68 88.90 m 154.71 87.49 d s 154.78 83.27 m 154.81 81.86 d s 154.88 77.63 m 154.91 76.22 d
 s 154.98 71.99 m 155.00 70.58 d s 155.08 66.35 m 155.10 64.94 d s 155.18 60.71 m 155.20 59.30 d s 155.28 55.07 m 155.30 53.66 d s 155.36 52.72 m 155.37 54.13 d s 155.41 58.36 m 155.43 59.77 d s 155.47 64.00 m 155.48 65.41 d
 s 155.52 69.64 m 155.53 71.05 d s 155.57 75.28 m 155.58 76.69 d s 155.62 80.92 m 155.64 82.33 d s 155.67 86.56 m 155.69 87.97 d s 155.73 92.20 m 155.74 93.61 d s 155.78 97.84 m 155.79 99.25 d s 155.83 103.48 m 155.84 104.89 d
 s 155.88 109.12 m 155.90 110.53 d s 155.93 114.76 m 155.95 116.17 d s 155.99 120.40 m 156.00 121.81 d s 156.04 126.04 m 156.05 127.45 d s 156.09 131.68 m 156.10 133.09 d s 156.14 137.32 m 156.16 138.73 d s 156.19 142.96 m 156.21 144.37 d
 s 156.25 148.60 m 156.26 150.01 d s 156.30 154.24 m 156.31 155.65 d s 156.35 159.88 m 156.36 161.29 d s 156.40 165.52 m 156.42 166.93 d s 156.45 171.16 m 156.47 172.57 d s 156.51 176.80 m 156.52 178.21 d s 156.56 182.44 m 156.57 183.85 d
 s 156.61 188.08 m 156.62 189.49 d s 156.66 193.72 m 156.68 195.13 d s 156.71 199.36 m 156.73 200.77 d s 156.77 205.00 m 156.78 206.41 d s 156.82 210.64 m 156.83 212.05 d s 156.91 214.55 m 156.99 213.14 d s 157.23 208.92 m 157.30 207.51 d
 s 157.54 203.29 m 157.62 201.88 d s 157.86 197.66 m 157.94 196.25 d s 158.17 192.02 m 158.25 190.62 d s 158.69 186.42 m 158.98 185.04 d s 159.86 180.90 m 160.00 180.27 d 160.28 179.56 d s 161.93 175.68 m 162.68 174.49 d s 165.22 171.11 m
 166.12 170.02 d s 168.57 166.61 m 169.06 165.29 d s 170.15 161.24 m 170.28 159.84 d s 170.66 155.63 m 170.78 154.22 d s 171.17 150.01 m 171.29 148.60 d s 171.67 144.39 m 171.77 143.29 d 171.78 142.99 d s 171.85 138.76 m 171.88 137.35 d
 s 171.95 133.12 m 171.97 131.71 d s 172.05 127.48 m 172.07 126.07 d s 172.14 121.84 m 172.17 120.43 d s 172.24 116.20 m 172.27 114.79 d s 172.34 110.56 m 172.36 109.15 d s 172.44 104.92 m 172.46 103.51 d s 172.54 99.28 m 172.56 97.87 d
 s 172.63 93.64 m 172.66 92.23 d s 172.73 88.00 m 172.76 86.59 d s 172.83 82.37 m 172.85 80.96 d s 172.93 76.73 m 172.95 75.32 d s 173.02 71.09 m 173.05 69.68 d s 173.12 65.45 m 173.15 64.04 d s 173.22 59.81 m 173.24 58.40 d
 s 173.32 54.17 m 173.34 52.76 d s 173.42 48.53 m 173.44 47.12 d s 173.51 42.89 m 173.54 41.48 d s 173.60 41.85 m 173.62 43.26 d s 173.67 47.49 m 173.69 48.90 d s 173.75 53.13 m 173.77 54.54 d s 173.82 58.77 m 173.84 60.18 d
 s 173.90 64.41 m 173.91 65.82 d s 173.97 70.05 m 173.99 71.46 d s 174.04 75.69 m 174.06 77.10 d s 174.12 81.33 m 174.13 82.74 d s 174.19 86.97 m 174.21 88.37 d s 174.26 92.60 m 174.28 94.01 d s 174.34 98.24 m 174.36 99.65 d
 s 174.41 103.88 m 174.43 105.29 d s 174.48 109.52 m 174.50 110.93 d s 174.56 115.16 m 174.58 116.57 d s 174.63 120.80 m 174.65 122.21 d s 174.71 126.44 m 174.72 127.85 d s 174.78 132.08 m 174.80 133.49 d s 174.85 137.72 m 174.87 139.13 d
 s 174.93 143.36 m 174.95 144.77 d s 175.00 149.00 m 175.02 150.41 d s 175.07 154.64 m 175.09 156.05 d s 175.15 160.28 m 175.17 161.69 d s 175.22 165.92 m 175.24 167.33 d s 175.29 171.56 m 175.31 172.97 d s 175.37 177.20 m 175.39 178.61 d
 s 177.43 177.85 m 178.00 176.56 d s 180.25 173.08 m 181.08 172.37 d 181.37 172.25 d s 185.46 171.74 m 186.86 171.87 d s 190.97 172.81 m 191.13 172.83 d 192.34 173.11 d s 196.47 174.04 m 197.58 174.28 d 197.85 174.34 d s 201.98 175.25 m
 202.02 175.26 d 203.36 175.55 d s 207.50 176.42 m 208.88 176.69 d s 213.02 177.55 m 213.86 177.73 d 214.40 177.84 d s 218.55 178.66 m 218.83 178.72 d 219.93 178.93 d s 224.08 179.75 m 225.47 180.01 d s 229.63 180.75 m 231.04 180.86 d
 s 235.26 181.17 m 236.66 181.26 d s 240.88 181.56 m 242.29 181.64 d s 246.51 181.93 m 247.92 182.01 d s 252.14 182.29 m 252.50 182.31 d 253.55 182.37 d s 257.77 182.63 m 258.77 182.70 d 259.18 182.72 d s 263.40 182.97 m 264.81 183.06 d
 s 269.03 183.33 m 270.44 183.40 d s 274.66 183.65 m 275.34 183.69 d 276.07 183.72 d s 280.29 183.95 m 281.70 184.04 d s 285.92 184.29 m 285.95 184.29 d 287.33 184.35 d s 291.55 184.61 m 292.96 184.72 d s 297.17 185.07 m 298.58 185.19 d
 s 302.79 185.52 m 304.20 185.62 d s 308.42 185.95 m 308.79 185.98 d 309.82 186.06 d s 314.04 186.39 m 315.45 186.50 d s 319.66 186.82 m 321.06 186.93 d s 325.29 187.21 m 326.70 187.31 d s 330.92 187.59 m 332.32 187.70 d s 336.54 187.98 m
 337.95 188.07 d s 342.17 188.33 m 342.88 188.38 d 343.58 188.42 d s 347.80 188.71 m 349.21 188.80 d s 353.43 189.06 m 354.84 189.16 d s 359.06 189.42 m 360.46 189.51 d s 61.37 130.18 m 61.37 130.18 d 61.37 130.21 d 61.37 130.18 d
 61.37 130.14 d 61.37 130.11 d 61.37 130.07 d 61.37 130.04 d 61.37 130.00 d 61.37 129.97 d 61.37 129.93 d 61.37 129.90 d 61.37 129.86 d 61.37 129.83 d 61.37 129.79 d 61.37 129.76 d 61.37 129.72 d 61.37 129.68 d 61.37 129.65 d 61.37 129.61 d
 61.37 129.58 d 61.37 129.54 d 61.37 129.51 d 61.37 129.47 d 61.37 129.44 d 61.37 129.40 d 61.37 129.37 d 61.37 129.33 d 61.37 129.30 d 61.37 129.23 d 61.37 129.19 d 61.37 129.16 d 61.37 129.09 d 61.37 129.05 d 61.37 128.98 d 61.37 128.91 d
 61.37 128.84 d s 61.41 128.42 m 61.41 128.49 d 61.41 128.59 d 61.41 128.73 d 61.41 128.84 d 61.41 128.94 d 61.41 129.05 d 61.41 129.16 d 61.41 129.26 d 61.41 129.37 d 61.41 129.44 d 61.41 129.54 d 61.41 129.65 d 61.41 129.72 d
 61.41 129.83 d s 61.51 134.04 m 61.51 134.06 d 61.51 134.13 d 61.51 134.16 d 61.51 134.20 d 61.51 134.27 d 61.51 134.30 d 61.51 134.34 d 61.55 134.41 d 61.55 134.44 d 61.55 134.48 d 61.55 134.55 d 61.55 134.58 d 61.55 134.62 d
 61.55 134.69 d 61.55 134.73 d 61.55 134.76 d 61.55 134.83 d 61.55 134.87 d 61.55 134.90 d 61.58 134.97 d 61.58 135.01 d 61.58 135.04 d 61.58 135.11 d 61.58 135.15 d 61.58 135.18 d 61.58 135.25 d 61.58 135.29 d 61.58 135.32 d 61.58 135.40 d
 61.61 135.42 d s 62.36 139.38 m 62.36 139.41 d 62.39 139.45 d 62.39 139.48 d 62.43 139.55 d 62.43 139.59 d 62.46 139.63 d 62.46 139.66 d 62.50 139.70 d 62.50 139.77 d 62.53 139.80 d 62.53 139.84 d 62.57 139.87 d 62.57 139.91 d
 62.60 139.98 d 62.64 140.01 d 62.64 140.05 d 62.67 140.08 d 62.67 140.12 d 62.71 140.19 d 62.74 140.22 d 62.74 140.26 d 62.78 140.29 d 62.82 140.33 d 62.82 140.40 d 62.85 140.44 d 62.89 140.47 d 62.89 140.51 d 62.92 140.54 d 62.94 140.56 d
 s 66.32 142.48 m 66.34 142.48 d 66.41 142.45 d 66.52 142.45 d 66.59 142.41 d 66.69 142.37 d 66.76 142.34 d 66.87 142.30 d 66.94 142.23 d 67.05 142.16 d 67.12 142.09 d 67.22 142.02 d 67.33 141.92 d 67.40 141.78 d 67.43 141.72 d
 s 69.22 142.01 m 69.34 142.13 d 69.44 142.23 d 69.58 142.34 d 69.72 142.45 d 69.87 142.52 d 70.01 142.59 d 70.15 142.69 d 70.29 142.76 d 70.37 142.80 d s 74.48 143.29 m 74.48 143.29 d 74.69 143.26 d 74.91 143.19 d 75.15 143.15 d
 75.36 143.04 d 75.58 142.94 d 75.79 142.82 d s 78.91 140.03 m 78.92 140.01 d 79.21 139.63 d 79.49 139.06 d 79.61 138.82 d s 81.39 134.98 m 81.64 134.37 d 81.97 133.70 d s 83.68 135.46 m 83.72 135.64 d 83.86 136.85 d s 84.35 141.06 m
 84.46 142.02 d 84.62 142.43 d s 84.90 146.62 m 84.94 148.03 d s 85.04 152.26 m 85.08 153.67 d s 85.19 157.90 m 85.20 158.45 d 85.21 159.31 d s 85.27 163.54 m 85.29 164.95 d s 85.36 169.18 m 85.38 170.59 d s 85.44 174.82 m 85.46 176.23 d
 s 85.52 180.46 m 85.54 181.87 d s 85.62 184.17 m 85.66 182.76 d s 85.80 178.53 m 85.85 177.12 d s 86.01 172.90 m 86.11 171.49 d s 86.47 167.28 m 86.63 165.88 d s 88.46 162.86 m 88.48 162.86 d 88.94 162.54 d 89.39 162.01 d 89.47 161.90 d
 s 90.80 157.92 m 91.00 156.53 d s 91.39 152.32 m 91.47 150.91 d s 91.70 146.69 m 91.72 146.32 d 91.73 145.28 d s 91.79 141.05 m 91.81 139.64 d s 91.87 135.41 m 91.89 134.00 d s 91.94 129.77 m 91.96 128.36 d s 92.02 124.13 m 92.04 122.72 d
 s 92.10 118.49 m 92.12 117.08 d s 92.17 112.85 m 92.19 111.44 d s 92.19 111.44 m s 92.23 112.33 m 92.23 113.74 d s 92.25 117.97 m 92.26 119.38 d s 92.28 123.61 m 92.29 125.02 d s 92.31 129.25 m 92.32 130.66 d s 92.34 134.89 m
 92.35 136.30 d s 92.37 140.53 m 92.37 141.94 d s 92.39 146.17 m 92.40 147.58 d s 92.42 151.81 m 92.43 153.22 d s 92.45 157.45 m 92.46 158.86 d s 92.48 163.09 m 92.49 164.50 d s 92.51 168.73 m 92.51 170.14 d s 92.53 174.37 m 92.54 175.78 d
 s 92.56 180.01 m 92.57 181.42 d s 92.59 185.65 m 92.60 187.06 d s 92.62 191.29 m 92.62 192.70 d s 92.65 196.93 m 92.65 198.34 d s 92.67 202.57 m 92.68 203.98 d s 92.70 208.21 m 92.71 209.62 d s 92.73 213.85 m 92.74 215.26 d
 s 92.79 213.60 m 92.81 212.19 d s 92.87 207.96 m 92.89 206.55 d s 92.95 202.32 m 92.97 200.91 d s 93.03 196.68 m 93.05 195.27 d s 93.11 191.04 m 93.13 189.63 d s 93.19 185.40 m 93.21 183.99 d s 93.41 179.76 m 93.50 178.36 d
 s 93.77 174.14 m 93.99 172.74 d s 95.02 168.75 m 95.35 168.64 d 95.92 168.74 d 96.39 168.83 d s 100.56 169.57 m 100.67 169.59 d 101.31 169.69 d 101.95 169.79 d s 106.13 170.44 m 106.84 170.54 d 107.53 170.64 d s 110.06 169.11 m
 110.20 167.71 d s 110.62 163.50 m 110.65 163.24 d 111.46 163.45 d 111.76 163.53 d s 115.89 164.44 m 116.54 164.55 d 117.29 164.61 d s 121.52 164.81 m 122.14 164.83 d 122.92 164.88 d s 127.13 165.31 m 127.25 165.32 d 128.35 165.43 d
 128.53 165.45 d s 132.75 165.81 m 132.79 165.82 d 133.95 165.89 d 134.16 165.89 d s 138.38 165.85 m 138.78 165.82 d 139.79 165.76 d s 143.93 164.94 m 143.96 164.93 d 145.23 164.40 d s 148.59 161.89 m 149.46 160.88 d 149.50 160.81 d
 s 151.30 157.01 m 151.71 155.66 d s 152.65 151.55 m 152.86 150.15 d s 153.48 145.97 m 153.69 144.57 d s 153.90 140.35 m 153.93 138.94 d s 154.02 134.72 m 154.05 133.31 d s 154.14 129.08 m 154.17 127.67 d s 154.26 123.44 m 154.29 122.03 d
 s 154.38 117.80 m 154.41 116.39 d s 154.50 112.16 m 154.53 110.75 d s 154.62 106.52 m 154.65 105.11 d s 154.74 100.88 m 154.77 99.47 d s 154.87 95.24 m 154.90 93.84 d s 154.99 89.61 m 155.02 88.20 d s 155.11 83.97 m 155.14 82.56 d
 s 155.23 78.33 m 155.26 76.92 d s 155.35 72.75 m 155.36 74.16 d s 155.40 78.39 m 155.42 79.80 d s 155.46 84.03 m 155.47 85.44 d s 155.51 89.67 m 155.52 91.08 d s 155.57 95.31 m 155.58 96.72 d s 155.62 100.95 m 155.63 102.36 d
 s 155.68 106.59 m 155.69 108.00 d s 155.73 112.23 m 155.74 113.64 d s 155.78 117.87 m 155.80 119.28 d s 155.84 123.51 m 155.85 124.92 d s 155.89 129.15 m 155.91 130.56 d s 155.95 134.79 m 155.96 136.20 d s 156.00 140.43 m 156.02 141.84 d
 s 156.06 146.07 m 156.07 147.48 d s 156.11 151.71 m 156.13 153.12 d s 156.17 157.35 m 156.18 158.76 d s 156.22 162.99 m 156.24 164.40 d s 156.28 168.63 m 156.29 170.04 d s 156.33 174.27 m 156.34 175.68 d s 156.39 179.91 m 156.40 181.32 d
 s 156.44 185.55 m 156.45 186.96 d s 156.50 191.19 m 156.51 192.60 d s 156.55 196.83 m 156.56 198.24 d s 156.60 202.47 m 156.62 203.88 d s 156.66 208.11 m 156.67 209.52 d s 156.71 213.74 m 156.73 215.15 d s 156.77 219.38 m 156.78 220.79 d
 s 156.82 225.02 m 156.84 226.43 d s 156.93 227.45 m 156.99 226.04 d s 157.16 221.81 m 157.22 220.40 d s 157.40 216.18 m 157.45 214.77 d s 157.63 210.54 m 157.69 209.13 d s 157.86 204.91 m 157.92 203.50 d s 158.10 199.27 m 158.16 197.86 d
 s 158.33 193.64 m 158.39 192.23 d s 159.06 188.05 m 159.30 186.67 d s 160.09 182.51 m 160.57 181.19 d s 162.22 177.31 m 162.96 176.11 d s 165.58 172.80 m 166.52 171.75 d s 169.30 171.63 m 170.01 172.69 d 170.03 172.55 d s 170.73 168.38 m
 170.96 166.99 d s 171.66 162.82 m 171.77 162.11 d 171.79 161.42 d s 171.88 157.19 m 171.91 155.78 d s 172.00 151.55 m 172.04 150.14 d s 172.13 145.91 m 172.16 144.50 d s 172.25 140.27 m 172.28 138.86 d s 172.38 134.63 m 172.41 133.23 d
 s 172.50 129.00 m 172.53 127.59 d s 172.62 123.36 m 172.65 121.95 d s 172.75 117.72 m 172.78 116.31 d s 172.87 112.08 m 172.90 110.67 d s 172.99 106.44 m 173.02 105.03 d s 173.12 100.80 m 173.15 99.39 d s 173.24 95.16 m 173.27 93.75 d
 s 173.36 89.53 m 173.39 88.12 d s 173.49 83.89 m 173.52 82.48 d s 173.60 81.79 m 173.63 83.20 d s 173.70 87.43 m 173.72 88.84 d s 173.80 93.07 m 173.82 94.47 d s 173.89 98.70 m 173.92 100.11 d s 173.99 104.34 m 174.02 105.75 d
 s 174.09 109.98 m 174.11 111.39 d s 174.19 115.62 m 174.21 117.03 d s 174.28 121.26 m 174.31 122.67 d s 174.38 126.90 m 174.40 128.31 d s 174.48 132.54 m 174.50 133.95 d s 174.58 138.18 m 174.60 139.59 d s 174.67 143.82 m 174.70 145.23 d
 s 174.77 149.46 m 174.79 150.87 d s 174.87 155.10 m 174.89 156.51 d s 174.96 160.74 m 174.99 162.14 d s 175.06 166.37 m 175.09 167.78 d s 175.16 172.01 m 175.18 173.42 d s 175.26 177.65 m 175.28 179.06 d s 175.35 183.29 m 175.38 184.70 d
 s 176.47 183.66 m 177.01 182.36 d s 178.55 178.42 m 179.05 177.11 d s 182.77 175.68 m 183.02 175.69 d 184.18 175.77 d s 188.23 176.78 m 189.05 176.85 d 189.62 176.99 d s 193.75 177.90 m 195.14 178.17 d s 199.28 179.04 m 199.76 179.14 d
 200.66 179.31 d s 204.81 180.12 m 206.19 180.39 d s 210.35 181.16 m 211.39 181.36 d 211.74 181.43 d s 215.90 182.20 m 216.33 182.28 d 217.28 182.45 d s 221.45 183.20 m 222.84 183.45 d s 227.00 184.17 m 228.39 184.41 d s 232.60 184.86 m
 234.00 184.99 d s 238.22 185.35 m 239.62 185.48 d s 243.84 185.83 m 245.24 185.95 d s 249.46 186.30 m 250.86 186.41 d s 255.08 186.75 m 255.60 186.79 d 256.48 186.86 d s 260.70 187.23 m 261.98 187.35 d 262.10 187.37 d s 266.31 187.78 m
 267.71 187.91 d s 271.92 188.34 m 273.33 188.47 d s 277.54 188.86 m 278.83 188.98 d 278.94 188.99 d s 283.15 189.40 m 284.56 189.52 d s 288.77 189.92 m 289.61 190.00 d 290.17 190.05 d s 294.38 190.46 m 295.79 190.60 d s 300.00 191.00 m
 300.93 191.09 d 301.40 191.14 d s 305.61 191.56 m 307.01 191.69 d s 311.22 192.08 m 312.63 192.20 d s 316.84 192.60 m 316.90 192.61 d 318.24 192.73 d s 322.46 193.08 m 323.87 193.16 d s 328.09 193.40 m 329.50 193.48 d s 333.72 193.76 m
 333.92 193.77 d 335.13 193.84 d s 339.35 194.07 m 340.76 194.15 d s 344.98 194.39 m 346.39 194.48 d s 350.61 194.71 m 352.02 194.79 d s 356.24 195.04 m 356.84 195.07 d 357.65 195.12 d s 0.0 1.0 0.0 setrgbcolor s 303.15 84.60 m
 325.71 84.60 d s 336.99 87.42 m 336.99 82.24 d 337.45 81.78 d 337.94 81.78 d s 339.35 83.65 m 342.17 83.65 d 342.17 84.60 d 341.22 85.55 d 340.27 85.55 d 339.35 84.60 d 339.35 82.73 d 340.27 81.78 d 342.17 81.78 d s 343.58 81.78 m
 345.45 81.78 d 346.40 82.73 d 346.40 84.60 d 345.45 85.55 d 343.58 85.55 d 343.58 80.37 d s 61.37 130.18 m 61.37 130.18 d 61.37 130.21 d 61.37 130.18 d 61.37 130.14 d 61.37 130.11 d 61.37 130.07 d 61.37 130.04 d 61.37 130.00 d
 61.37 129.97 d 61.37 129.93 d 61.37 129.90 d 61.37 129.86 d 61.37 129.83 d 61.37 129.79 d 61.37 129.76 d 61.37 129.72 d 61.37 129.68 d 61.37 129.65 d 61.37 129.61 d 61.37 129.58 d 61.37 129.54 d 61.37 129.51 d 61.37 129.47 d 61.37 129.44 d
 61.37 129.40 d 61.37 129.37 d 61.37 129.33 d 61.37 129.30 d 61.37 129.23 d 61.37 129.19 d 61.37 129.16 d 61.37 129.09 d 61.37 129.05 d 61.37 128.98 d 61.37 128.91 d 61.37 128.84 d 61.41 128.73 d 61.41 128.66 d 61.41 128.56 d 61.41 128.42 d
 61.41 128.27 d 61.41 128.13 d 61.41 127.92 d 61.41 127.64 d 61.41 127.15 d 61.41 126.51 d 61.41 126.69 d 61.41 126.90 d 61.41 127.08 d 61.41 127.25 d 61.41 127.39 d 61.41 127.53 d 61.41 127.71 d 61.41 127.85 d 61.41 127.96 d 61.41 128.10 d
 61.41 128.24 d 61.41 128.35 d 61.41 128.49 d 61.41 128.59 d 61.41 128.73 d 61.41 128.84 d 61.41 128.94 d 61.41 129.05 d 61.41 129.16 d 61.41 129.26 d 61.41 129.37 d 61.41 129.44 d 61.41 129.54 d 61.41 129.65 d 61.41 129.72 d 61.41 129.83 d
 61.41 129.90 d 61.41 130.00 d 61.41 130.07 d 61.41 130.18 d 61.41 130.25 d 61.41 130.32 d 61.41 130.39 d 61.41 130.50 d 61.41 130.57 d 61.41 130.64 d 61.41 130.71 d 61.41 130.78 d 61.41 130.85 d 61.41 130.92 d 61.41 130.99 d 61.41 131.06 d
 61.44 131.13 d 61.44 131.20 d 61.44 131.27 d 61.44 131.34 d 61.44 131.38 d 61.44 131.45 d 61.44 131.52 d 61.44 131.59 d 61.44 131.66 d 61.44 131.69 d 61.44 131.76 d 61.44 131.84 d 61.44 131.87 d 61.44 131.94 d 61.44 132.01 d 61.44 132.05 d
 61.44 132.12 d 61.44 132.19 d 61.44 132.22 d 61.44 132.29 d 61.44 132.33 d 61.44 132.40 d 61.44 132.43 d 61.44 132.50 d 61.44 132.58 d 61.44 132.61 d 61.44 132.68 d 61.44 132.72 d 61.48 132.79 d 61.48 132.82 d 61.48 132.89 d 61.48 132.93 d
 61.48 132.96 d 61.48 133.03 d 61.48 133.07 d 61.48 133.14 d 61.48 133.17 d 61.48 133.24 d 61.48 133.28 d 61.48 133.35 d 61.48 133.39 d 61.48 133.42 d 61.48 133.49 d 61.48 133.53 d 61.48 133.60 d 61.48 133.63 d 61.48 133.67 d 61.51 133.74 d
 61.51 133.77 d 61.51 133.84 d 61.51 133.88 d 61.51 133.91 d 61.51 133.99 d 61.51 134.02 d 61.51 134.06 d 61.51 134.13 d 61.51 134.16 d 61.51 134.20 d 61.51 134.27 d 61.51 134.30 d 61.51 134.34 d 61.55 134.41 d 61.55 134.44 d 61.55 134.51 d
 61.55 134.55 d 61.55 134.58 d 61.55 134.66 d 61.55 134.69 d 61.55 134.73 d 61.55 134.76 d 61.55 134.83 d 61.55 134.87 d 61.55 134.90 d 61.58 134.97 d 61.58 135.01 d 61.58 135.04 d 61.58 135.11 d 61.58 135.15 d 61.58 135.18 d 61.58 135.25 d
 61.58 135.29 d 61.58 135.32 d 61.58 135.40 d 61.62 135.43 d 61.62 135.47 d 61.62 135.50 d 61.62 135.57 d 61.62 135.61 d 61.62 135.64 d 61.62 135.71 d 61.62 135.75 d 61.62 135.78 d 61.65 135.85 d 61.65 135.89 d 61.65 135.92 d 61.65 135.96 d
 61.65 136.03 d 61.65 136.07 d 61.65 136.10 d 61.69 136.17 d 61.69 136.21 d 61.69 136.24 d 61.69 136.28 d 61.69 136.35 d 61.69 136.38 d 61.69 136.42 d 61.72 136.49 d 61.72 136.52 d 61.72 136.56 d 61.72 136.59 d 61.72 136.66 d 61.72 136.70 d
 61.76 136.73 d 61.76 136.81 d 61.76 136.84 d 61.76 136.88 d 61.76 136.91 d 61.79 136.98 d 61.79 137.02 d 61.79 137.05 d 61.79 137.12 d 61.79 137.16 d 61.83 137.19 d 61.83 137.23 d 61.83 137.30 d 61.83 137.33 d 61.83 137.37 d 61.86 137.40 d
 61.86 137.47 d 61.86 137.51 d 61.86 137.55 d 61.90 137.62 d 61.90 137.65 d 61.90 137.69 d 61.90 137.76 d 61.93 137.83 d 61.93 137.86 d 61.93 137.90 d 61.93 137.93 d 61.97 137.97 d 61.97 138.04 d 61.97 138.07 d 61.97 138.11 d 62.00 138.14 d
 62.00 138.22 d 62.00 138.25 d 62.04 138.29 d 62.04 138.32 d 62.04 138.39 d 62.04 138.43 d 62.08 138.46 d 62.08 138.50 d 62.08 138.53 d 62.11 138.60 d 62.11 138.64 d 62.15 138.67 d 62.15 138.71 d 62.15 138.78 d 62.18 138.81 d 62.18 138.85 d
 62.18 138.89 d 62.22 138.96 d 62.22 138.99 d 62.25 139.03 d 62.25 139.06 d 62.25 139.13 d 62.29 139.17 d 62.29 139.20 d 62.32 139.24 d 62.32 139.31 d 62.32 139.34 d 62.36 139.38 d 62.36 139.41 d 62.39 139.48 d 62.39 139.52 d 62.43 139.55 d
 62.43 139.59 d 62.46 139.66 d 62.46 139.70 d 62.50 139.73 d 62.50 139.77 d 62.53 139.84 d 62.53 139.87 d 62.57 139.91 d 62.57 139.94 d 62.60 139.98 d 62.64 140.05 d 62.64 140.08 d 62.67 140.12 d 62.67 140.15 d 62.71 140.22 d 62.74 140.26 d
 62.74 140.29 d 62.78 140.33 d 62.82 140.37 d 62.82 140.44 d 62.85 140.47 d 62.89 140.51 d 62.89 140.54 d 62.92 140.61 d 62.96 140.65 d 62.96 140.68 d 62.99 140.72 d 63.03 140.75 d 63.06 140.82 d 63.10 140.86 d 63.10 140.89 d 63.13 140.93 d
 63.17 140.96 d 63.20 141.00 d 63.24 141.07 d 63.24 141.11 d 63.27 141.14 d 63.31 141.18 d 63.34 141.21 d 63.38 141.28 d 63.41 141.32 d 63.45 141.35 d 63.49 141.39 d 63.52 141.42 d 63.56 141.46 d 63.59 141.49 d 63.63 141.56 d 63.66 141.60 d
 63.70 141.63 d 63.73 141.67 d 63.77 141.71 d 63.80 141.74 d 63.84 141.78 d 63.91 141.81 d 63.94 141.85 d 63.98 141.88 d 64.01 141.95 d 64.05 141.99 d 64.12 142.02 d 64.16 142.06 d 64.19 142.09 d 64.23 142.13 d 64.30 142.16 d 64.33 142.20 d
 64.40 142.23 d 64.44 142.27 d 64.47 142.30 d 64.54 142.34 d 64.58 142.37 d 64.65 142.41 d 64.68 142.45 d 64.75 142.45 d 64.79 142.48 d 64.86 142.52 d 64.93 142.55 d 64.97 142.59 d 65.04 142.62 d 65.11 142.66 d 65.14 142.66 d 65.21 142.69 d
 65.28 142.73 d 65.35 142.73 d 65.39 142.76 d 65.46 142.80 d 65.53 142.80 d 65.60 142.83 d 65.67 142.87 d 65.74 142.87 d 65.81 142.87 d 65.88 142.90 d 65.95 142.90 d 66.02 142.94 d 66.13 142.94 d 66.20 142.94 d 66.27 142.94 d 66.34 142.94 d
 66.41 142.94 d 66.52 142.94 d 66.59 142.90 d 66.69 142.90 d 66.76 142.87 d 66.87 142.87 d 66.94 142.83 d 67.05 142.76 d 67.12 142.73 d 67.22 142.66 d 67.33 142.59 d 67.40 142.45 d 67.50 142.30 d 67.61 142.13 d 67.72 141.81 d 67.82 140.79 d
 67.93 141.11 d 68.03 141.32 d 68.14 141.53 d 68.24 141.74 d 68.35 141.95 d 68.46 142.16 d 68.60 142.34 d 68.70 142.55 d 68.81 142.73 d 68.95 142.90 d 69.05 143.08 d 69.20 143.26 d 69.34 143.43 d 69.44 143.61 d 69.58 143.75 d 69.72 143.93 d
 69.87 144.07 d 70.01 144.24 d 70.15 144.38 d 70.29 144.52 d 70.43 144.67 d 70.57 144.81 d 70.71 144.95 d 70.85 145.09 d 71.03 145.23 d 71.17 145.37 d 71.35 145.51 d 71.49 145.65 d 71.66 145.76 d 71.84 145.90 d 72.02 146.04 d 72.19 146.15 d
 72.37 146.29 d 72.54 146.39 d 72.72 146.53 d 72.90 146.64 d 73.07 146.75 d 73.28 146.89 d 73.46 146.99 d 73.67 147.10 d 73.88 147.24 d 74.06 147.34 d 74.27 147.45 d 74.48 147.56 d 74.69 147.66 d 74.91 147.77 d 75.15 147.87 d 75.36 148.01 d
 75.58 148.12 d 75.82 148.23 d 76.07 148.33 d 76.28 148.44 d 76.53 148.54 d 76.77 148.65 d 77.02 148.76 d 77.30 148.83 d 77.55 148.93 d 77.83 149.04 d 78.08 149.14 d 78.36 149.25 d 78.64 149.35 d 78.92 149.46 d 79.21 149.57 d 79.49 149.64 d
 79.77 149.74 d 80.09 149.85 d 80.37 149.95 d 80.69 150.02 d 81.00 150.13 d 81.32 150.24 d 81.64 150.34 d 81.99 150.41 d 82.31 150.52 d 82.66 150.62 d 83.01 150.73 d 83.37 150.80 d 83.72 150.91 d 84.07 151.01 d 84.46 151.08 d 84.81 151.19 d
 85.20 151.29 d 85.59 151.36 d 85.97 151.47 d 86.40 151.57 d 86.79 151.65 d 87.21 151.75 d 87.63 151.82 d 88.05 151.93 d 88.48 152.03 d 88.94 152.10 d 89.39 152.21 d 89.85 152.28 d 90.31 152.39 d 90.77 152.46 d 91.26 152.56 d 91.72 152.67 d
 92.21 152.74 d 92.74 152.84 d 93.24 152.91 d 93.76 153.02 d 94.29 153.09 d 94.82 153.20 d 95.35 153.27 d 95.92 153.37 d 96.48 153.44 d 97.04 153.55 d 97.64 153.62 d 98.24 153.73 d 98.84 153.80 d 99.44 153.90 d 100.04 153.97 d
 100.67 154.08 d 101.31 154.15 d 101.98 154.22 d 102.65 154.32 d 103.32 154.39 d 103.99 154.50 d 104.69 154.57 d 105.40 154.68 d 106.10 154.75 d 106.84 154.82 d 107.58 154.92 d 108.32 154.99 d 109.10 155.06 d 109.87 155.17 d 110.65 155.24 d
 111.46 155.31 d 112.27 155.42 d 113.08 155.49 d 113.93 155.56 d 114.77 155.63 d 115.66 155.73 d 116.54 155.81 d 117.45 155.88 d 118.33 155.95 d 119.29 156.05 d 120.24 156.12 d 121.19 156.19 d 122.14 156.26 d 123.13 156.33 d 124.15 156.40 d
 125.17 156.47 d 126.20 156.55 d 127.25 156.62 d 128.35 156.69 d 129.40 156.76 d 130.53 156.83 d 131.66 156.90 d 132.79 156.97 d 133.95 157.04 d 135.15 157.11 d 136.35 157.14 d 137.55 157.22 d 138.78 157.29 d 140.05 157.32 d 141.32 157.39 d
 142.62 157.43 d 143.96 157.50 d 145.30 157.53 d 146.68 157.57 d 148.05 157.60 d 149.46 157.64 d 150.91 157.67 d 152.35 157.71 d 153.83 157.71 d 155.35 157.71 d 156.86 157.71 d 158.41 157.71 d 160.00 157.71 d 161.59 157.64 d 163.24 157.60 d
 164.90 157.50 d 166.59 157.32 d 168.28 157.04 d 170.01 156.16 d 171.77 156.47 d 173.57 156.76 d 175.40 157.00 d 177.27 157.25 d 179.14 157.50 d 181.08 157.74 d 183.02 157.99 d 184.99 158.24 d 187.00 158.45 d 189.05 158.70 d 191.13 158.91 d
 193.24 159.12 d 195.39 159.33 d 197.58 159.54 d 199.76 159.75 d 202.02 159.96 d 204.31 160.18 d 206.64 160.35 d 209.00 160.56 d 211.39 160.74 d 213.86 160.95 d 216.33 161.13 d 218.83 161.30 d 221.41 161.52 d 224.01 161.69 d 226.66 161.87 d
 229.34 162.04 d 232.09 162.22 d 234.87 162.40 d 237.69 162.57 d 240.55 162.75 d 243.47 162.93 d 246.43 163.10 d 249.43 163.24 d 252.50 163.42 d 255.60 163.60 d 258.77 163.74 d 261.98 163.91 d 265.22 164.09 d 268.53 164.23 d 271.92 164.41 d
 275.34 164.55 d 278.83 164.72 d 282.35 164.86 d 285.95 165.04 d 289.61 165.18 d 293.32 165.32 d 297.09 165.50 d 300.93 165.64 d 304.81 165.78 d 308.79 165.96 d 312.81 166.10 d 316.90 166.24 d 321.06 166.42 d 325.29 166.56 d 329.55 166.70 d
 333.92 166.84 d 338.36 166.98 d 342.88 167.16 d 347.46 167.30 d 352.11 167.44 d 356.84 167.58 d 361.63 167.72 d s 0.0 0.0 1.0 setrgbcolor s 303.15 70.50 m 304.57 70.50 d s 308.80 70.50 m 310.21 70.50 d s 314.44 70.50 m 315.85 70.50 d
 s 320.08 70.50 m 321.49 70.50 d s 336.99 73.32 m 336.99 67.68 d 336.99 71.45 d 338.86 71.45 d 339.81 70.50 d 339.81 67.68 d s 344.04 69.55 m 341.68 69.55 d 341.22 69.09 d 341.22 68.14 d 341.68 67.68 d 344.04 67.68 d 344.04 70.96 d
 343.58 71.45 d 341.68 71.45 d s 348.27 71.45 m 346.40 71.45 d 345.45 70.50 d 345.45 68.63 d 346.40 67.68 d 348.27 67.68 d 348.27 73.32 d s 352.04 73.32 m 351.55 72.86 d 351.09 71.45 d 351.09 69.55 d 351.55 68.14 d 352.04 67.68 d
 s 353.91 67.68 m 355.78 67.68 d 356.73 68.63 d 356.73 69.55 d 355.78 70.50 d 353.91 70.50 d 353.91 73.32 d 356.73 73.32 d s 359.09 73.32 m 359.55 72.86 d 360.01 71.45 d 360.01 69.55 d 359.55 68.14 d 359.09 67.68 d s 61.37 130.18 m
 61.37 130.18 d 61.41 130.18 d 61.44 130.18 d 61.48 130.18 d 61.51 130.18 d 61.55 130.18 d 61.58 130.18 d 61.62 130.18 d 61.65 130.18 d 61.69 130.18 d 61.72 130.18 d 61.76 130.18 d 61.79 130.18 d 61.83 130.18 d 61.86 130.18 d 61.90 130.18 d
 61.93 130.18 d 61.97 130.18 d 61.97 130.14 d 62.00 130.14 d 62.04 130.14 d 62.08 130.14 d 62.11 130.14 d 62.15 130.14 d 62.18 130.14 d 62.22 130.14 d 62.25 130.14 d 62.29 130.14 d 62.32 130.14 d 62.36 130.14 d 62.39 130.14 d 62.43 130.14 d
 62.46 130.14 d 62.50 130.14 d 62.53 130.14 d 62.57 130.14 d 62.60 130.14 d 62.64 130.14 d 62.67 130.14 d 62.71 130.14 d 62.74 130.14 d 62.76 130.14 d s 66.84 129.59 m 66.87 129.58 d 66.94 129.58 d 67.05 129.54 d 67.12 129.54 d
 67.22 129.51 d 67.33 129.47 d 67.40 129.47 d 67.50 129.44 d 67.61 129.40 d 67.72 129.37 d 67.82 129.37 d 67.93 129.33 d 68.03 129.30 d 68.14 129.26 d 68.19 129.24 d s 71.98 127.44 m 72.02 127.43 d 72.19 127.32 d 72.37 127.22 d
 72.54 127.11 d 72.72 127.01 d 72.90 126.90 d 73.07 126.79 d 73.20 126.73 d s 76.40 124.00 m 76.53 123.87 d 76.77 123.62 d 77.02 123.34 d 77.30 123.06 d 77.36 122.97 d s 79.50 119.33 m 79.77 118.65 d 80.06 118.04 d s 81.57 114.09 m
 81.64 113.89 d 81.99 113.05 d 82.11 112.79 d s 83.73 114.75 m 83.90 116.15 d s 84.41 120.35 m 84.46 120.77 d 84.81 121.44 d 84.82 121.67 d s 84.92 125.90 m 84.96 127.31 d s 85.07 131.54 m 85.10 132.95 d s 85.20 137.18 m 85.23 138.59 d
 s 85.30 142.82 m 85.32 144.23 d s 85.39 148.46 m 85.41 149.87 d s 85.48 154.10 m 85.50 155.51 d s 85.57 159.73 m 85.59 160.74 d 85.60 160.34 d s 85.76 156.11 m 85.81 154.70 d s 85.96 150.47 m 85.97 150.09 d 86.07 149.07 d s 86.49 144.86 m
 86.69 143.46 d s 88.36 140.09 m 88.48 140.01 d 88.94 139.63 d 89.32 139.09 d s 90.70 135.13 m 90.77 134.83 d 90.92 133.73 d s 91.35 129.53 m 91.43 128.12 d s 91.66 123.90 m 91.72 122.74 d 91.72 122.49 d s 91.78 118.26 m 91.80 116.85 d
 s 91.85 112.62 m 91.87 111.21 d s 91.93 106.98 m 91.95 105.57 d s 92.00 101.34 m 92.02 99.93 d s 92.08 95.70 m 92.10 94.29 d s 92.15 90.06 m 92.17 88.65 d s 92.22 86.40 m 92.23 87.81 d s 92.25 92.04 m 92.25 93.45 d s 92.27 97.68 m
 92.28 99.09 d s 92.30 103.32 m 92.31 104.73 d s 92.33 108.96 m 92.34 110.37 d s 92.36 114.60 m 92.37 116.01 d s 92.39 120.24 m 92.39 121.65 d s 92.41 125.88 m 92.42 127.29 d s 92.44 131.52 m 92.45 132.93 d s 92.47 137.16 m 92.48 138.57 d
 s 92.50 142.80 m 92.51 144.21 d s 92.53 148.44 m 92.53 149.85 d s 92.55 154.08 m 92.56 155.49 d s 92.58 159.72 m 92.59 161.13 d s 92.61 165.36 m 92.62 166.77 d s 92.64 171.00 m 92.64 172.41 d s 92.67 176.64 m 92.67 178.05 d
 s 92.69 182.28 m 92.70 183.69 d s 92.72 187.92 m 92.73 189.33 d s 92.76 190.81 m 92.78 189.40 d s 92.85 185.17 m 92.87 183.76 d s 92.93 179.53 m 92.95 178.12 d s 93.01 173.89 m 93.03 172.48 d s 93.09 168.25 m 93.12 166.84 d
 s 93.18 162.61 m 93.20 161.20 d s 93.34 156.98 m 93.43 155.57 d s 93.70 151.35 m 93.76 150.34 d 93.83 149.94 d s 94.58 145.79 m 94.82 144.84 d 95.21 144.64 d s 99.41 144.70 m 99.44 144.70 d 100.04 144.70 d 100.67 144.74 d 100.82 144.74 d
 s 105.05 144.88 m 105.40 144.88 d 106.10 144.91 d 106.46 144.93 d s 109.96 144.25 m 110.10 142.84 d s 110.52 138.64 m 110.65 137.40 d 110.82 137.43 d s 115.01 137.96 m 115.66 138.04 d 116.42 138.10 d s 120.64 138.01 m 121.19 137.97 d
 122.05 137.90 d s 126.28 137.94 m 127.25 138.00 d 127.69 138.02 d s 131.91 138.18 m 132.79 138.18 d 133.32 138.18 d s 137.55 138.00 m 138.78 137.86 d 138.95 137.84 d s 143.09 137.00 m 143.96 136.70 d 144.40 136.50 d s 147.92 134.20 m
 148.05 134.09 d 148.83 133.12 d s 150.94 129.47 m 151.33 128.12 d s 152.43 124.04 m 152.60 122.64 d s 153.13 118.45 m 153.31 117.05 d s 153.83 112.85 m 153.86 111.44 d s 153.94 107.21 m 153.97 105.80 d s 154.05 101.57 m 154.08 100.16 d
 s 154.16 95.93 m 154.19 94.52 d s 154.27 90.30 m 154.29 88.89 d s 154.38 84.66 m 154.40 83.25 d s 154.49 79.02 m 154.51 77.61 d s 154.59 73.38 m 154.62 71.97 d s 154.70 67.74 m 154.73 66.33 d s 154.81 62.10 m 154.84 60.69 d
 s 154.92 56.46 m 154.95 55.05 d s 155.03 50.82 m 155.06 49.41 d s 155.14 45.18 m 155.16 43.77 d s 155.25 39.54 m 155.27 38.13 d s 155.35 34.76 m 155.36 36.17 d s 155.40 40.40 m 155.42 41.81 d s 155.46 46.04 m 155.47 47.45 d
 s 155.51 51.68 m 155.52 53.09 d s 155.56 57.32 m 155.58 58.73 d s 155.62 62.96 m 155.63 64.37 d s 155.67 68.60 m 155.68 70.01 d s 155.72 74.24 m 155.74 75.65 d s 155.78 79.88 m 155.79 81.29 d s 155.83 85.52 m 155.84 86.93 d
 s 155.88 91.16 m 155.90 92.57 d s 155.94 96.80 m 155.95 98.21 d s 155.99 102.44 m 156.00 103.85 d s 156.04 108.08 m 156.06 109.49 d s 156.10 113.72 m 156.11 115.13 d s 156.15 119.36 m 156.16 120.77 d s 156.20 125.00 m 156.22 126.41 d
 s 156.26 130.64 m 156.27 132.05 d s 156.31 136.28 m 156.32 137.69 d s 156.36 141.92 m 156.38 143.33 d s 156.42 147.56 m 156.43 148.97 d s 156.47 153.20 m 156.48 154.61 d s 156.52 158.84 m 156.54 160.25 d s 156.58 164.48 m 156.59 165.89 d
 s 156.63 170.12 m 156.64 171.53 d s 156.68 175.76 m 156.70 177.17 d s 156.74 181.39 m 156.75 182.80 d s 156.79 187.03 m 156.80 188.44 d s 156.84 192.67 m 156.86 194.08 d s 157.04 191.06 m 157.10 189.65 d s 157.30 185.43 m 157.37 184.02 d
 s 157.57 179.79 m 157.64 178.39 d s 157.84 174.16 m 157.91 172.75 d s 158.11 168.53 m 158.18 167.12 d s 158.38 162.89 m 158.41 162.11 d 158.53 161.50 d s 159.34 157.34 m 159.61 155.96 d s 160.78 151.91 m 161.28 150.59 d s 163.44 146.97 m
 164.34 145.89 d s 167.23 142.81 m 168.27 141.86 d s 170.29 139.27 m 170.46 137.87 d s 170.94 133.67 m 171.10 132.27 d s 171.58 128.07 m 171.74 126.67 d s 171.85 122.44 m 171.88 121.03 d s 171.96 116.80 m 171.99 115.39 d s 172.07 111.16 m
 172.09 109.75 d s 172.18 105.52 m 172.20 104.11 d s 172.28 99.88 m 172.31 98.47 d s 172.39 94.24 m 172.42 92.84 d s 172.50 88.61 m 172.53 87.20 d s 172.61 82.97 m 172.64 81.56 d s 172.72 77.33 m 172.75 75.92 d s 172.83 71.69 m
 172.86 70.28 d s 172.94 66.05 m 172.96 64.64 d s 173.05 60.41 m 173.07 59.00 d s 173.16 54.77 m 173.18 53.36 d s 173.26 49.13 m 173.29 47.72 d s 173.37 43.49 m 173.40 42.08 d s 173.48 37.86 m 173.51 36.45 d s 173.59 34.19 m 173.61 35.60 d
 s 173.67 39.83 m 173.69 41.24 d s 173.75 45.47 m 173.77 46.88 d s 173.84 51.11 m 173.86 52.52 d s 173.92 56.75 m 173.94 58.16 d s 174.01 62.39 m 174.03 63.80 d s 174.09 68.03 m 174.11 69.44 d s 174.17 73.67 m 174.19 75.08 d
 s 174.26 79.31 m 174.28 80.72 d s 174.34 84.95 m 174.36 86.36 d s 174.43 90.59 m 174.45 92.00 d s 174.51 96.23 m 174.53 97.64 d s 174.59 101.87 m 174.62 103.28 d s 174.68 107.51 m 174.70 108.92 d s 174.76 113.15 m 174.78 114.56 d
 s 174.85 118.79 m 174.87 120.20 d s 174.93 124.42 m 174.95 125.83 d s 175.01 130.06 m 175.04 131.47 d s 175.10 135.70 m 175.12 137.11 d s 175.18 141.34 m 175.20 142.75 d s 175.27 146.98 m 175.29 148.39 d s 175.35 152.62 m 175.37 154.03 d
 s 176.39 154.45 m 177.08 153.22 d s 178.67 149.30 m 179.14 148.09 d 179.22 148.02 d s 182.77 145.87 m 183.02 145.79 d 184.17 145.73 d s 188.37 146.11 m 189.05 146.18 d 189.78 146.24 d s 193.98 146.69 m 195.38 146.85 d s 199.59 147.33 m
 199.76 147.34 d 200.98 147.50 d s 205.19 147.98 m 206.59 148.15 d s 210.79 148.65 m 211.39 148.72 d 212.19 148.81 d s 216.39 149.29 m 217.79 149.45 d s 222.00 149.92 m 223.40 150.09 d s 227.60 150.58 m 229.00 150.73 d s 233.23 150.83 m
 234.64 150.86 d s 238.87 150.93 m 240.27 150.97 d s 244.50 151.04 m 245.91 151.07 d s 250.14 151.13 m 251.55 151.17 d s 255.78 151.23 m 257.19 151.26 d s 261.42 151.35 m 261.98 151.36 d 262.83 151.39 d s 267.06 151.53 m 268.47 151.57 d
 s 272.70 151.70 m 274.10 151.75 d s 278.33 151.88 m 278.83 151.89 d 279.74 151.92 d s 283.97 152.05 m 285.38 152.09 d s 289.61 152.21 m 289.61 152.21 d 291.02 152.28 d s 295.24 152.48 m 296.65 152.54 d s 300.87 152.77 m 300.93 152.77 d
 302.28 152.83 d s 306.51 153.03 m 307.92 153.09 d s 312.14 153.30 m 312.81 153.34 d 313.55 153.38 d s 317.77 153.59 m 319.18 153.65 d s 323.41 153.80 m 324.82 153.85 d s 329.05 153.96 m 329.55 153.97 d 330.46 154.00 d s 334.68 154.13 m
 336.09 154.16 d s 340.32 154.28 m 341.73 154.32 d s 345.96 154.45 m 347.37 154.50 d s 351.60 154.59 m 352.11 154.61 d 353.01 154.63 d s 357.24 154.76 m 358.65 154.80 d s 1.0 0.0 1.0 setrgbcolor s 303.15 56.40 m 308.80 56.40 d
 s 314.44 56.40 m 320.08 56.40 d s 337.45 58.76 m 337.45 53.58 d 337.45 57.35 d 336.99 57.35 d 338.40 57.35 d s 340.76 53.58 m 341.68 53.58 d 342.63 54.53 d 342.63 56.40 d 341.68 57.35 d 340.76 57.35 d 339.81 56.40 d 339.81 54.53 d
 340.76 53.58 d s 344.04 53.58 m 345.91 53.58 d 346.86 54.53 d 346.86 56.40 d 345.91 57.35 d 344.04 57.35 d 344.04 52.17 d s 61.37 130.18 m 61.37 130.18 d 61.41 130.18 d 61.44 130.18 d 61.48 130.18 d 61.51 130.18 d 61.55 130.18 d
 61.58 130.18 d 61.62 130.18 d 61.65 130.18 d 61.69 130.18 d 61.72 130.18 d 61.76 130.18 d 61.79 130.18 d 61.83 130.18 d 61.86 130.18 d 61.90 130.18 d 61.93 130.18 d 61.97 130.18 d 62.00 130.18 d 62.04 130.18 d 62.08 130.18 d 62.11 130.18 d
 62.15 130.18 d 62.18 130.18 d 62.22 130.18 d 62.25 130.18 d 62.29 130.18 d 62.32 130.18 d 62.36 130.18 d 62.39 130.18 d 62.43 130.18 d 62.46 130.18 d 62.50 130.18 d 62.53 130.18 d 62.57 130.18 d 62.60 130.18 d 62.64 130.18 d 62.67 130.18 d
 62.71 130.18 d 62.74 130.18 d 62.78 130.18 d 62.82 130.18 d 62.85 130.18 d 62.89 130.18 d 62.92 130.18 d 62.96 130.18 d 62.99 130.18 d 63.03 130.18 d 63.06 130.18 d 63.10 130.18 d 63.13 130.18 d 63.17 130.18 d 63.20 130.18 d 63.24 130.18 d
 63.27 130.18 d 63.31 130.18 d 63.34 130.18 d 63.38 130.18 d 63.41 130.18 d 63.45 130.18 d 63.49 130.18 d 63.52 130.18 d 63.56 130.18 d 63.59 130.18 d 63.63 130.18 d 63.66 130.18 d 63.70 130.18 d 63.73 130.18 d 63.77 130.18 d 63.80 130.18 d
 63.84 130.18 d 63.91 130.18 d 63.94 130.18 d 63.98 130.18 d 64.01 130.18 d 64.05 130.18 d 64.12 130.18 d 64.16 130.18 d 64.19 130.18 d 64.23 130.18 d 64.30 130.18 d 64.33 130.18 d 64.40 130.18 d 64.44 130.18 d 64.47 130.18 d 64.54 130.18 d
 64.58 130.18 d 64.65 130.18 d 64.68 130.18 d 64.75 130.18 d 64.79 130.18 d 64.86 130.18 d 64.93 130.18 d 64.97 130.18 d 65.04 130.18 d 65.11 130.18 d 65.14 130.18 d 65.21 130.18 d 65.28 130.18 d 65.35 130.18 d 65.39 130.18 d 65.46 130.18 d
 65.53 130.18 d 65.60 130.18 d 65.67 130.18 d 65.74 130.18 d 65.81 130.18 d 65.88 130.18 d 65.95 130.18 d 66.02 130.18 d 66.13 130.18 d 66.20 130.18 d 66.27 130.18 d 66.34 130.18 d 66.41 130.18 d 66.52 130.18 d 66.59 130.18 d 66.69 130.18 d
 66.76 130.18 d 66.87 130.18 d 66.94 130.18 d 67.02 130.18 d s 72.66 130.18 m 72.72 130.18 d 72.90 130.18 d 73.07 130.18 d 73.28 130.18 d 73.46 130.18 d 73.67 130.18 d 73.88 130.18 d 74.06 130.18 d 74.27 130.18 d 74.48 130.18 d
 74.69 130.18 d 74.91 130.18 d 75.15 130.18 d 75.36 130.18 d 75.58 130.18 d 75.82 130.18 d 76.07 130.18 d 76.28 130.18 d 76.53 130.18 d 76.77 130.18 d 77.02 130.18 d 77.30 130.18 d 77.55 130.18 d 77.83 130.18 d 78.08 130.18 d 78.30 130.18 d
 s 83.94 130.18 m 84.07 130.18 d 84.46 130.18 d 84.81 130.18 d 85.20 130.18 d 85.59 130.18 d 85.97 130.18 d 86.40 130.18 d 86.79 130.18 d 87.21 130.18 d 87.63 130.18 d 88.05 130.18 d 88.48 130.18 d 88.94 130.18 d 89.39 130.18 d
 89.58 130.18 d s 95.22 130.18 m 95.35 130.18 d 95.92 130.18 d 96.48 130.18 d 97.04 130.18 d 97.64 130.18 d 98.24 130.18 d 98.84 130.18 d 99.44 130.18 d 100.04 130.18 d 100.67 130.18 d 100.86 130.18 d s 106.50 130.18 m 106.84 130.18 d
 107.58 130.18 d 108.32 130.18 d 109.10 130.18 d 109.87 130.18 d 110.65 130.18 d 111.46 130.18 d 112.14 130.18 d s 117.78 130.18 m 118.33 130.18 d 119.29 130.18 d 120.24 130.18 d 121.19 130.18 d 122.14 130.18 d 123.13 130.18 d
 123.42 130.18 d s 129.06 130.18 m 129.40 130.18 d 130.53 130.18 d 131.66 130.18 d 132.79 130.18 d 133.95 130.18 d 134.70 130.18 d s 140.34 130.18 m 141.32 130.18 d 142.62 130.18 d 143.96 130.18 d 145.30 130.18 d 145.98 130.18 d
 s 151.62 130.18 m 152.35 130.18 d 153.83 130.18 d 155.35 130.18 d 156.86 130.18 d 157.26 130.18 d s 162.90 130.18 m 163.24 130.18 d 164.90 130.18 d 166.59 130.18 d 168.28 130.18 d 168.54 130.18 d s 174.18 130.18 m 175.40 130.18 d
 177.27 130.18 d 179.14 130.18 d 179.82 130.18 d s 185.46 130.18 m 187.00 130.18 d 189.05 130.18 d 191.10 130.18 d s 196.74 130.18 m 197.58 130.18 d 199.76 130.18 d 202.02 130.18 d 202.38 130.18 d s 208.02 130.18 m 209.00 130.18 d
 211.39 130.18 d 213.66 130.18 d s 219.30 130.18 m 221.41 130.18 d 224.01 130.18 d 224.94 130.18 d s 230.58 130.18 m 232.09 130.18 d 234.87 130.18 d 236.22 130.18 d s 241.86 130.18 m 243.47 130.18 d 246.43 130.18 d 247.50 130.18 d
 s 253.14 130.18 m 255.60 130.18 d 258.77 130.18 d s 264.42 130.18 m 265.22 130.18 d 268.53 130.18 d 270.06 130.18 d s 275.70 130.18 m 278.83 130.18 d 281.34 130.18 d s 286.98 130.18 m 289.61 130.18 d 292.62 130.18 d s 298.26 130.18 m
 300.93 130.18 d 303.90 130.18 d s 309.54 130.18 m 312.81 130.18 d 315.18 130.18 d s 320.82 130.18 m 321.06 130.18 d 325.29 130.18 d 326.46 130.18 d s 332.10 130.18 m 333.92 130.18 d 337.74 130.18 d s 343.38 130.18 m 347.46 130.18 d
 349.02 130.18 d s 354.66 130.18 m 356.84 130.18 d 360.30 130.18 d s 1.0 1.0 1.0 setrgbcolor s 0.16  setlinewidth s 0.00 0.00 m 382.11 0.00 d 382.11 245.34 d 0.00 245.34 d 0.00 0.00 d
 s grestore
