%!PS-Adobe-2.0 EPSF-2.0
%%BoundingBox:      0          0        373        245
 /m {moveto} def /d {lineto} def /s {stroke newpath} def gsave newpath 1 setlinecap 1 setlinejoin
 s 0.0 0.0 0.0 setrgbcolor s 0.80  setlinewidth s 9.87 120.27 m 2.82 120.27 d 2.82 123.20 d 3.98 124.36 d 5.18 124.36 d 6.35 123.20 d 6.35 120.27 d 6.35 122.04 d 9.87 124.36 d s 2.82 129.09 m 3.42 128.49 d 5.18 127.89 d 7.51 127.89 d
 9.27 128.49 d 9.87 129.09 d s 9.87 134.94 m 9.87 131.41 d 2.82 131.41 d 2.82 134.94 d 2.82 131.41 d 6.35 131.41 d 6.35 133.17 d s 2.82 137.90 m 3.42 138.46 d 5.18 139.06 d 7.51 139.06 d 9.27 138.46 d 9.87 137.90 d s 40.89 25.38 m
 45.40 25.38 d 45.40 23.83 d 45.40 25.38 d 52.91 25.38 d 52.91 23.83 d 52.91 22.56 d s 45.37 17.87 m 46.78 19.74 d 46.78 14.10 d s 50.09 14.10 m 49.60 14.10 d 49.60 14.56 d 50.09 14.56 d 50.09 14.10 d s 54.32 14.10 m 55.24 14.56 d
 55.73 15.97 d 55.73 17.87 d 55.24 19.28 d 54.32 19.74 d 53.37 19.28 d 52.91 17.87 d 52.91 15.97 d 53.37 14.56 d 54.32 14.10 d s 58.55 14.10 m 59.47 14.56 d 59.96 15.97 d 59.96 17.87 d 59.47 19.28 d 58.55 19.74 d 57.60 19.28 d 57.14 17.87 d
 57.14 15.97 d 57.60 14.56 d 58.55 14.10 d s 52.91 22.56 m 52.91 25.38 d 60.42 25.38 d 60.42 23.83 d 60.42 25.38 d 67.93 25.38 d 67.93 23.83 d 67.93 25.38 d 75.44 25.38 d 75.44 23.83 d 75.44 25.38 d 82.94 25.38 d 82.94 23.83 d 82.94 25.38 d
 90.45 25.38 d 90.45 23.83 d 90.45 22.56 d s 82.91 17.87 m 84.32 19.74 d 84.32 14.10 d s 87.63 14.10 m 87.14 14.10 d 87.14 14.56 d 87.63 14.56 d 87.63 14.10 d s 91.86 14.10 m 92.78 14.56 d 93.27 15.97 d 93.27 17.87 d 92.78 19.28 d
 91.86 19.74 d 90.91 19.28 d 90.45 17.87 d 90.45 15.97 d 90.91 14.56 d 91.86 14.10 d s 96.09 14.10 m 97.01 14.56 d 97.50 15.97 d 97.50 17.87 d 97.01 19.28 d 96.09 19.74 d 95.14 19.28 d 94.68 17.87 d 94.68 15.97 d 95.14 14.56 d 96.09 14.10 d
 s 90.45 22.56 m 90.45 25.38 d 97.96 25.38 d 97.96 23.83 d 97.96 25.38 d 105.43 25.38 d 105.43 23.83 d 105.43 25.38 d 112.94 25.38 d 112.94 23.83 d 112.94 25.38 d 120.45 25.38 d 120.45 23.83 d 120.45 25.38 d 127.96 25.38 d 127.96 23.83 d
 127.96 22.56 d s 120.45 17.87 m 121.86 19.74 d 121.86 14.10 d s 125.14 14.10 m 124.68 14.10 d 124.68 14.56 d 125.14 14.56 d 125.14 14.10 d s 129.37 14.10 m 130.32 14.56 d 130.78 15.97 d 130.78 17.87 d 130.32 19.28 d 129.37 19.74 d
 128.45 19.28 d 127.96 17.87 d 127.96 15.97 d 128.45 14.56 d 129.37 14.10 d s 133.14 17.87 m 134.55 19.74 d 134.55 14.10 d s 127.96 22.56 m 127.96 25.38 d 135.47 25.38 d 135.47 23.83 d 135.47 25.38 d 142.97 25.38 d 142.97 23.83 d
 142.97 25.38 d 150.48 25.38 d 150.48 23.83 d 150.48 25.38 d 157.99 25.38 d 157.99 23.83 d 157.99 25.38 d 165.50 25.38 d 165.50 23.83 d 165.50 22.56 d s 157.99 17.87 m 159.40 19.74 d 159.40 14.10 d s 162.68 14.10 m 162.22 14.10 d
 162.22 14.56 d 162.68 14.56 d 162.68 14.10 d s 166.91 14.10 m 167.86 14.56 d 168.32 15.97 d 168.32 17.87 d 167.86 19.28 d 166.91 19.74 d 165.99 19.28 d 165.50 17.87 d 165.50 15.97 d 165.99 14.56 d 166.91 14.10 d s 170.68 17.87 m
 172.09 19.74 d 172.09 14.10 d s 165.50 22.56 m 165.50 25.38 d 173.01 25.38 d 173.01 23.83 d 173.01 25.38 d 180.52 25.38 d 180.52 23.83 d 180.52 25.38 d 188.02 25.38 d 188.02 23.83 d 188.02 25.38 d 195.53 25.38 d 195.53 23.83 d
 195.53 25.38 d 203.04 25.38 d 203.04 23.83 d 203.04 22.56 d s 195.53 17.87 m 196.94 19.74 d 196.94 14.10 d s 200.22 14.10 m 199.76 14.10 d 199.76 14.56 d 200.22 14.56 d 200.22 14.10 d s 204.45 14.10 m 205.40 14.56 d 205.86 15.97 d
 205.86 17.87 d 205.40 19.28 d 204.45 19.74 d 203.50 19.28 d 203.04 17.87 d 203.04 15.97 d 203.50 14.56 d 204.45 14.10 d s 207.27 18.79 m 208.22 19.74 d 209.14 19.74 d 210.09 18.79 d 210.09 17.87 d 209.63 16.92 d 207.27 14.10 d
 210.09 14.10 d s 203.04 22.56 m 203.04 25.38 d 210.55 25.38 d 210.55 23.83 d 210.55 25.38 d 218.06 25.38 d 218.06 23.83 d 218.06 25.38 d 225.56 25.38 d 225.56 23.83 d 225.56 25.38 d 233.07 25.38 d 233.07 23.83 d 233.07 25.38 d
 240.58 25.38 d 240.58 23.83 d 240.58 22.56 d s 233.04 17.87 m 234.45 19.74 d 234.45 14.10 d s 237.76 14.10 m 237.27 14.10 d 237.27 14.56 d 237.76 14.56 d 237.76 14.10 d s 241.99 14.10 m 242.91 14.56 d 243.40 15.97 d 243.40 17.87 d
 242.91 19.28 d 241.99 19.74 d 241.04 19.28 d 240.58 17.87 d 240.58 15.97 d 241.04 14.56 d 241.99 14.10 d s 244.81 18.79 m 245.73 19.74 d 246.68 19.74 d 247.63 18.79 d 247.63 17.87 d 247.14 16.92 d 244.81 14.10 d 247.63 14.10 d
 s 240.58 22.56 m 240.58 25.38 d 248.09 25.38 d 248.09 23.83 d 248.09 25.38 d 255.60 25.38 d 255.60 23.83 d 255.60 25.38 d 263.11 25.38 d 263.11 23.83 d 263.11 25.38 d 270.61 25.38 d 270.61 23.83 d 270.61 25.38 d 278.12 25.38 d
 278.12 23.83 d 278.12 22.56 d s 270.58 17.87 m 271.99 19.74 d 271.99 14.10 d s 275.30 14.10 m 274.81 14.10 d 274.81 14.56 d 275.30 14.56 d 275.30 14.10 d s 279.53 14.10 m 280.45 14.56 d 280.94 15.97 d 280.94 17.87 d 280.45 19.28 d
 279.53 19.74 d 278.58 19.28 d 278.12 17.87 d 278.12 15.97 d 278.58 14.56 d 279.53 14.10 d s 282.35 19.74 m 284.22 19.74 d 285.17 18.79 d 285.17 17.87 d 284.22 16.92 d 283.27 16.92 d 284.22 16.92 d 285.17 15.97 d 285.17 15.05 d
 284.22 14.10 d 282.35 14.10 d s 278.12 22.56 m 278.12 25.38 d 285.63 25.38 d 285.63 23.83 d 285.63 25.38 d 293.14 25.38 d 293.14 23.83 d 293.14 25.38 d 300.65 25.38 d 300.65 23.83 d 300.65 25.38 d 308.12 25.38 d 308.12 23.83 d
 308.12 25.38 d 315.63 25.38 d 315.63 23.83 d 315.63 22.56 d s 308.12 17.87 m 309.53 19.74 d 309.53 14.10 d s 312.81 14.10 m 312.35 14.10 d 312.35 14.56 d 312.81 14.56 d 312.81 14.10 d s 317.04 14.10 m 317.99 14.56 d 318.45 15.97 d
 318.45 17.87 d 317.99 19.28 d 317.04 19.74 d 316.12 19.28 d 315.63 17.87 d 315.63 15.97 d 316.12 14.56 d 317.04 14.10 d s 319.86 19.74 m 321.76 19.74 d 322.68 18.79 d 322.68 17.87 d 321.76 16.92 d 320.81 16.92 d 321.76 16.92 d
 322.68 15.97 d 322.68 15.05 d 321.76 14.10 d 319.86 14.10 d s 315.63 22.56 m 315.63 25.38 d 323.14 25.38 d 323.14 23.83 d 323.14 25.38 d 330.65 25.38 d 330.65 23.83 d 330.65 25.38 d 338.15 25.38 d 338.15 23.83 d 338.15 25.38 d
 345.66 25.38 d 345.66 23.83 d 345.66 25.38 d 353.17 25.38 d 353.17 23.83 d 353.17 22.56 d s 345.66 17.87 m 347.07 19.74 d 347.07 14.10 d s 350.35 14.10 m 349.89 14.10 d 349.89 14.56 d 350.35 14.56 d 350.35 14.10 d s 354.58 14.10 m
 355.53 14.56 d 355.99 15.97 d 355.99 17.87 d 355.53 19.28 d 354.58 19.74 d 353.66 19.28 d 353.17 17.87 d 353.17 15.97 d 353.66 14.56 d 354.58 14.10 d s 358.81 19.74 m 357.40 15.51 d 360.22 15.51 d 359.30 15.51 d 359.30 16.92 d
 359.30 14.10 d s 353.17 22.56 m 353.17 25.38 d 360.68 25.38 d 360.68 23.83 d 360.68 25.38 d 365.19 25.38 d s 190.35 2.82 m 187.53 2.82 d 187.53 8.46 d 190.35 8.46 d 187.53 8.46 d 187.53 5.64 d 188.94 5.64 d s 198.35 8.46 m 197.86 8.00 d
 197.40 6.59 d 197.40 4.69 d 197.86 3.28 d 198.35 2.82 d s 203.50 8.46 m 201.17 8.46 d 200.22 7.51 d 200.22 3.77 d 201.17 2.82 d 203.50 2.82 d 203.50 5.64 d 202.09 5.64 d s 204.91 4.69 m 207.73 4.69 d 207.73 5.64 d 206.81 6.59 d
 205.86 6.59 d 204.91 5.64 d 204.91 3.77 d 205.86 2.82 d 207.73 2.82 d s 209.14 8.46 m 211.04 2.82 d 212.91 8.46 d s 215.27 8.46 m 215.73 8.00 d 216.19 6.59 d 216.19 4.69 d 215.73 3.28 d 215.27 2.82 d s 40.89 236.88 m 45.40 236.88 d
 45.40 238.43 d 45.40 236.88 d 52.91 236.88 d 52.91 238.43 d 52.91 239.70 d s 52.91 239.70 m 52.91 236.88 d 60.42 236.88 d 60.42 238.43 d 60.42 236.88 d 67.93 236.88 d 67.93 238.43 d 67.93 236.88 d 75.44 236.88 d 75.44 238.43 d
 75.44 236.88 d 82.94 236.88 d 82.94 238.43 d 82.94 236.88 d 90.45 236.88 d 90.45 238.43 d 90.45 239.70 d s 90.45 239.70 m 90.45 236.88 d 97.96 236.88 d 97.96 238.43 d 97.96 236.88 d 105.43 236.88 d 105.43 238.43 d 105.43 236.88 d
 112.94 236.88 d 112.94 238.43 d 112.94 236.88 d 120.45 236.88 d 120.45 238.43 d 120.45 236.88 d 127.96 236.88 d 127.96 238.43 d 127.96 239.70 d s 127.96 239.70 m 127.96 236.88 d 135.47 236.88 d 135.47 238.43 d 135.47 236.88 d
 142.97 236.88 d 142.97 238.43 d 142.97 236.88 d 150.48 236.88 d 150.48 238.43 d 150.48 236.88 d 157.99 236.88 d 157.99 238.43 d 157.99 236.88 d 165.50 236.88 d 165.50 238.43 d 165.50 239.70 d s 165.50 239.70 m 165.50 236.88 d
 173.01 236.88 d 173.01 238.43 d 173.01 236.88 d 180.52 236.88 d 180.52 238.43 d 180.52 236.88 d 188.02 236.88 d 188.02 238.43 d 188.02 236.88 d 195.53 236.88 d 195.53 238.43 d 195.53 236.88 d 203.04 236.88 d 203.04 238.43 d 203.04 239.70 d
 s 203.04 239.70 m 203.04 236.88 d 210.55 236.88 d 210.55 238.43 d 210.55 236.88 d 218.06 236.88 d 218.06 238.43 d 218.06 236.88 d 225.56 236.88 d 225.56 238.43 d 225.56 236.88 d 233.07 236.88 d 233.07 238.43 d 233.07 236.88 d
 240.58 236.88 d 240.58 238.43 d 240.58 239.70 d s 240.58 239.70 m 240.58 236.88 d 248.09 236.88 d 248.09 238.43 d 248.09 236.88 d 255.60 236.88 d 255.60 238.43 d 255.60 236.88 d 263.11 236.88 d 263.11 238.43 d 263.11 236.88 d
 270.61 236.88 d 270.61 238.43 d 270.61 236.88 d 278.12 236.88 d 278.12 238.43 d 278.12 239.70 d s 278.12 239.70 m 278.12 236.88 d 285.63 236.88 d 285.63 238.43 d 285.63 236.88 d 293.14 236.88 d 293.14 238.43 d 293.14 236.88 d
 300.65 236.88 d 300.65 238.43 d 300.65 236.88 d 308.12 236.88 d 308.12 238.43 d 308.12 236.88 d 315.63 236.88 d 315.63 238.43 d 315.63 239.70 d s 315.63 239.70 m 315.63 236.88 d 323.14 236.88 d 323.14 238.43 d 323.14 236.88 d
 330.65 236.88 d 330.65 238.43 d 330.65 236.88 d 338.15 236.88 d 338.15 238.43 d 338.15 236.88 d 345.66 236.88 d 345.66 238.43 d 345.66 236.88 d 353.17 236.88 d 353.17 238.43 d 353.17 239.70 d s 353.17 239.70 m 353.17 236.88 d
 360.68 236.88 d 360.68 238.43 d 360.68 236.88 d 365.19 236.88 d s 40.89 25.38 m 40.89 33.21 d 39.34 33.21 d 38.07 33.21 d s 25.38 30.39 m 26.33 30.88 d 26.79 32.29 d 26.79 34.16 d 26.33 35.57 d 25.38 36.03 d 24.43 35.57 d 23.97 34.16 d
 23.97 32.29 d 24.43 30.88 d 25.38 30.39 d s 29.61 30.39 m 29.15 30.39 d 29.15 30.88 d 29.61 30.88 d 29.61 30.39 d s 33.84 30.39 m 34.79 30.88 d 35.25 32.29 d 35.25 34.16 d 34.79 35.57 d 33.84 36.03 d 32.89 35.57 d 32.43 34.16 d
 32.43 32.29 d 32.89 30.88 d 33.84 30.39 d s 38.07 33.21 m 40.89 33.21 d 40.89 52.70 d 39.34 52.70 d 40.89 52.70 d 40.89 72.16 d 39.34 72.16 d 38.07 72.16 d s 20.69 73.11 m 22.10 74.98 d 22.10 69.34 d s 25.38 69.34 m 26.33 69.83 d
 26.79 71.24 d 26.79 73.11 d 26.33 74.52 d 25.38 74.98 d 24.43 74.52 d 23.97 73.11 d 23.97 71.24 d 24.43 69.83 d 25.38 69.34 d s 29.61 69.34 m 29.15 69.34 d 29.15 69.83 d 29.61 69.83 d 29.61 69.34 d s 33.84 69.34 m 34.79 69.83 d
 35.25 71.24 d 35.25 73.11 d 34.79 74.52 d 33.84 74.98 d 32.89 74.52 d 32.43 73.11 d 32.43 71.24 d 32.89 69.83 d 33.84 69.34 d s 38.07 72.16 m 40.89 72.16 d 40.89 91.65 d 39.34 91.65 d 40.89 91.65 d 40.89 111.11 d 39.34 111.11 d
 38.07 111.11 d s 19.74 113.01 m 20.69 113.93 d 21.61 113.93 d 22.56 113.01 d 22.56 112.06 d 22.10 111.11 d 19.74 108.29 d 22.56 108.29 d s 25.38 108.29 m 26.33 108.78 d 26.79 110.19 d 26.79 112.06 d 26.33 113.47 d 25.38 113.93 d
 24.43 113.47 d 23.97 112.06 d 23.97 110.19 d 24.43 108.78 d 25.38 108.29 d s 29.61 108.29 m 29.15 108.29 d 29.15 108.78 d 29.61 108.78 d 29.61 108.29 d s 33.84 108.29 m 34.79 108.78 d 35.25 110.19 d 35.25 112.06 d 34.79 113.47 d
 33.84 113.93 d 32.89 113.47 d 32.43 112.06 d 32.43 110.19 d 32.89 108.78 d 33.84 108.29 d s 38.07 111.11 m 40.89 111.11 d 40.89 130.60 d 39.34 130.60 d 40.89 130.60 d 40.89 150.06 d 39.34 150.06 d 38.07 150.06 d s 19.74 152.88 m
 21.61 152.88 d 22.56 151.96 d 22.56 151.01 d 21.61 150.06 d 20.69 150.06 d 21.61 150.06 d 22.56 149.14 d 22.56 148.19 d 21.61 147.24 d 19.74 147.24 d s 25.38 147.24 m 26.33 147.73 d 26.79 149.14 d 26.79 151.01 d 26.33 152.42 d
 25.38 152.88 d 24.43 152.42 d 23.97 151.01 d 23.97 149.14 d 24.43 147.73 d 25.38 147.24 d s 29.61 147.24 m 29.15 147.24 d 29.15 147.73 d 29.61 147.73 d 29.61 147.24 d s 33.84 147.24 m 34.79 147.73 d 35.25 149.14 d 35.25 151.01 d
 34.79 152.42 d 33.84 152.88 d 32.89 152.42 d 32.43 151.01 d 32.43 149.14 d 32.89 147.73 d 33.84 147.24 d s 38.07 150.06 m 40.89 150.06 d 40.89 169.55 d 39.34 169.55 d 40.89 169.55 d 40.89 189.01 d 39.34 189.01 d 38.07 189.01 d
 s 21.15 191.83 m 19.74 187.60 d 22.56 187.60 d 21.61 187.60 d 21.61 189.01 d 21.61 186.19 d s 25.38 186.19 m 26.33 186.68 d 26.79 188.09 d 26.79 189.96 d 26.33 191.37 d 25.38 191.83 d 24.43 191.37 d 23.97 189.96 d 23.97 188.09 d
 24.43 186.68 d 25.38 186.19 d s 29.61 186.19 m 29.15 186.19 d 29.15 186.68 d 29.61 186.68 d 29.61 186.19 d s 33.84 186.19 m 34.79 186.68 d 35.25 188.09 d s 35.25 188.09 m 35.25 189.96 d 34.79 191.37 d 33.84 191.83 d 32.89 191.37 d
 32.43 189.96 d 32.43 188.09 d 32.89 186.68 d 33.84 186.19 d s 38.07 189.01 m 40.89 189.01 d 40.89 208.50 d 39.34 208.50 d 40.89 208.50 d 40.89 227.96 d 39.34 227.96 d 38.07 227.96 d s 19.74 225.14 m 21.61 225.14 d 22.56 226.09 d
 22.56 227.05 d 21.61 227.96 d 19.74 227.96 d 19.74 230.78 d 22.56 230.78 d s 25.38 225.14 m 26.33 225.64 d 26.79 227.05 d 26.79 228.91 d 26.33 230.32 d 25.38 230.78 d 24.43 230.32 d 23.97 228.91 d 23.97 227.05 d 24.43 225.64 d
 25.38 225.14 d s 29.61 225.14 m 29.15 225.14 d 29.15 225.64 d 29.61 225.64 d 29.61 225.14 d s 33.84 225.14 m 34.79 225.64 d 35.25 227.05 d 35.25 228.91 d 34.79 230.32 d 33.84 230.78 d 32.89 230.32 d 32.43 228.91 d 32.43 227.05 d
 32.89 225.64 d 33.84 225.14 d s 38.07 227.96 m 40.89 227.96 d 40.89 236.88 d s 365.19 25.38 m 365.19 33.21 d 366.74 33.21 d 368.01 33.21 d s 368.01 33.21 m 365.19 33.21 d 365.19 52.70 d 366.74 52.70 d 365.19 52.70 d 365.19 72.16 d
 366.74 72.16 d 368.01 72.16 d s 368.01 72.16 m 365.19 72.16 d 365.19 91.65 d 366.74 91.65 d 365.19 91.65 d 365.19 111.11 d 366.74 111.11 d 368.01 111.11 d s 368.01 111.11 m 365.19 111.11 d 365.19 130.60 d 366.74 130.60 d 365.19 130.60 d
 365.19 150.06 d 366.74 150.06 d 368.01 150.06 d s 368.01 150.06 m 365.19 150.06 d 365.19 169.55 d 366.74 169.55 d 365.19 169.55 d 365.19 189.01 d 366.74 189.01 d 368.01 189.01 d s 368.01 189.01 m 365.19 189.01 d 365.19 208.50 d
 366.74 208.50 d 365.19 208.50 d 365.19 227.96 d 366.74 227.96 d 368.01 227.96 d s 368.01 227.96 m 365.19 227.96 d 365.19 236.88 d s 1.0 0.0 0.0 setrgbcolor s 0.16  setlinewidth s 105.75 227.01 m 107.16 224.47 d 104.34 224.47 d
 105.75 227.01 d s 119.85 228.42 m 121.26 222.78 d 122.21 225.60 d 123.13 222.78 d 124.54 228.42 d s 125.95 222.78 m 127.85 228.42 d 129.72 222.78 d 129.26 224.19 d 126.44 224.19 d s 136.70 220.91 m 137.51 223.59 d 138.04 224.93 d
 138.57 225.99 d 139.13 226.55 d 139.66 226.55 d 140.19 225.99 d 140.19 225.21 d 139.94 224.40 d 139.38 223.59 d 138.57 223.06 d 137.79 222.78 d 136.98 222.78 d 136.42 223.06 d 136.17 223.31 d 135.89 223.84 d 135.89 224.65 d 136.17 225.46 d
 136.70 225.99 d 137.23 226.27 d s 148.33 226.55 m 146.43 226.55 d 145.51 225.60 d 145.51 223.73 d 146.43 222.78 d 148.33 222.78 d 148.33 228.42 d s 152.56 224.65 m 150.20 224.65 d 149.74 224.19 d 149.74 223.24 d 150.20 222.78 d
 152.56 222.78 d 152.56 226.06 d 152.07 226.55 d 150.20 226.55 d s 154.43 227.96 m 154.43 222.78 d 154.43 226.55 d 153.97 226.55 d 155.38 226.55 d s 159.61 224.65 m 157.25 224.65 d 156.79 224.19 d 156.79 223.24 d 157.25 222.78 d
 159.61 222.78 d 159.61 226.06 d 159.12 226.55 d 157.25 226.55 d s 52.91 39.48 m 54.32 36.94 d 51.50 36.94 d 52.91 39.48 d s 52.91 39.55 m 54.32 37.01 d 51.50 37.01 d 52.91 39.55 d s 80.69 40.15 m 82.10 37.61 d 79.28 37.61 d 80.69 40.15 d
 s 82.17 40.19 m 83.58 37.65 d 80.76 37.65 d 82.17 40.19 d s 90.45 40.89 m 91.86 38.35 d 89.04 38.35 d 90.45 40.89 d s 105.43 42.41 m 106.84 39.87 d 104.02 39.87 d 105.43 42.41 d s 117.45 43.75 m 118.86 41.21 d 116.04 41.21 d 117.45 43.75 d
 s 129.47 45.37 m 130.88 42.83 d 128.06 42.83 d 129.47 45.37 d s 130.21 45.51 m 131.62 42.97 d 128.80 42.97 d 130.21 45.51 d s 150.48 56.22 m 151.89 53.69 d 149.07 53.69 d 150.48 56.22 d s 157.25 63.27 m 158.66 60.74 d 155.84 60.74 d
 157.25 63.27 d s 165.50 72.97 m 166.91 70.43 d 164.09 70.43 d 165.50 72.97 d s 168.50 79.35 m 169.91 76.81 d 167.09 76.81 d 168.50 79.35 d s 170.75 85.62 m 172.16 83.08 d 169.34 83.08 d 170.75 85.62 d s 178.26 113.65 m 179.67 111.11 d
 176.85 111.11 d 178.26 113.65 d s 178.26 115.13 m 179.67 112.59 d 176.85 112.59 d 178.26 115.13 d s 179.03 116.57 m 180.44 114.03 d 177.62 114.03 d 179.03 116.57 d s 182.77 137.44 m 184.18 134.90 d 181.36 134.90 d 182.77 137.44 d
 s 185.03 155.38 m 186.44 152.84 d 183.62 152.84 d 185.03 155.38 d s 185.03 158.77 m 186.44 156.23 d 183.62 156.23 d 185.03 158.77 d s 185.77 162.71 m 187.18 160.18 d 184.36 160.18 d 185.77 162.71 d s 187.28 174.70 m 188.69 172.16 d
 185.87 172.16 d 187.28 174.70 d s 188.02 178.12 m 189.43 175.58 d 186.61 175.58 d 188.02 178.12 d s 190.28 196.24 m 191.69 193.70 d 188.87 193.70 d 190.28 196.24 d s 192.54 211.50 m 193.95 208.96 d 191.13 208.96 d 192.54 211.50 d
 s 194.02 216.58 m 195.43 214.04 d 192.61 214.04 d 194.02 216.58 d s 194.02 217.28 m 195.43 214.74 d 192.61 214.74 d 194.02 217.28 d s 196.27 225.04 m 197.68 222.50 d 194.86 222.50 d 196.27 225.04 d s 199.30 228.91 m 200.71 226.38 d
 197.89 226.38 d 199.30 228.91 d s 199.30 228.77 m 200.71 226.23 d 197.89 226.23 d 199.30 228.77 d s 200.04 224.05 m 201.45 221.51 d 198.63 221.51 d 200.04 224.05 d s 201.52 218.27 m 202.93 215.73 d 200.11 215.73 d 201.52 218.27 d
 s 206.04 187.78 m 207.45 185.24 d 204.63 185.24 d 206.04 187.78 d s 208.29 174.35 m 209.70 171.81 d 206.88 171.81 d 208.29 174.35 d s 213.54 135.43 m 214.95 132.89 d 212.13 132.89 d 213.54 135.43 d s 215.80 124.40 m 217.21 121.86 d
 214.39 121.86 d 215.80 124.40 d s 216.54 121.75 m 217.95 119.22 d 215.13 119.22 d 216.54 121.75 d s 218.80 111.11 m 220.21 108.57 d 217.39 108.57 d 218.80 111.11 d s 220.31 103.78 m 221.72 101.24 d 218.90 101.24 d 220.31 103.78 d
 s 227.82 84.25 m 229.23 81.71 d 226.41 81.71 d 227.82 84.25 d s 240.58 67.47 m 241.99 64.93 d 239.17 64.93 d 240.58 67.47 d s 259.33 53.23 m 260.74 50.69 d 257.92 50.69 d 259.33 53.23 d s 263.11 51.61 m 264.52 49.07 d 261.70 49.07 d
 263.11 51.61 d s 264.59 51.11 m 266.00 48.57 d 263.18 48.57 d 264.59 51.11 d s 305.12 44.06 m 306.53 41.52 d 303.71 41.52 d 305.12 44.06 d s 306.64 43.75 m 308.05 41.21 d 305.23 41.21 d 306.64 43.75 d s 315.63 43.25 m 317.04 40.71 d
 314.22 40.71 d 315.63 43.25 d s 338.15 42.05 m 339.56 39.52 d 336.74 39.52 d 338.15 42.05 d s 350.17 41.35 m 351.58 38.81 d 348.76 38.81 d 350.17 41.35 d s 350.17 41.35 m 351.58 38.81 d 348.76 38.81 d 350.17 41.35 d s 353.17 41.14 m
 354.58 38.60 d 351.76 38.60 d 353.17 41.14 d s 353.17 41.14 m 354.58 38.60 d 351.76 38.60 d 353.17 41.14 d s 52.91 37.93 m 51.50 37.93 d 54.32 37.93 d 52.91 37.93 d 52.91 38.25 d 51.50 38.25 d 54.32 38.25 d 52.91 38.25 d s 52.91 38.00 m
 51.50 38.00 d 54.32 38.00 d 52.91 38.00 d 52.91 38.28 d 51.50 38.28 d 54.32 38.28 d 52.91 38.28 d s 80.69 38.60 m 79.28 38.60 d 82.10 38.60 d 80.69 38.60 d 80.69 38.92 d 79.28 38.92 d 82.10 38.92 d 80.69 38.92 d s 82.17 38.63 m
 80.76 38.63 d 83.58 38.63 d 82.17 38.63 d 82.17 38.95 d 80.76 38.95 d 83.58 38.95 d 82.17 38.95 d s 90.45 39.30 m 89.04 39.30 d 91.86 39.30 d 90.45 39.30 d 90.45 39.66 d 89.04 39.66 d 91.86 39.66 d 90.45 39.66 d s 105.43 40.82 m
 104.02 40.82 d 106.84 40.82 d 105.43 40.82 d 105.43 41.17 d 104.02 41.17 d 106.84 41.17 d 105.43 41.17 d s 117.45 42.12 m 116.04 42.12 d 118.86 42.12 d 117.45 42.12 d 117.45 42.55 d 116.04 42.55 d 118.86 42.55 d 117.45 42.55 d
 s 129.47 43.71 m 128.06 43.71 d 130.88 43.71 d 129.47 43.71 d 129.47 44.20 d 128.06 44.20 d 130.88 44.20 d 129.47 44.20 d s 130.21 43.75 m 128.80 43.75 d 131.62 43.75 d 130.21 43.75 d 130.21 44.42 d 128.80 44.42 d 131.62 44.42 d
 130.21 44.42 d s 150.48 54.36 m 149.07 54.36 d 151.89 54.36 d 150.48 54.36 d 150.48 55.24 d 149.07 55.24 d 151.89 55.24 d 150.48 55.24 d s 157.25 61.30 m 155.84 61.30 d 158.66 61.30 d 157.25 61.30 d 157.25 62.43 d 155.84 62.43 d
 158.66 62.43 d 157.25 62.43 d s 165.50 70.85 m 164.09 70.85 d 166.91 70.85 d 165.50 70.85 d 165.50 72.26 d 164.09 72.26 d 166.91 72.26 d 165.50 72.26 d s 168.50 77.37 m 167.09 77.37 d 169.91 77.37 d 168.50 77.37 d 168.50 78.54 d
 167.09 78.54 d 169.91 78.54 d 168.50 78.54 d s 170.75 83.61 m 169.34 83.61 d 172.16 83.61 d 170.75 83.61 d 170.75 84.81 d 169.34 84.81 d 172.16 84.81 d 170.75 84.81 d s 178.26 111.67 m 176.85 111.67 d 179.67 111.67 d 178.26 111.67 d
 178.26 112.84 d 176.85 112.84 d 179.67 112.84 d 178.26 112.84 d s 178.26 113.05 m 176.85 113.05 d 179.67 113.05 d 178.26 113.05 d 178.26 114.35 d 176.85 114.35 d 179.67 114.35 d 178.26 114.35 d s 179.03 114.46 m 177.62 114.46 d
 180.44 114.46 d 179.03 114.46 d 179.03 115.90 d 177.62 115.90 d 180.44 115.90 d 179.03 115.90 d s 182.77 134.94 m 181.36 134.94 d 184.18 134.94 d 182.77 134.94 d 182.77 137.12 d 181.36 137.12 d 184.18 137.12 d 182.77 137.12 d
 s 185.03 152.99 m 183.62 152.99 d 186.44 152.99 d 185.03 152.99 d 185.03 154.96 d 183.62 154.96 d 186.44 154.96 d 185.03 154.96 d s 185.03 156.40 m 183.62 156.40 d 186.44 156.40 d 185.03 156.40 d 185.03 158.34 d 183.62 158.34 d
 186.44 158.34 d 185.03 158.34 d s 185.77 160.28 m 184.36 160.28 d 187.18 160.28 d 185.77 160.28 d 185.77 162.33 d 184.36 162.33 d 187.18 162.33 d 185.77 162.33 d s 187.28 172.09 m 185.87 172.09 d 188.69 172.09 d 187.28 172.09 d
 187.28 174.45 d 185.87 174.45 d 188.69 174.45 d 187.28 174.45 d s 188.02 175.76 m 186.61 175.76 d 189.43 175.76 d 188.02 175.76 d 188.02 177.62 d 186.61 177.62 d 189.43 177.62 d 188.02 177.62 d s 190.28 193.88 m 188.87 193.88 d
 191.69 193.88 d 190.28 193.88 d 190.28 195.78 d 188.87 195.78 d 191.69 195.78 d 190.28 195.78 d s 192.54 209.10 m 191.13 209.10 d 193.95 209.10 d 192.54 209.10 d 192.54 211.08 d 191.13 211.08 d 193.95 211.08 d 192.54 211.08 d
 s 194.02 214.07 m 192.61 214.07 d 195.43 214.07 d 194.02 214.07 d 194.02 216.29 d 192.61 216.29 d 195.43 216.29 d 194.02 216.29 d s 194.02 214.71 m 192.61 214.71 d 195.43 214.71 d 194.02 214.71 d 194.02 217.07 d 192.61 217.07 d
 195.43 217.07 d 194.02 217.07 d s 196.27 221.72 m 194.86 221.72 d 197.68 221.72 d 196.27 221.72 d 196.27 225.56 d 194.86 225.56 d 197.68 225.56 d 196.27 225.56 d s 199.30 225.99 m 197.89 225.99 d 200.71 225.99 d 199.30 225.99 d
 199.30 229.05 d 197.89 229.05 d 200.71 229.05 d 199.30 229.05 d s 199.30 225.88 m 197.89 225.88 d 200.71 225.88 d 199.30 225.88 d 199.30 228.81 d 197.89 228.81 d 200.71 228.81 d 199.30 228.81 d s 200.04 220.95 m 198.63 220.95 d
 201.45 220.95 d 200.04 220.95 d 200.04 224.30 d 198.63 224.30 d 201.45 224.30 d 200.04 224.30 d s 201.52 214.88 m 200.11 214.88 d 202.93 214.88 d 201.52 214.88 d 201.52 218.83 d 200.11 218.83 d 202.93 218.83 d 201.52 218.83 d
 s 206.04 184.50 m 204.63 184.50 d 207.45 184.50 d 206.04 184.50 d 206.04 188.27 d 204.63 188.27 d 207.45 188.27 d 206.04 188.27 d s 208.29 171.14 m 206.88 171.14 d 209.70 171.14 d 208.29 171.14 d 208.29 174.77 d 206.88 174.77 d
 209.70 174.77 d 208.29 174.77 d s 213.54 132.01 m 212.13 132.01 d 214.95 132.01 d 213.54 132.01 d 213.54 136.07 d 212.13 136.07 d 214.95 136.07 d 213.54 136.07 d s 215.80 121.15 m 214.39 121.15 d 217.21 121.15 d 215.80 121.15 d
 215.80 124.79 d 214.39 124.79 d 217.21 124.79 d 215.80 124.79 d s 216.54 118.65 m 215.13 118.65 d 217.95 118.65 d 216.54 118.65 d 216.54 122.00 d 215.13 122.00 d 217.95 122.00 d 216.54 122.00 d s 218.80 108.43 m 217.39 108.43 d
 220.21 108.43 d 218.80 108.43 d 218.80 110.97 d 217.39 110.97 d 220.21 110.97 d 218.80 110.97 d s 220.31 101.20 m 218.90 101.20 d 221.72 101.20 d 220.31 101.20 d 220.31 103.56 d 218.90 103.56 d 221.72 103.56 d 220.31 103.56 d
 s 227.82 82.06 m 226.41 82.06 d 229.23 82.06 d 227.82 82.06 d 227.82 83.61 d 226.41 83.61 d 229.23 83.61 d 227.82 83.61 d s 240.58 65.39 m 239.17 65.39 d 241.99 65.39 d 240.58 65.39 d 240.58 66.69 d 239.17 66.69 d 241.99 66.69 d
 240.58 66.69 d s 259.33 51.39 m 257.92 51.39 d 260.74 51.39 d 259.33 51.39 d 259.33 52.21 d 257.92 52.21 d 260.74 52.21 d 259.33 52.21 d s 263.11 49.95 m 261.70 49.95 d 264.52 49.95 d 263.11 49.95 d 263.11 50.48 d 261.70 50.48 d
 264.52 50.48 d 263.11 50.48 d s 264.59 49.42 m 263.18 49.42 d 266.00 49.42 d 264.59 49.42 d 264.59 49.98 d 263.18 49.98 d 266.00 49.98 d 264.59 49.98 d s 305.12 42.44 m 303.71 42.44 d 306.53 42.44 d 305.12 42.44 d 305.12 42.86 d
 303.71 42.86 d 306.53 42.86 d 305.12 42.86 d s 306.64 42.12 m 305.23 42.12 d 308.05 42.12 d 306.64 42.12 d 306.64 42.55 d 305.23 42.55 d 308.05 42.55 d 306.64 42.55 d s 315.63 41.63 m 314.22 41.63 d 317.04 41.63 d 315.63 41.63 d
 315.63 42.05 d 314.22 42.05 d 317.04 42.05 d 315.63 42.05 d s 338.15 40.47 m 336.74 40.47 d 339.56 40.47 d 338.15 40.47 d 338.15 40.82 d 336.74 40.82 d 339.56 40.82 d 338.15 40.82 d s 350.17 39.76 m 348.76 39.76 d 351.58 39.76 d
 350.17 39.76 d 350.17 40.15 d 348.76 40.15 d 351.58 40.15 d 350.17 40.15 d s 350.17 39.73 m 348.76 39.73 d 351.58 39.73 d 350.17 39.73 d 350.17 40.11 d 348.76 40.11 d 351.58 40.11 d 350.17 40.11 d s 353.17 39.52 m 351.76 39.52 d
 354.58 39.52 d 353.17 39.52 d 353.17 39.94 d 351.76 39.94 d 354.58 39.94 d 353.17 39.94 d s 353.17 39.52 m 351.76 39.52 d 354.58 39.52 d 353.17 39.52 d 353.17 39.90 d 351.76 39.90 d 354.58 39.90 d 353.17 39.90 d s 0.0 0.0 1.0 setrgbcolor
 s 97.29 208.68 m 114.21 208.68 d s 123.13 205.86 m 123.13 209.63 d s 123.13 211.04 m 123.13 211.50 d s 124.54 205.86 m 124.54 209.63 d 126.44 209.63 d 127.36 208.68 d 127.36 205.86 d s 129.26 205.86 m 129.26 209.63 d s 129.26 211.04 m
 129.26 211.50 d s 131.13 211.04 m 131.13 205.86 d 131.13 209.63 d 130.67 209.63 d 132.08 209.63 d s 133.95 205.86 m 133.95 209.63 d s 133.95 211.04 m 133.95 211.50 d s 138.18 207.73 m 135.82 207.73 d 135.36 207.27 d 135.36 206.32 d
 135.82 205.86 d 138.18 205.86 d 138.18 209.14 d 137.72 209.63 d 135.82 209.63 d s 139.59 211.50 m 139.59 206.32 d 140.05 205.86 d 140.54 205.86 d s 149.46 211.50 m 147.10 211.50 d 146.18 210.55 d 146.18 206.81 d 147.10 205.86 d
 149.46 205.86 d 149.46 208.68 d 148.05 208.68 d s 154.15 210.55 m 153.23 211.50 d 151.82 211.50 d 150.87 210.55 d 150.87 210.09 d 151.33 209.14 d 153.69 208.22 d 154.15 207.27 d 154.15 206.81 d 153.23 205.86 d 151.82 205.86 d
 150.87 206.81 d s 161.20 211.50 m 160.74 211.50 d 160.28 211.04 d 160.28 205.86 d 160.28 209.63 d 159.79 209.63 d 161.20 209.63 d s 163.10 205.86 m 163.10 209.63 d s 163.10 211.04 m 163.10 211.50 d s 164.97 211.04 m 164.97 205.86 d
 164.97 209.63 d 164.51 209.63 d 165.92 209.63 d s 52.91 33.21 m 52.91 35.39 d 80.69 36.55 d 82.17 36.62 d 90.45 37.19 d 105.43 38.56 d 117.45 40.22 d 129.47 42.69 d 130.21 43.04 d 150.48 51.96 d 157.25 57.56 d 165.50 68.91 d 168.50 75.22 d
 170.75 80.93 d 178.26 104.59 d 178.26 106.24 d 179.03 107.94 d 182.77 126.69 d 185.03 142.41 d 185.03 145.51 d 185.77 149.21 d 187.28 160.85 d 188.02 164.30 d 190.28 183.79 d 192.54 201.00 d 194.02 209.24 d 194.02 210.65 d 196.27 221.09 d
 199.30 227.68 d 199.30 227.61 d 200.04 226.45 d 201.52 223.41 d 206.04 195.00 d 208.29 182.24 d 213.54 139.91 d 215.80 127.32 d 216.54 123.87 d 218.80 111.81 d 220.31 103.42 d 227.82 80.19 d 240.58 58.76 d 259.33 46.25 d 263.11 44.94 d
 264.59 44.38 d 305.12 37.75 d 306.64 37.58 d 315.63 36.98 d 338.15 35.88 d 350.17 35.50 d 353.17 35.43 d s 1.0 1.0 1.0 setrgbcolor s 0.00 0.00 m 373.65 0.00 d 373.65 245.34 d 0.00 245.34 d 0.00 0.00 d
 s grestore
